
  ___ ___ ___ _ _ _  
 |   |   |_  | | | | 
 | | | | | . | | | | 
 |__ |  _|___|_____|  1.5.2b1
 |___|_|             

User:   aleksei@compute-0-35
Date:   Sun Feb 17 00:10:39 2019
Arch:   x86_64
Pid:    22617
Python: 3.6.5
gpaw:   /users/home/aleksei/NEW_PROJECTS/gpaw_lcao/source_code/gpaw (4f08e4a709)
_gpaw:  /users/home/aleksei/NEW_PROJECTS/gpaw_lcao/source_code/build/bin.linux-x86_64-3.6/
        gpaw-python (c5ed980b6a)
ase:    /users/home/aleksei/ase_my_fork/ase (version 3.18.0b1-471271e4ee)
numpy:  /opt/share/python/intel2019/intelpython3/lib/python3.6/site-packages/numpy (version 1.15.2)
scipy:  /opt/share/python/intel2019/intelpython3/lib/python3.6/site-packages/scipy (version 1.1.0)
units:  Angstrom and eV
cores:  8

Input parameters:
  basis: dzp
  convergence: {density: 10000000000.0,
                eigenstates: 1e-10,
                energy: 10000000000.0}
  eigensolver: {initial_orbitals: KS,
                initial_rotation: zero,
                linesearch_algo: {'name': 'SwcAwc', 'method': 'LBFGS_P'},
                matrix_exp: egdecomp2,
                name: direct_min_lcao,
                representation: {'name': 'u_invar'},
                searchdir_algo: {'name': 'LBFGS_P'},
                update_precond_counter: 1000,
                update_ref_orbs_counter: 20,
                use_prec: True}
  h: 0.15
  mixer: {method: dummy}
  mode: {interpolation: 3,
         name: lcao}
  nbands: nao
  occupations: {fixmagmom: True,
                name: fermi-dirac,
                width: 0.0}
  xc: PBE

System changes: positions, numbers, cell, pbc, initial_charges, initial_magmoms 

Initialize ...

C-setup:
  name: Carbon
  id: 4aa54d4b901d75f77cc0ea3eec22967b
  Z: 6
  valence: 4
  core: 2
  charge: 0.0
  file: /users/home/aleksei/gpaw-setups-0.9.11271/C.PBE.gz
  cutoffs: 0.64(comp), 1.14(filt), 1.14(core), lmax=2
  valence states:
                energy  radius
    2s(2.00)   -13.751   0.635
    2p(2.00)    -5.284   0.635
    *s          13.461   0.635
    *p          21.927   0.635
    *d           0.000   0.635

  LCAO basis set for C:
    Name: dzp
    File: /users/home/aleksei/gpaw-setups-0.9.11271/C.dzp.basis.gz
    Number of radial functions: 5
    Number of spherical harmonics: 13
      l=0, rc=5.5469 Bohr: 2s-sz confined orbital
      l=1, rc=6.6719 Bohr: 2p-sz confined orbital
      l=0, rc=3.0312 Bohr: 2s-dz split-valence wave
      l=1, rc=3.7500 Bohr: 2p-dz split-valence wave
      l=2, rc=6.6719 Bohr: d-type Gaussian polarization

H-setup:
  name: Hydrogen
  id: d65de229564ff8ea4db303e23b6d1ecf
  Z: 1
  valence: 1
  core: 0
  charge: 0.0
  file: /users/home/aleksei/gpaw-setups-0.9.11271/H.PBE.gz
  cutoffs: 0.48(comp), 0.85(filt), 0.53(core), lmax=2
  valence states:
                energy  radius
    1s(1.00)    -6.494   0.476
    *s          20.717   0.476
    *p           0.000   0.476

  LCAO basis set for H:
    Name: dzp
    File: /users/home/aleksei/gpaw-setups-0.9.11271/H.dzp.basis.gz
    Number of radial functions: 3
    Number of spherical harmonics: 5
      l=0, rc=6.4219 Bohr: 1s-sz confined orbital
      l=0, rc=3.6094 Bohr: 1s-dz split-valence wave
      l=1, rc=6.4219 Bohr: p-type Gaussian polarization

Reference energy: -1065.098602

Spin-polarized calculation.
Magnetic moment: 1.000000

Occupation numbers:
  Fixed magnetic moment
  Fermi-Dirac: width=0.0000 eV

Convergence criteria:
  Maximum total energy change: 1e+10 eV / electron
  Maximum integral of absolute density change: 1e+10 electrons
  Maximum integral of absolute eigenstate change: 1e-10 eV^2
  Maximum number of iterations: 333

Symmetries present (total): 1

  ( 1  0  0)
  ( 0  1  0)
  ( 0  0  1)

1 k-point (Gamma)
1 k-point in the irreducible part of the Brillouin zone
       k-points in crystal coordinates                weights
   0:     0.00000000    0.00000000    0.00000000          1/1

Wave functions: LCAO
  Diagonalizer: Serial LAPACK
  Atomic Correction: dense with blas
  Datatype: float
 

Eigensolver
   Direct minimisation using exponential transformation.
       Search direction: LBFGS algorithm with preconditioning
       Line search: Inexact line search based on cubic interpolation,
                    strong and approximate Wolfe conditions
       Preconditioning: True
       WARNING: do not use it for metals as occupation numbers are
                not found variationally
 

Densities:
  Coarse grid: 104*104*92 grid
  Fine grid: 208*208*184 grid
  Total Charge: 0.000000 

No density mixing

Hamiltonian:
  XC and Coulomb potentials evaluated on a 208*208*184 grid
  Using the PBE Exchange-Correlation functional
  Interpolation: tri-quintic (5. degree polynomial)
  Poisson solver: FastPoissonSolver using
    6*3+1=19 point O(h^6) finite-difference Laplacian stencil;
    FFT axes: [];
    FST axes: [2, 0, 1].
 

XC parameters: PBE with 2 nearest neighbor stencil

Memory estimate:
  Process memory now: 436.49 MiB
  Calculator: 57.48 MiB
    Density: 32.53 MiB
      Arrays: 32.14 MiB
      Localized functions: 0.39 MiB
      Mixer: 0.00 MiB
    Hamiltonian: 23.91 MiB
      Arrays: 23.88 MiB
      XC: 0.00 MiB
      Poisson: 0.00 MiB
      vbar: 0.03 MiB
    Wavefunctions: 1.05 MiB
      C [qnM]: 0.01 MiB
      S, T [2 x qmm]: 0.01 MiB
      P [aqMi]: 0.00 MiB
      BasisFunctions: 1.03 MiB
      Eigensolver: 0.00 MiB

Total number of cores used: 8
Domain decomposition: 2 x 2 x 2

Number of atoms: 4
Number of atomic orbitals: 28
Number of bands in calculation: 28
Bands to converge: occupied states only
Number of valence electrons: 7

... initialized

Initializing position-dependent things.

Density initialized from atomic densities
           .--------------------------------------.  
          /|                                      |  
         / |                                      |  
        /  |                                      |  
       /   |                                      |  
      /    |                                      |  
     /     |                                      |  
    /      |                                      |  
   /       |                                      |  
  /        |                                      |  
 *         |                                      |  
 |         |                                      |  
 |         |                                      |  
 |         |              H                       |  
 |         |           H C H                      |  
 |         |                                      |  
 |         |                                      |  
 |         .--------------------------------------.  
 |        /                                      /   
 |       /                                      /    
 |      /                                      /     
 |     /                                      /      
 |    /                                      /       
 |   /                                      /        
 |  /                                      /         
 | /                                      /          
 |/                                      /           
 *--------------------------------------*            

Positions:
   0 C      7.933930    7.539205    7.000000    ( 0.0000,  0.0000,  1.0000)
   1 H      7.933930    8.617615    7.000000    ( 0.0000,  0.0000,  0.0000)
   2 H      8.867860    7.000000    7.000000    ( 0.0000,  0.0000,  0.0000)
   3 H      7.000000    7.000000    7.000000    ( 0.0000,  0.0000,  0.0000)

Unit cell:
           periodic     x           y           z      points  spacing
  1. axis:    no    15.867860    0.000000    0.000000   104     0.1526
  2. axis:    no     0.000000   15.617615    0.000000   104     0.1502
  3. axis:    no     0.000000    0.000000   14.000000    92     0.1522

  Lengths:  15.867860  15.617615  14.000000
  Angles:   90.000000  90.000000  90.000000

Effective grid spacing dv^(1/3) = 0.1516

                     log10-error:    total        iterations:
           time      wfs    density  energy       fermi  poisson  magmom
iter:   1  00:10:48  +0.80          -17.456656    0      1        +1.0000
iter:   2  00:10:49  -0.28          -17.488186    0      1        +1.0000
iter:   3  00:10:51  -2.47          -17.490975    0      1        +1.0000
iter:   4  00:10:53  -3.59          -17.491005    0      1        +1.0000
iter:   5  00:10:55  -4.92          -17.491008    0      1        +1.0000
iter:   6  00:10:56  -5.16          -17.491008    0      1        +1.0000
iter:   7  00:10:58  -6.19          -17.491008    0      1        +1.0000
iter:   8  00:11:00  -8.07          -17.491008    0      1        +1.0000
iter:   9  00:11:02  -9.03          -17.491008    0      1        +1.0000
iter:  10  00:11:05 -11.28          -17.491008    0      1        +1.0000

Converged after 10 iterations.

Dipole moment: (0.000000, -0.000044, 0.000000) |e|*Ang

Total magnetic moment: (0.000000, 0.000000, 1.000001)
Local magnetic moments:
   0 C  ( 0.000000,  0.000000,  0.331428)
   1 H  ( 0.000000,  0.000000, -0.007753)
   2 H  ( 0.000000,  0.000000, -0.007747)
   3 H  ( 0.000000,  0.000000, -0.007747)

Energy contributions relative to reference atoms: (reference = -1065.098602)

Kinetic:        +15.179309
Potential:      -16.678141
External:        +0.000000
XC:             -16.019109
Entropy (-ST):   +0.000000
Local:           +0.026933
--------------------------
Free energy:    -17.491008
Extrapolated:   -17.491008

Spin contamination: 0.043794 electrons
Fermi levels: -1.46292, -6.20087

                   Up                     Down
 Band  Eigenvalues  Occupancy  Eigenvalues  Occupancy
    0    -16.83764    1.00000    -15.87851    1.00000
    1    -10.14959    1.00000     -9.84716    1.00000
    2    -10.14952    1.00000     -9.84707    1.00000
    3     -5.17839    1.00000     -2.55466    0.00000
    4      2.25256    0.00000      2.66827    0.00000
    5      4.20041    0.00000      4.36436    0.00000
    6      4.20055    0.00000      4.36450    0.00000
    7      9.23951    0.00000      9.35116    0.00000
    8      9.24068    0.00000      9.35217    0.00000
    9     10.08248    0.00000     11.24477    0.00000
   10     10.41778    0.00000     11.75487    0.00000
   11     15.91967    0.00000     16.11800    0.00000
   12     15.92096    0.00000     16.11929    0.00000
   13     18.98938    0.00000     19.78854    0.00000
   14     18.98942    0.00000     19.78860    0.00000
   15     22.08999    0.00000     23.00104    0.00000
   16     26.70454    0.00000     26.64043    0.00000
   17     30.96049    0.00000     31.07956    0.00000
   18     30.96116    0.00000     31.07992    0.00000
   19     31.95156    0.00000     32.53827    0.00000
   20     32.71058    0.00000     34.54198    0.00000
   21     38.36096    0.00000     39.60878    0.00000
   22     38.36134    0.00000     39.60895    0.00000
   23     43.81808    0.00000     43.95511    0.00000
   24     43.82118    0.00000     43.95937    0.00000
   25     53.33376    0.00000     53.62652    0.00000
   26     53.73782    0.00000     54.01540    0.00000
   27     53.73993    0.00000     54.01826    0.00000

Gap: 2.624 eV
Transition (v -> c):
  (s=0, k=0, n=3, [0.00, 0.00, 0.00]) -> (s=1, k=0, n=3, [0.00, 0.00, 0.00])
Timing:                                incl.     excl.
-------------------------------------------------------------
Basic WFS set positions:               0.000     0.000   0.0% |
Basis functions set positions:         0.006     0.006   0.0% |
LCAO WFS Initialize:                   1.720     0.058   0.2% |
 Hamiltonian:                          1.662     0.003   0.0% |
  Atomic:                              0.000     0.000   0.0% |
   XC Correction:                      0.000     0.000   0.0% |
  Calculate atomic Hamiltonians:       0.000     0.000   0.0% |
  Communicate:                         0.079     0.079   0.3% |
  Hartree integrate/restrict:          0.040     0.040   0.2% |
  Initialize Hamiltonian:              0.003     0.003   0.0% |
  Poisson:                             0.330     0.009   0.0% |
   Communicate bwd 0:                  0.061     0.061   0.2% |
   Communicate bwd 1:                  0.061     0.061   0.2% |
   Communicate fwd 0:                  0.059     0.059   0.2% |
   Communicate fwd 1:                  0.064     0.064   0.2% |
   fft:                                0.022     0.022   0.1% |
   fft2:                               0.054     0.054   0.2% |
  XC 3D grid:                          1.204     1.204   4.6% |-|
  vbar:                                0.003     0.003   0.0% |
P tci:                                 0.000     0.000   0.0% |
SCF-cycle:                            22.622     0.003   0.0% |
 Direct Minimisation step:            20.886     0.001   0.0% |
  Broadcast gradients:                 0.000     0.000   0.0% |
  Calculate gradients:                 0.109     0.003   0.0% |
   Construct Gradient Matrix:          0.001     0.001   0.0% |
   DenseAtomicCorrection:              0.001     0.001   0.0% |
   Distribute overlap matrix:          0.015     0.015   0.1% |
   Potential matrix:                   0.088     0.088   0.3% |
   Residual:                           0.001     0.001   0.0% |
  Get Search Direction:                0.002     0.002   0.0% |
  LCAO eigensolver:                    0.009     0.000   0.0% |
   Calculate projections:              0.000     0.000   0.0% |
   DenseAtomicCorrection:              0.000     0.000   0.0% |
   Distribute overlap matrix:          0.001     0.001   0.0% |
   Orbital Layouts:                    0.000     0.000   0.0% |
   Potential matrix:                   0.007     0.007   0.0% |
  Preconditioning::                    0.001     0.001   0.0% |
  Unitary rotation:                    0.008     0.001   0.0% |
   Broadcast coefficients:             0.000     0.000   0.0% |
   Eigendecomposition:                 0.007     0.007   0.0% |
  Update Kohn-Sham energy:            20.756     0.000   0.0% |
   Density:                            0.800     0.000   0.0% |
    Atomic density matrices:           0.025     0.025   0.1% |
    Mix:                               0.667     0.667   2.5% ||
    Multipole moments:                 0.002     0.002   0.0% |
    Normalize:                         0.004     0.004   0.0% |
    Pseudo density:                    0.103     0.012   0.0% |
     Calculate density matrix:         0.001     0.001   0.0% |
     Construct density:                0.090     0.090   0.3% |
     Symmetrize density:               0.000     0.000   0.0% |
   Hamiltonian:                       19.955     0.020   0.1% |
    Atomic:                            0.004     0.004   0.0% |
     XC Correction:                    0.000     0.000   0.0% |
    Calculate atomic Hamiltonians:     0.005     0.005   0.0% |
    Communicate:                       0.961     0.961   3.6% ||
    Hartree integrate/restrict:        0.473     0.473   1.8% ||
    New Kinetic Energy:                0.002     0.001   0.0% |
     Pseudo part:                      0.001     0.001   0.0% |
    Poisson:                           3.929     0.102   0.4% |
     Communicate bwd 0:                0.737     0.737   2.8% ||
     Communicate bwd 1:                0.738     0.738   2.8% ||
     Communicate fwd 0:                0.695     0.695   2.6% ||
     Communicate fwd 1:                0.751     0.751   2.8% ||
     fft:                              0.264     0.264   1.0% |
     fft2:                             0.643     0.643   2.4% ||
    XC 3D grid:                       14.523    14.523  55.1% |---------------------|
    vbar:                              0.038     0.038   0.1% |
 Get canonical representation:         1.733     0.000   0.0% |
  LCAO eigensolver:                    0.009     0.000   0.0% |
   Calculate projections:              0.000     0.000   0.0% |
   DenseAtomicCorrection:              0.000     0.000   0.0% |
   Distribute overlap matrix:          0.001     0.001   0.0% |
   Orbital Layouts:                    0.000     0.000   0.0% |
   Potential matrix:                   0.007     0.007   0.0% |
  Update Kohn-Sham energy:             1.723     0.000   0.0% |
   Density:                            0.068     0.000   0.0% |
    Atomic density matrices:           0.002     0.002   0.0% |
    Mix:                               0.057     0.057   0.2% |
    Multipole moments:                 0.000     0.000   0.0% |
    Normalize:                         0.000     0.000   0.0% |
    Pseudo density:                    0.009     0.001   0.0% |
     Calculate density matrix:         0.000     0.000   0.0% |
     Construct density:                0.007     0.007   0.0% |
     Symmetrize density:               0.000     0.000   0.0% |
   Hamiltonian:                        1.655     0.002   0.0% |
    Atomic:                            0.000     0.000   0.0% |
     XC Correction:                    0.000     0.000   0.0% |
    Calculate atomic Hamiltonians:     0.000     0.000   0.0% |
    Communicate:                       0.080     0.080   0.3% |
    Hartree integrate/restrict:        0.040     0.040   0.1% |
    New Kinetic Energy:                0.000     0.000   0.0% |
     Pseudo part:                      0.000     0.000   0.0% |
    Poisson:                           0.322     0.008   0.0% |
     Communicate bwd 0:                0.060     0.060   0.2% |
     Communicate bwd 1:                0.061     0.061   0.2% |
     Communicate fwd 0:                0.056     0.056   0.2% |
     Communicate fwd 1:                0.061     0.061   0.2% |
     fft:                              0.022     0.022   0.1% |
     fft2:                             0.054     0.054   0.2% |
    XC 3D grid:                        1.208     1.208   4.6% |-|
    vbar:                              0.003     0.003   0.0% |
ST tci:                                0.001     0.001   0.0% |
Set symmetry:                          0.001     0.001   0.0% |
TCI: Evaluate splines:                 0.201     0.201   0.8% |
mktci:                                 0.001     0.001   0.0% |
Other:                                 1.827     1.827   6.9% |--|
-------------------------------------------------------------
Total:                                          26.379 100.0%

Memory usage: 436.49 MiB
Date: Sun Feb 17 00:11:05 2019
