/users/home/aleksei/NEW_PROJECTS/gpaw_lcao/dm_vs_scf/h2o/dm_u_inv/a

Currently Loaded Modules:
  1) python/intel-3.6-2019   3) intel/mkl/2017.2
  2) intel/compiler/2017.2   4) intel/impi/2017.4

/users/home/aleksei/NEW_PROJECTS/gpaw_lcao/source_code/build/bin.linux-x86_64-3.6/gpaw-python
	15	-442.53038169663427	17	20.43947410583496	178.133
	14	-886.3359802387391	16	48.390562534332275	354.875
	14	-1775.1390538757971	16	189.7514133453369	1042.035
	14	-3555.627265269268	16	1092.812171459198	3226.820
	13	-5330.926334319869	15	3186.3082060813904	6866.000
	13	-7992.937665711049	15	10493.361836194992	14877.879
Stop time is Wed Feb 20 16:27:47 GMT 2019
Used walltime:  4h:10m:36s
========= Job finished ===================
