
  ___ ___ ___ _ _ _  
 |   |   |_  | | | | 
 | | | | | . | | | | 
 |__ |  _|___|_____|  1.5.2b1
 |___|_|             

User:   aleksei@compute-0-13
Date:   Wed Feb 20 13:20:01 2019
Arch:   x86_64
Pid:    30045
Python: 3.6.5
gpaw:   /users/home/aleksei/NEW_PROJECTS/gpaw_lcao/source_code/gpaw (75f3e393b1)
_gpaw:  /users/home/aleksei/NEW_PROJECTS/gpaw_lcao/source_code/build/bin.linux-x86_64-3.6/
        gpaw-python (fa5ca3e740)
ase:    /users/home/aleksei/ase_my_fork/ase (version 3.18.0b1-471271e4ee)
numpy:  /opt/share/python/intel2019/intelpython3/lib/python3.6/site-packages/numpy (version 1.15.2)
scipy:  /opt/share/python/intel2019/intelpython3/lib/python3.6/site-packages/scipy (version 1.1.0)
libxc:  4.0.4
units:  Angstrom and eV
cores:  8

Input parameters:
  basis: dzp
  convergence: {density: 10000000000.0,
                eigenstates: 1e-10,
                energy: 10000000000.0}
  h: 0.2
  mode: {interpolation: 3,
         name: lcao}
  occupations: {fixmagmom: True,
                name: fermi-dirac,
                width: 0.0}
  poissonsolver: {eps: 1e-16,
                  name: fast,
                  nn: 3}
  xc: PBE

System changes: positions, numbers, cell, pbc, initial_charges, initial_magmoms 

Initialize ...

O-setup:
  name: Oxygen
  id: 32ecd46bf208036f09c70b0ec9a88b78
  Z: 8
  valence: 6
  core: 2
  charge: 0.0
  file: /users/home/aleksei/gpaw-setups-0.9.11271/O.PBE.gz
  cutoffs: 0.67(comp), 1.17(filt), 0.83(core), lmax=2
  valence states:
                energy  radius
    2s(2.00)   -23.961   0.688
    2p(4.00)    -9.029   0.598
    *s           3.251   0.688
    *p          18.182   0.598
    *d           0.000   0.619

  LCAO basis set for O:
    Name: dzp
    File: /users/home/aleksei/gpaw-setups-0.9.11271/O.dzp.basis.gz
    Number of radial functions: 5
    Number of spherical harmonics: 13
      l=0, rc=4.3438 Bohr: 2s-sz confined orbital
      l=1, rc=5.3906 Bohr: 2p-sz confined orbital
      l=0, rc=2.2969 Bohr: 2s-dz split-valence wave
      l=1, rc=2.8906 Bohr: 2p-dz split-valence wave
      l=2, rc=5.3906 Bohr: d-type Gaussian polarization

H-setup:
  name: Hydrogen
  id: d65de229564ff8ea4db303e23b6d1ecf
  Z: 1
  valence: 1
  core: 0
  charge: 0.0
  file: /users/home/aleksei/gpaw-setups-0.9.11271/H.PBE.gz
  cutoffs: 0.48(comp), 0.85(filt), 0.53(core), lmax=2
  valence states:
                energy  radius
    1s(1.00)    -6.494   0.476
    *s          20.717   0.476
    *p           0.000   0.476

  LCAO basis set for H:
    Name: dzp
    File: /users/home/aleksei/gpaw-setups-0.9.11271/H.dzp.basis.gz
    Number of radial functions: 3
    Number of spherical harmonics: 5
      l=0, rc=6.4219 Bohr: 1s-sz confined orbital
      l=0, rc=3.6094 Bohr: 1s-dz split-valence wave
      l=1, rc=6.4219 Bohr: p-type Gaussian polarization

Reference energy: -264426.576079

Spin-paired calculation

Occupation numbers:
  Fixed magnetic moment
  Fermi-Dirac: width=0.0000 eV

Convergence criteria:
  Maximum total energy change: 1e+10 eV / electron
  Maximum integral of absolute density change: 1e+10 electrons
  Maximum integral of absolute eigenstate change: 1e-10 eV^2
  Maximum number of iterations: 333

Symmetries present (total): 1

  ( 1  0  0)
  ( 0  1  0)
  ( 0  0  1)

1 k-point (Gamma)
1 k-point in the irreducible part of the Brillouin zone
       k-points in crystal coordinates                weights
   0:     0.00000000    0.00000000    0.00000000          1/1

Wave functions: LCAO
  Diagonalizer: Serial LAPACK
  Atomic Correction: dense with blas
  Datatype: float
 

Eigensolver
   LCAO using direct dense diagonalizer 

Densities:
  Coarse grid: 100*100*48 grid
  Fine grid: 200*200*96 grid
  Total Charge: 0.000000 

Density mixing:
  Method: separate
  Backend: pulay
  Linear mixing parameter: 0.05
  Mixing with 5 old densities
  Damping of long wave oscillations: 50 

Hamiltonian:
  XC and Coulomb potentials evaluated on a 200*200*96 grid
  Using the PBE Exchange-Correlation functional
  Interpolation: tri-quintic (5. degree polynomial)
  Poisson solver: FastPoissonSolver using
    6*3+1=19 point O(h^6) finite-difference Laplacian stencil;
    FFT axes: [0, 1, 2];
    FST axes: [].
 

XC parameters: PBE with 2 nearest neighbor stencil

Memory estimate:
  Process memory now: 244.32 MiB
  Calculator: 227.45 MiB
    Density: 36.53 MiB
      Arrays: 11.90 MiB
      Localized functions: 20.05 MiB
      Mixer: 4.58 MiB
    Hamiltonian: 9.22 MiB
      Arrays: 7.78 MiB
      XC: 0.00 MiB
      Poisson: 0.00 MiB
      vbar: 1.44 MiB
    Wavefunctions: 181.69 MiB
      C [qnM]: 13.90 MiB
      S, T [2 x qmm]: 132.25 MiB
      P [aqMi]: 1.03 MiB
      BasisFunctions: 34.50 MiB
      Eigensolver: 0.00 MiB

Total number of cores used: 8
Domain decomposition: 2 x 4 x 1

Number of atoms: 384
Number of atomic orbitals: 2944
Number of bands in calculation: 619
Bands to converge: occupied states only
Number of valence electrons: 1024

... initialized

Initializing position-dependent things.

Density initialized from atomic densities
             .-----------------------------------------------.  
            /|            H O H     H             H O H     H|  
           / |H     H                 H     H                |  
          /O |    H        H      HO      H        H      H  |  
         /   |   H      H O     H    H   H      H O     H    H  
        /    |H  H O H    HH    H   O H  H O H    HH    H   O|  
       / H   HH        HOH O     HO  HH        HOH O      O  |  
      /      |  HH  H O H  O  HO        HH  H O H  O  HO     |  
     /  H    HHO O   H   HH     H H  HHO O   H   HH     H H  |  
    /O      H|HH    HH H OH HOHH OOHH HH    HH H OH H HH OOH |  
   /       H |    H OO    HO H H   H      H OO    HO H H     |  
  /     H HH O HH   HH  H H   O HHHH O HH   HH  H H   O  H   |  
 * H   HH  O H--OHOH-O-OH--HO--HHO-O-H--OHOH-O-OH--HO----O---.  
 |      O HH/     O  OH OO O    O HH      O  OH OO O      H /   
 |     H O O   H   HH     H HH H O O   H   HH     H HH     /    
 |      HH/   HH H OH   HH OOH  HH    HH H OH   HH OOH  O /     
 |       /   H O     O H             H O     O H         /      
 |  H   / H  O    H        HH     H  O    H        H    /       
 |H  O H  O  H   OH  H    HO O H  O  H   OH  H     O   /        
 |O H /         H OH O    O H           H OH O      H /         
 | H /   H             H   H     H             H     /          
 |  /   O                 O     O                 O /           
 | /   H                       H                   /            
 |/    O                       O                  /             
 *-----------------------------------------------*              

Positions:
   0 O     -0.069000    0.824000   -1.295000    ( 0.0000,  0.0000,  0.0000)
   1 H      0.786000    0.943000   -0.752000    ( 0.0000,  0.0000,  0.0000)
   2 H     -0.414000   -0.001000   -0.865000    ( 0.0000,  0.0000,  0.0000)
   3 O     -0.282000   -0.674000   -3.822000    ( 0.0000,  0.0000,  0.0000)
   4 H      0.018000   -0.147000   -4.624000    ( 0.0000,  0.0000,  0.0000)
   5 H     -0.113000   -0.080000   -3.034000    ( 0.0000,  0.0000,  0.0000)
   6 O      2.253000    1.261000    0.151000    ( 0.0000,  0.0000,  0.0000)
   7 H      2.606000    0.638000   -0.539000    ( 0.0000,  0.0000,  0.0000)
   8 H      2.455000    0.790000    1.019000    ( 0.0000,  0.0000,  0.0000)
   9 O      3.106000   -0.276000   -1.795000    ( 0.0000,  0.0000,  0.0000)
  10 H      2.914000    0.459000   -2.386000    ( 0.0000,  0.0000,  0.0000)
  11 H      2.447000   -1.053000   -1.919000    ( 0.0000,  0.0000,  0.0000)
  12 O      6.257000   -0.625000   -0.626000    ( 0.0000,  0.0000,  0.0000)
  13 H      7.107000   -1.002000   -0.317000    ( 0.0000,  0.0000,  0.0000)
  14 H      5.526000   -1.129000   -0.131000    ( 0.0000,  0.0000,  0.0000)
  15 O      5.451000   -1.261000   -2.937000    ( 0.0000,  0.0000,  0.0000)
  16 H      4.585000   -0.957000   -2.503000    ( 0.0000,  0.0000,  0.0000)
  17 H      6.079000   -0.919000   -2.200000    ( 0.0000,  0.0000,  0.0000)
  18 O     -0.515000    3.689000    0.482000    ( 0.0000,  0.0000,  0.0000)
  19 H     -0.218000    3.020000   -0.189000    ( 0.0000,  0.0000,  0.0000)
  20 H      0.046000    3.568000    1.382000    ( 0.0000,  0.0000,  0.0000)
  21 O     -0.205000    2.640000   -3.337000    ( 0.0000,  0.0000,  0.0000)
  22 H     -1.083000    2.576000   -3.771000    ( 0.0000,  0.0000,  0.0000)
  23 H     -0.213000    1.885000   -2.680000    ( 0.0000,  0.0000,  0.0000)
  24 O      0.132000    6.301000   -0.278000    ( 0.0000,  0.0000,  0.0000)
  25 H      1.104000    6.366000   -0.068000    ( 0.0000,  0.0000,  0.0000)
  26 H     -0.148000    5.363000   -0.112000    ( 0.0000,  0.0000,  0.0000)
  27 O     -0.505000    6.680000   -3.285000    ( 0.0000,  0.0000,  0.0000)
  28 H     -0.674000    7.677000   -3.447000    ( 0.0000,  0.0000,  0.0000)
  29 H     -0.965000    6.278000   -2.517000    ( 0.0000,  0.0000,  0.0000)
  30 O      4.063000    3.342000   -0.474000    ( 0.0000,  0.0000,  0.0000)
  31 H      4.950000    2.912000   -0.663000    ( 0.0000,  0.0000,  0.0000)
  32 H      3.484000    2.619000   -0.125000    ( 0.0000,  0.0000,  0.0000)
  33 O      2.575000    2.404000   -3.170000    ( 0.0000,  0.0000,  0.0000)
  34 H      1.694000    2.841000   -3.296000    ( 0.0000,  0.0000,  0.0000)
  35 H      3.049000    2.956000   -2.503000    ( 0.0000,  0.0000,  0.0000)
  36 O      6.666000    2.030000   -0.815000    ( 0.0000,  0.0000,  0.0000)
  37 H      7.476000    2.277000   -0.316000    ( 0.0000,  0.0000,  0.0000)
  38 H      6.473000    1.064000   -0.651000    ( 0.0000,  0.0000,  0.0000)
  39 O      6.860000    2.591000   -3.584000    ( 0.0000,  0.0000,  0.0000)
  40 H      6.928000    3.530000   -3.176000    ( 0.0000,  0.0000,  0.0000)
  41 H      6.978000    2.097000   -2.754000    ( 0.0000,  0.0000,  0.0000)
  42 O      2.931000    6.022000   -0.243000    ( 0.0000,  0.0000,  0.0000)
  43 H      3.732000    6.562000   -0.004000    ( 0.0000,  0.0000,  0.0000)
  44 H      3.226000    5.115000   -0.404000    ( 0.0000,  0.0000,  0.0000)
  45 O      2.291000    7.140000   -2.455000    ( 0.0000,  0.0000,  0.0000)
  46 H      1.317000    6.937000   -2.532000    ( 0.0000,  0.0000,  0.0000)
  47 H      2.586000    6.574000   -1.669000    ( 0.0000,  0.0000,  0.0000)
  48 O      6.843000    5.460000    1.065000    ( 0.0000,  0.0000,  0.0000)
  49 H      7.803000    5.290000    0.852000    ( 0.0000,  0.0000,  0.0000)
  50 H      6.727000    5.424000    2.062000    ( 0.0000,  0.0000,  0.0000)
  51 O      6.896000    4.784000   -2.130000    ( 0.0000,  0.0000,  0.0000)
  52 H      6.191000    5.238000   -2.702000    ( 0.0000,  0.0000,  0.0000)
  53 H      6.463000    4.665000   -1.259000    ( 0.0000,  0.0000,  0.0000)
  54 O      0.398000    0.691000    4.098000    ( 0.0000,  0.0000,  0.0000)
  55 H      0.047000    1.567000    3.807000    ( 0.0000,  0.0000,  0.0000)
  56 H      1.268000    0.490000    3.632000    ( 0.0000,  0.0000,  0.0000)
  57 O      2.687000    0.272000    2.641000    ( 0.0000,  0.0000,  0.0000)
  58 H      3.078000    1.126000    3.027000    ( 0.0000,  0.0000,  0.0000)
  59 H      3.376000   -0.501000    2.793000    ( 0.0000,  0.0000,  0.0000)
  60 O      6.002000   -0.525000    4.002000    ( 0.0000,  0.0000,  0.0000)
  61 H      6.152000    0.405000    3.660000    ( 0.0000,  0.0000,  0.0000)
  62 H      5.987000   -0.447000    4.980000    ( 0.0000,  0.0000,  0.0000)
  63 O      0.649000    3.541000    2.897000    ( 0.0000,  0.0000,  0.0000)
  64 H      0.245000    4.301000    3.459000    ( 0.0000,  0.0000,  0.0000)
  65 H      1.638000    3.457000    3.084000    ( 0.0000,  0.0000,  0.0000)
  66 O     -0.075000    5.662000    4.233000    ( 0.0000,  0.0000,  0.0000)
  67 H     -0.182000    6.512000    3.776000    ( 0.0000,  0.0000,  0.0000)
  68 H     -0.241000    5.961000    5.212000    ( 0.0000,  0.0000,  0.0000)
  69 O      3.243000    2.585000    3.878000    ( 0.0000,  0.0000,  0.0000)
  70 H      3.110000    2.343000    4.817000    ( 0.0000,  0.0000,  0.0000)
  71 H      4.262000    2.718000    3.780000    ( 0.0000,  0.0000,  0.0000)
  72 O      5.942000    2.582000    3.712000    ( 0.0000,  0.0000,  0.0000)
  73 H      6.250000    3.500000    3.566000    ( 0.0000,  0.0000,  0.0000)
  74 H      6.379000    2.564000    4.636000    ( 0.0000,  0.0000,  0.0000)
  75 O      2.686000    5.638000    5.164000    ( 0.0000,  0.0000,  0.0000)
  76 H      1.781000    5.472000    4.698000    ( 0.0000,  0.0000,  0.0000)
  77 H      2.454000    6.286000    5.887000    ( 0.0000,  0.0000,  0.0000)
  78 O      6.744000    5.276000    3.826000    ( 0.0000,  0.0000,  0.0000)
  79 H      6.238000    5.608000    4.632000    ( 0.0000,  0.0000,  0.0000)
  80 H      7.707000    5.258000    4.110000    ( 0.0000,  0.0000,  0.0000)
  81 O      8.573000    8.472000    0.407000    ( 0.0000,  0.0000,  0.0000)
  82 H      9.069000    7.656000    0.067000    ( 0.0000,  0.0000,  0.0000)
  83 H      8.472000    8.425000    1.397000    ( 0.0000,  0.0000,  0.0000)
  84 O      8.758000    8.245000    2.989000    ( 0.0000,  0.0000,  0.0000)
  85 H      9.294000    9.091000    3.172000    ( 0.0000,  0.0000,  0.0000)
  86 H      7.906000    8.527000    3.373000    ( 0.0000,  0.0000,  0.0000)
  87 O      4.006000    7.734000    3.021000    ( 0.0000,  0.0000,  0.0000)
  88 H      4.685000    8.238000    3.547000    ( 0.0000,  0.0000,  0.0000)
  89 H      3.468000    7.158000    3.624000    ( 0.0000,  0.0000,  0.0000)
  90 O      5.281000    6.089000    6.035000    ( 0.0000,  0.0000,  0.0000)
  91 H      5.131000    7.033000    6.378000    ( 0.0000,  0.0000,  0.0000)
  92 H      4.428000    5.704000    5.720000    ( 0.0000,  0.0000,  0.0000)
  93 O      5.067000    7.323000    0.662000    ( 0.0000,  0.0000,  0.0000)
  94 H      5.785000    6.667000    0.703000    ( 0.0000,  0.0000,  0.0000)
  95 H      4.718000    7.252000    1.585000    ( 0.0000,  0.0000,  0.0000)
  96 O     -0.069000   10.679373   -1.295000    ( 0.0000,  0.0000,  0.0000)
  97 H      0.786000   10.798373   -0.752000    ( 0.0000,  0.0000,  0.0000)
  98 H     -0.414000    9.854373   -0.865000    ( 0.0000,  0.0000,  0.0000)
  99 O     -0.282000    9.181373   -3.822000    ( 0.0000,  0.0000,  0.0000)
 100 H      0.018000    9.708373   -4.624000    ( 0.0000,  0.0000,  0.0000)
 101 H     -0.113000    9.775373   -3.034000    ( 0.0000,  0.0000,  0.0000)
 102 O      2.253000   11.116373    0.151000    ( 0.0000,  0.0000,  0.0000)
 103 H      2.606000   10.493373   -0.539000    ( 0.0000,  0.0000,  0.0000)
 104 H      2.455000   10.645373    1.019000    ( 0.0000,  0.0000,  0.0000)
 105 O      3.106000    9.579373   -1.795000    ( 0.0000,  0.0000,  0.0000)
 106 H      2.914000   10.314373   -2.386000    ( 0.0000,  0.0000,  0.0000)
 107 H      2.447000    8.802373   -1.919000    ( 0.0000,  0.0000,  0.0000)
 108 O      6.257000    9.230373   -0.626000    ( 0.0000,  0.0000,  0.0000)
 109 H      7.107000    8.853373   -0.317000    ( 0.0000,  0.0000,  0.0000)
 110 H      5.526000    8.726373   -0.131000    ( 0.0000,  0.0000,  0.0000)
 111 O      5.451000    8.594373   -2.937000    ( 0.0000,  0.0000,  0.0000)
 112 H      4.585000    8.898373   -2.503000    ( 0.0000,  0.0000,  0.0000)
 113 H      6.079000    8.936373   -2.200000    ( 0.0000,  0.0000,  0.0000)
 114 O     -0.515000   13.544373    0.482000    ( 0.0000,  0.0000,  0.0000)
 115 H     -0.218000   12.875373   -0.189000    ( 0.0000,  0.0000,  0.0000)
 116 H      0.046000   13.423373    1.382000    ( 0.0000,  0.0000,  0.0000)
 117 O     -0.205000   12.495373   -3.337000    ( 0.0000,  0.0000,  0.0000)
 118 H     -1.083000   12.431373   -3.771000    ( 0.0000,  0.0000,  0.0000)
 119 H     -0.213000   11.740373   -2.680000    ( 0.0000,  0.0000,  0.0000)
 120 O      0.132000   16.156373   -0.278000    ( 0.0000,  0.0000,  0.0000)
 121 H      1.104000   16.221373   -0.068000    ( 0.0000,  0.0000,  0.0000)
 122 H     -0.148000   15.218373   -0.112000    ( 0.0000,  0.0000,  0.0000)
 123 O     -0.505000   16.535373   -3.285000    ( 0.0000,  0.0000,  0.0000)
 124 H     -0.674000   17.532373   -3.447000    ( 0.0000,  0.0000,  0.0000)
 125 H     -0.965000   16.133373   -2.517000    ( 0.0000,  0.0000,  0.0000)
 126 O      4.063000   13.197373   -0.474000    ( 0.0000,  0.0000,  0.0000)
 127 H      4.950000   12.767373   -0.663000    ( 0.0000,  0.0000,  0.0000)
 128 H      3.484000   12.474373   -0.125000    ( 0.0000,  0.0000,  0.0000)
 129 O      2.575000   12.259373   -3.170000    ( 0.0000,  0.0000,  0.0000)
 130 H      1.694000   12.696373   -3.296000    ( 0.0000,  0.0000,  0.0000)
 131 H      3.049000   12.811373   -2.503000    ( 0.0000,  0.0000,  0.0000)
 132 O      6.666000   11.885373   -0.815000    ( 0.0000,  0.0000,  0.0000)
 133 H      7.476000   12.132373   -0.316000    ( 0.0000,  0.0000,  0.0000)
 134 H      6.473000   10.919373   -0.651000    ( 0.0000,  0.0000,  0.0000)
 135 O      6.860000   12.446373   -3.584000    ( 0.0000,  0.0000,  0.0000)
 136 H      6.928000   13.385373   -3.176000    ( 0.0000,  0.0000,  0.0000)
 137 H      6.978000   11.952373   -2.754000    ( 0.0000,  0.0000,  0.0000)
 138 O      2.931000   15.877373   -0.243000    ( 0.0000,  0.0000,  0.0000)
 139 H      3.732000   16.417373   -0.004000    ( 0.0000,  0.0000,  0.0000)
 140 H      3.226000   14.970373   -0.404000    ( 0.0000,  0.0000,  0.0000)
 141 O      2.291000   16.995373   -2.455000    ( 0.0000,  0.0000,  0.0000)
 142 H      1.317000   16.792373   -2.532000    ( 0.0000,  0.0000,  0.0000)
 143 H      2.586000   16.429373   -1.669000    ( 0.0000,  0.0000,  0.0000)
 144 O      6.843000   15.315373    1.065000    ( 0.0000,  0.0000,  0.0000)
 145 H      7.803000   15.145373    0.852000    ( 0.0000,  0.0000,  0.0000)
 146 H      6.727000   15.279373    2.062000    ( 0.0000,  0.0000,  0.0000)
 147 O      6.896000   14.639373   -2.130000    ( 0.0000,  0.0000,  0.0000)
 148 H      6.191000   15.093373   -2.702000    ( 0.0000,  0.0000,  0.0000)
 149 H      6.463000   14.520373   -1.259000    ( 0.0000,  0.0000,  0.0000)
 150 O      0.398000   10.546373    4.098000    ( 0.0000,  0.0000,  0.0000)
 151 H      0.047000   11.422373    3.807000    ( 0.0000,  0.0000,  0.0000)
 152 H      1.268000   10.345373    3.632000    ( 0.0000,  0.0000,  0.0000)
 153 O      2.687000   10.127373    2.641000    ( 0.0000,  0.0000,  0.0000)
 154 H      3.078000   10.981373    3.027000    ( 0.0000,  0.0000,  0.0000)
 155 H      3.376000    9.354373    2.793000    ( 0.0000,  0.0000,  0.0000)
 156 O      6.002000    9.330373    4.002000    ( 0.0000,  0.0000,  0.0000)
 157 H      6.152000   10.260373    3.660000    ( 0.0000,  0.0000,  0.0000)
 158 H      5.987000    9.408373    4.980000    ( 0.0000,  0.0000,  0.0000)
 159 O      0.649000   13.396373    2.897000    ( 0.0000,  0.0000,  0.0000)
 160 H      0.245000   14.156373    3.459000    ( 0.0000,  0.0000,  0.0000)
 161 H      1.638000   13.312373    3.084000    ( 0.0000,  0.0000,  0.0000)
 162 O     -0.075000   15.517373    4.233000    ( 0.0000,  0.0000,  0.0000)
 163 H     -0.182000   16.367373    3.776000    ( 0.0000,  0.0000,  0.0000)
 164 H     -0.241000   15.816373    5.212000    ( 0.0000,  0.0000,  0.0000)
 165 O      3.243000   12.440373    3.878000    ( 0.0000,  0.0000,  0.0000)
 166 H      3.110000   12.198373    4.817000    ( 0.0000,  0.0000,  0.0000)
 167 H      4.262000   12.573373    3.780000    ( 0.0000,  0.0000,  0.0000)
 168 O      5.942000   12.437373    3.712000    ( 0.0000,  0.0000,  0.0000)
 169 H      6.250000   13.355373    3.566000    ( 0.0000,  0.0000,  0.0000)
 170 H      6.379000   12.419373    4.636000    ( 0.0000,  0.0000,  0.0000)
 171 O      2.686000   15.493373    5.164000    ( 0.0000,  0.0000,  0.0000)
 172 H      1.781000   15.327373    4.698000    ( 0.0000,  0.0000,  0.0000)
 173 H      2.454000   16.141373    5.887000    ( 0.0000,  0.0000,  0.0000)
 174 O      6.744000   15.131373    3.826000    ( 0.0000,  0.0000,  0.0000)
 175 H      6.238000   15.463373    4.632000    ( 0.0000,  0.0000,  0.0000)
 176 H      7.707000   15.113373    4.110000    ( 0.0000,  0.0000,  0.0000)
 177 O      8.573000   18.327373    0.407000    ( 0.0000,  0.0000,  0.0000)
 178 H      9.069000   17.511373    0.067000    ( 0.0000,  0.0000,  0.0000)
 179 H      8.472000   18.280373    1.397000    ( 0.0000,  0.0000,  0.0000)
 180 O      8.758000   18.100373    2.989000    ( 0.0000,  0.0000,  0.0000)
 181 H      9.294000   18.946373    3.172000    ( 0.0000,  0.0000,  0.0000)
 182 H      7.906000   18.382373    3.373000    ( 0.0000,  0.0000,  0.0000)
 183 O      4.006000   17.589373    3.021000    ( 0.0000,  0.0000,  0.0000)
 184 H      4.685000   18.093373    3.547000    ( 0.0000,  0.0000,  0.0000)
 185 H      3.468000   17.013373    3.624000    ( 0.0000,  0.0000,  0.0000)
 186 O      5.281000   15.944373    6.035000    ( 0.0000,  0.0000,  0.0000)
 187 H      5.131000   16.888373    6.378000    ( 0.0000,  0.0000,  0.0000)
 188 H      4.428000   15.559373    5.720000    ( 0.0000,  0.0000,  0.0000)
 189 O      5.067000   17.178373    0.662000    ( 0.0000,  0.0000,  0.0000)
 190 H      5.785000   16.522373    0.703000    ( 0.0000,  0.0000,  0.0000)
 191 H      4.718000   17.107373    1.585000    ( 0.0000,  0.0000,  0.0000)
 192 O      9.786373    0.824000   -1.295000    ( 0.0000,  0.0000,  0.0000)
 193 H     10.641373    0.943000   -0.752000    ( 0.0000,  0.0000,  0.0000)
 194 H      9.441373   -0.001000   -0.865000    ( 0.0000,  0.0000,  0.0000)
 195 O      9.573373   -0.674000   -3.822000    ( 0.0000,  0.0000,  0.0000)
 196 H      9.873373   -0.147000   -4.624000    ( 0.0000,  0.0000,  0.0000)
 197 H      9.742373   -0.080000   -3.034000    ( 0.0000,  0.0000,  0.0000)
 198 O     12.108373    1.261000    0.151000    ( 0.0000,  0.0000,  0.0000)
 199 H     12.461373    0.638000   -0.539000    ( 0.0000,  0.0000,  0.0000)
 200 H     12.310373    0.790000    1.019000    ( 0.0000,  0.0000,  0.0000)
 201 O     12.961373   -0.276000   -1.795000    ( 0.0000,  0.0000,  0.0000)
 202 H     12.769373    0.459000   -2.386000    ( 0.0000,  0.0000,  0.0000)
 203 H     12.302373   -1.053000   -1.919000    ( 0.0000,  0.0000,  0.0000)
 204 O     16.112373   -0.625000   -0.626000    ( 0.0000,  0.0000,  0.0000)
 205 H     16.962373   -1.002000   -0.317000    ( 0.0000,  0.0000,  0.0000)
 206 H     15.381373   -1.129000   -0.131000    ( 0.0000,  0.0000,  0.0000)
 207 O     15.306373   -1.261000   -2.937000    ( 0.0000,  0.0000,  0.0000)
 208 H     14.440373   -0.957000   -2.503000    ( 0.0000,  0.0000,  0.0000)
 209 H     15.934373   -0.919000   -2.200000    ( 0.0000,  0.0000,  0.0000)
 210 O      9.340373    3.689000    0.482000    ( 0.0000,  0.0000,  0.0000)
 211 H      9.637373    3.020000   -0.189000    ( 0.0000,  0.0000,  0.0000)
 212 H      9.901373    3.568000    1.382000    ( 0.0000,  0.0000,  0.0000)
 213 O      9.650373    2.640000   -3.337000    ( 0.0000,  0.0000,  0.0000)
 214 H      8.772373    2.576000   -3.771000    ( 0.0000,  0.0000,  0.0000)
 215 H      9.642373    1.885000   -2.680000    ( 0.0000,  0.0000,  0.0000)
 216 O      9.987373    6.301000   -0.278000    ( 0.0000,  0.0000,  0.0000)
 217 H     10.959373    6.366000   -0.068000    ( 0.0000,  0.0000,  0.0000)
 218 H      9.707373    5.363000   -0.112000    ( 0.0000,  0.0000,  0.0000)
 219 O      9.350373    6.680000   -3.285000    ( 0.0000,  0.0000,  0.0000)
 220 H      9.181373    7.677000   -3.447000    ( 0.0000,  0.0000,  0.0000)
 221 H      8.890373    6.278000   -2.517000    ( 0.0000,  0.0000,  0.0000)
 222 O     13.918373    3.342000   -0.474000    ( 0.0000,  0.0000,  0.0000)
 223 H     14.805373    2.912000   -0.663000    ( 0.0000,  0.0000,  0.0000)
 224 H     13.339373    2.619000   -0.125000    ( 0.0000,  0.0000,  0.0000)
 225 O     12.430373    2.404000   -3.170000    ( 0.0000,  0.0000,  0.0000)
 226 H     11.549373    2.841000   -3.296000    ( 0.0000,  0.0000,  0.0000)
 227 H     12.904373    2.956000   -2.503000    ( 0.0000,  0.0000,  0.0000)
 228 O     16.521373    2.030000   -0.815000    ( 0.0000,  0.0000,  0.0000)
 229 H     17.331373    2.277000   -0.316000    ( 0.0000,  0.0000,  0.0000)
 230 H     16.328373    1.064000   -0.651000    ( 0.0000,  0.0000,  0.0000)
 231 O     16.715373    2.591000   -3.584000    ( 0.0000,  0.0000,  0.0000)
 232 H     16.783373    3.530000   -3.176000    ( 0.0000,  0.0000,  0.0000)
 233 H     16.833373    2.097000   -2.754000    ( 0.0000,  0.0000,  0.0000)
 234 O     12.786373    6.022000   -0.243000    ( 0.0000,  0.0000,  0.0000)
 235 H     13.587373    6.562000   -0.004000    ( 0.0000,  0.0000,  0.0000)
 236 H     13.081373    5.115000   -0.404000    ( 0.0000,  0.0000,  0.0000)
 237 O     12.146373    7.140000   -2.455000    ( 0.0000,  0.0000,  0.0000)
 238 H     11.172373    6.937000   -2.532000    ( 0.0000,  0.0000,  0.0000)
 239 H     12.441373    6.574000   -1.669000    ( 0.0000,  0.0000,  0.0000)
 240 O     16.698373    5.460000    1.065000    ( 0.0000,  0.0000,  0.0000)
 241 H     17.658373    5.290000    0.852000    ( 0.0000,  0.0000,  0.0000)
 242 H     16.582373    5.424000    2.062000    ( 0.0000,  0.0000,  0.0000)
 243 O     16.751373    4.784000   -2.130000    ( 0.0000,  0.0000,  0.0000)
 244 H     16.046373    5.238000   -2.702000    ( 0.0000,  0.0000,  0.0000)
 245 H     16.318373    4.665000   -1.259000    ( 0.0000,  0.0000,  0.0000)
 246 O     10.253373    0.691000    4.098000    ( 0.0000,  0.0000,  0.0000)
 247 H      9.902373    1.567000    3.807000    ( 0.0000,  0.0000,  0.0000)
 248 H     11.123373    0.490000    3.632000    ( 0.0000,  0.0000,  0.0000)
 249 O     12.542373    0.272000    2.641000    ( 0.0000,  0.0000,  0.0000)
 250 H     12.933373    1.126000    3.027000    ( 0.0000,  0.0000,  0.0000)
 251 H     13.231373   -0.501000    2.793000    ( 0.0000,  0.0000,  0.0000)
 252 O     15.857373   -0.525000    4.002000    ( 0.0000,  0.0000,  0.0000)
 253 H     16.007373    0.405000    3.660000    ( 0.0000,  0.0000,  0.0000)
 254 H     15.842373   -0.447000    4.980000    ( 0.0000,  0.0000,  0.0000)
 255 O     10.504373    3.541000    2.897000    ( 0.0000,  0.0000,  0.0000)
 256 H     10.100373    4.301000    3.459000    ( 0.0000,  0.0000,  0.0000)
 257 H     11.493373    3.457000    3.084000    ( 0.0000,  0.0000,  0.0000)
 258 O      9.780373    5.662000    4.233000    ( 0.0000,  0.0000,  0.0000)
 259 H      9.673373    6.512000    3.776000    ( 0.0000,  0.0000,  0.0000)
 260 H      9.614373    5.961000    5.212000    ( 0.0000,  0.0000,  0.0000)
 261 O     13.098373    2.585000    3.878000    ( 0.0000,  0.0000,  0.0000)
 262 H     12.965373    2.343000    4.817000    ( 0.0000,  0.0000,  0.0000)
 263 H     14.117373    2.718000    3.780000    ( 0.0000,  0.0000,  0.0000)
 264 O     15.797373    2.582000    3.712000    ( 0.0000,  0.0000,  0.0000)
 265 H     16.105373    3.500000    3.566000    ( 0.0000,  0.0000,  0.0000)
 266 H     16.234373    2.564000    4.636000    ( 0.0000,  0.0000,  0.0000)
 267 O     12.541373    5.638000    5.164000    ( 0.0000,  0.0000,  0.0000)
 268 H     11.636373    5.472000    4.698000    ( 0.0000,  0.0000,  0.0000)
 269 H     12.309373    6.286000    5.887000    ( 0.0000,  0.0000,  0.0000)
 270 O     16.599373    5.276000    3.826000    ( 0.0000,  0.0000,  0.0000)
 271 H     16.093373    5.608000    4.632000    ( 0.0000,  0.0000,  0.0000)
 272 H     17.562373    5.258000    4.110000    ( 0.0000,  0.0000,  0.0000)
 273 O     18.428373    8.472000    0.407000    ( 0.0000,  0.0000,  0.0000)
 274 H     18.924373    7.656000    0.067000    ( 0.0000,  0.0000,  0.0000)
 275 H     18.327373    8.425000    1.397000    ( 0.0000,  0.0000,  0.0000)
 276 O     18.613373    8.245000    2.989000    ( 0.0000,  0.0000,  0.0000)
 277 H     19.149373    9.091000    3.172000    ( 0.0000,  0.0000,  0.0000)
 278 H     17.761373    8.527000    3.373000    ( 0.0000,  0.0000,  0.0000)
 279 O     13.861373    7.734000    3.021000    ( 0.0000,  0.0000,  0.0000)
 280 H     14.540373    8.238000    3.547000    ( 0.0000,  0.0000,  0.0000)
 281 H     13.323373    7.158000    3.624000    ( 0.0000,  0.0000,  0.0000)
 282 O     15.136373    6.089000    6.035000    ( 0.0000,  0.0000,  0.0000)
 283 H     14.986373    7.033000    6.378000    ( 0.0000,  0.0000,  0.0000)
 284 H     14.283373    5.704000    5.720000    ( 0.0000,  0.0000,  0.0000)
 285 O     14.922373    7.323000    0.662000    ( 0.0000,  0.0000,  0.0000)
 286 H     15.640373    6.667000    0.703000    ( 0.0000,  0.0000,  0.0000)
 287 H     14.573373    7.252000    1.585000    ( 0.0000,  0.0000,  0.0000)
 288 O      9.786373   10.679373   -1.295000    ( 0.0000,  0.0000,  0.0000)
 289 H     10.641373   10.798373   -0.752000    ( 0.0000,  0.0000,  0.0000)
 290 H      9.441373    9.854373   -0.865000    ( 0.0000,  0.0000,  0.0000)
 291 O      9.573373    9.181373   -3.822000    ( 0.0000,  0.0000,  0.0000)
 292 H      9.873373    9.708373   -4.624000    ( 0.0000,  0.0000,  0.0000)
 293 H      9.742373    9.775373   -3.034000    ( 0.0000,  0.0000,  0.0000)
 294 O     12.108373   11.116373    0.151000    ( 0.0000,  0.0000,  0.0000)
 295 H     12.461373   10.493373   -0.539000    ( 0.0000,  0.0000,  0.0000)
 296 H     12.310373   10.645373    1.019000    ( 0.0000,  0.0000,  0.0000)
 297 O     12.961373    9.579373   -1.795000    ( 0.0000,  0.0000,  0.0000)
 298 H     12.769373   10.314373   -2.386000    ( 0.0000,  0.0000,  0.0000)
 299 H     12.302373    8.802373   -1.919000    ( 0.0000,  0.0000,  0.0000)
 300 O     16.112373    9.230373   -0.626000    ( 0.0000,  0.0000,  0.0000)
 301 H     16.962373    8.853373   -0.317000    ( 0.0000,  0.0000,  0.0000)
 302 H     15.381373    8.726373   -0.131000    ( 0.0000,  0.0000,  0.0000)
 303 O     15.306373    8.594373   -2.937000    ( 0.0000,  0.0000,  0.0000)
 304 H     14.440373    8.898373   -2.503000    ( 0.0000,  0.0000,  0.0000)
 305 H     15.934373    8.936373   -2.200000    ( 0.0000,  0.0000,  0.0000)
 306 O      9.340373   13.544373    0.482000    ( 0.0000,  0.0000,  0.0000)
 307 H      9.637373   12.875373   -0.189000    ( 0.0000,  0.0000,  0.0000)
 308 H      9.901373   13.423373    1.382000    ( 0.0000,  0.0000,  0.0000)
 309 O      9.650373   12.495373   -3.337000    ( 0.0000,  0.0000,  0.0000)
 310 H      8.772373   12.431373   -3.771000    ( 0.0000,  0.0000,  0.0000)
 311 H      9.642373   11.740373   -2.680000    ( 0.0000,  0.0000,  0.0000)
 312 O      9.987373   16.156373   -0.278000    ( 0.0000,  0.0000,  0.0000)
 313 H     10.959373   16.221373   -0.068000    ( 0.0000,  0.0000,  0.0000)
 314 H      9.707373   15.218373   -0.112000    ( 0.0000,  0.0000,  0.0000)
 315 O      9.350373   16.535373   -3.285000    ( 0.0000,  0.0000,  0.0000)
 316 H      9.181373   17.532373   -3.447000    ( 0.0000,  0.0000,  0.0000)
 317 H      8.890373   16.133373   -2.517000    ( 0.0000,  0.0000,  0.0000)
 318 O     13.918373   13.197373   -0.474000    ( 0.0000,  0.0000,  0.0000)
 319 H     14.805373   12.767373   -0.663000    ( 0.0000,  0.0000,  0.0000)
 320 H     13.339373   12.474373   -0.125000    ( 0.0000,  0.0000,  0.0000)
 321 O     12.430373   12.259373   -3.170000    ( 0.0000,  0.0000,  0.0000)
 322 H     11.549373   12.696373   -3.296000    ( 0.0000,  0.0000,  0.0000)
 323 H     12.904373   12.811373   -2.503000    ( 0.0000,  0.0000,  0.0000)
 324 O     16.521373   11.885373   -0.815000    ( 0.0000,  0.0000,  0.0000)
 325 H     17.331373   12.132373   -0.316000    ( 0.0000,  0.0000,  0.0000)
 326 H     16.328373   10.919373   -0.651000    ( 0.0000,  0.0000,  0.0000)
 327 O     16.715373   12.446373   -3.584000    ( 0.0000,  0.0000,  0.0000)
 328 H     16.783373   13.385373   -3.176000    ( 0.0000,  0.0000,  0.0000)
 329 H     16.833373   11.952373   -2.754000    ( 0.0000,  0.0000,  0.0000)
 330 O     12.786373   15.877373   -0.243000    ( 0.0000,  0.0000,  0.0000)
 331 H     13.587373   16.417373   -0.004000    ( 0.0000,  0.0000,  0.0000)
 332 H     13.081373   14.970373   -0.404000    ( 0.0000,  0.0000,  0.0000)
 333 O     12.146373   16.995373   -2.455000    ( 0.0000,  0.0000,  0.0000)
 334 H     11.172373   16.792373   -2.532000    ( 0.0000,  0.0000,  0.0000)
 335 H     12.441373   16.429373   -1.669000    ( 0.0000,  0.0000,  0.0000)
 336 O     16.698373   15.315373    1.065000    ( 0.0000,  0.0000,  0.0000)
 337 H     17.658373   15.145373    0.852000    ( 0.0000,  0.0000,  0.0000)
 338 H     16.582373   15.279373    2.062000    ( 0.0000,  0.0000,  0.0000)
 339 O     16.751373   14.639373   -2.130000    ( 0.0000,  0.0000,  0.0000)
 340 H     16.046373   15.093373   -2.702000    ( 0.0000,  0.0000,  0.0000)
 341 H     16.318373   14.520373   -1.259000    ( 0.0000,  0.0000,  0.0000)
 342 O     10.253373   10.546373    4.098000    ( 0.0000,  0.0000,  0.0000)
 343 H      9.902373   11.422373    3.807000    ( 0.0000,  0.0000,  0.0000)
 344 H     11.123373   10.345373    3.632000    ( 0.0000,  0.0000,  0.0000)
 345 O     12.542373   10.127373    2.641000    ( 0.0000,  0.0000,  0.0000)
 346 H     12.933373   10.981373    3.027000    ( 0.0000,  0.0000,  0.0000)
 347 H     13.231373    9.354373    2.793000    ( 0.0000,  0.0000,  0.0000)
 348 O     15.857373    9.330373    4.002000    ( 0.0000,  0.0000,  0.0000)
 349 H     16.007373   10.260373    3.660000    ( 0.0000,  0.0000,  0.0000)
 350 H     15.842373    9.408373    4.980000    ( 0.0000,  0.0000,  0.0000)
 351 O     10.504373   13.396373    2.897000    ( 0.0000,  0.0000,  0.0000)
 352 H     10.100373   14.156373    3.459000    ( 0.0000,  0.0000,  0.0000)
 353 H     11.493373   13.312373    3.084000    ( 0.0000,  0.0000,  0.0000)
 354 O      9.780373   15.517373    4.233000    ( 0.0000,  0.0000,  0.0000)
 355 H      9.673373   16.367373    3.776000    ( 0.0000,  0.0000,  0.0000)
 356 H      9.614373   15.816373    5.212000    ( 0.0000,  0.0000,  0.0000)
 357 O     13.098373   12.440373    3.878000    ( 0.0000,  0.0000,  0.0000)
 358 H     12.965373   12.198373    4.817000    ( 0.0000,  0.0000,  0.0000)
 359 H     14.117373   12.573373    3.780000    ( 0.0000,  0.0000,  0.0000)
 360 O     15.797373   12.437373    3.712000    ( 0.0000,  0.0000,  0.0000)
 361 H     16.105373   13.355373    3.566000    ( 0.0000,  0.0000,  0.0000)
 362 H     16.234373   12.419373    4.636000    ( 0.0000,  0.0000,  0.0000)
 363 O     12.541373   15.493373    5.164000    ( 0.0000,  0.0000,  0.0000)
 364 H     11.636373   15.327373    4.698000    ( 0.0000,  0.0000,  0.0000)
 365 H     12.309373   16.141373    5.887000    ( 0.0000,  0.0000,  0.0000)
 366 O     16.599373   15.131373    3.826000    ( 0.0000,  0.0000,  0.0000)
 367 H     16.093373   15.463373    4.632000    ( 0.0000,  0.0000,  0.0000)
 368 H     17.562373   15.113373    4.110000    ( 0.0000,  0.0000,  0.0000)
 369 O     18.428373   18.327373    0.407000    ( 0.0000,  0.0000,  0.0000)
 370 H     18.924373   17.511373    0.067000    ( 0.0000,  0.0000,  0.0000)
 371 H     18.327373   18.280373    1.397000    ( 0.0000,  0.0000,  0.0000)
 372 O     18.613373   18.100373    2.989000    ( 0.0000,  0.0000,  0.0000)
 373 H     19.149373   18.946373    3.172000    ( 0.0000,  0.0000,  0.0000)
 374 H     17.761373   18.382373    3.373000    ( 0.0000,  0.0000,  0.0000)
 375 O     13.861373   17.589373    3.021000    ( 0.0000,  0.0000,  0.0000)
 376 H     14.540373   18.093373    3.547000    ( 0.0000,  0.0000,  0.0000)
 377 H     13.323373   17.013373    3.624000    ( 0.0000,  0.0000,  0.0000)
 378 O     15.136373   15.944373    6.035000    ( 0.0000,  0.0000,  0.0000)
 379 H     14.986373   16.888373    6.378000    ( 0.0000,  0.0000,  0.0000)
 380 H     14.283373   15.559373    5.720000    ( 0.0000,  0.0000,  0.0000)
 381 O     14.922373   17.178373    0.662000    ( 0.0000,  0.0000,  0.0000)
 382 H     15.640373   16.522373    0.703000    ( 0.0000,  0.0000,  0.0000)
 383 H     14.573373   17.107373    1.585000    ( 0.0000,  0.0000,  0.0000)

Unit cell:
           periodic     x           y           z      points  spacing
  1. axis:    yes   19.710746    0.000000    0.000000   100     0.1971
  2. axis:    yes    0.000000   19.710746    0.000000   100     0.1971
  3. axis:    yes    0.000000    0.000000    9.855373    48     0.2053

  Lengths:  19.710746  19.710746   9.855373
  Angles:   90.000000  90.000000  90.000000

Effective grid spacing dv^(1/3) = 0.1998

                     log10-error:    total        iterations:
           time      wfs    density  energy       fermi  poisson
iter:   1  13:20:20   +inf   +inf  -1854.473504    0      1      
iter:   2  13:20:35  -2.08  -0.86  -1835.278061    0      1      
iter:   3  13:20:50  -0.47  -0.90  -1775.648619    0      1      
iter:   4  13:21:05  -1.59  -1.23  -1779.272309    0      1      
iter:   5  13:21:21  -1.63  -1.47  -1775.152193    0      1      
iter:   6  13:21:36  -2.82  -2.37  -1775.201244    0      1      
iter:   7  13:21:51  -3.37  -2.35  -1775.087470    0      1      
iter:   8  13:22:06  -4.14  -2.65  -1775.069713    0      1      
iter:   9  13:22:21  -5.89  -3.41  -1775.069454    0      1      
iter:  10  13:22:36  -5.46  -3.52  -1775.068873    0      1      
iter:  11  13:22:51  -7.87  -3.84  -1775.068850    0      1      
iter:  12  13:23:07  -6.10  -3.87  -1775.068755    0      1      
iter:  13  13:23:22  -7.67  -4.29  -1775.068752    0      1      
iter:  14  13:23:37  -8.51  -4.39  -1775.068752    0      1      
iter:  15  13:23:52  -7.61  -4.41  -1775.068750    0      1      
iter:  16  13:24:07  -8.61  -4.52  -1775.068749    0      1      
iter:  17  13:24:22  -7.90  -4.61  -1775.068748    0      1      
iter:  18  13:24:37  -9.61  -4.72  -1775.068748    0      1      
iter:  19  13:24:53  -8.19  -4.75  -1775.068746    0      1      
iter:  20  13:25:08 -10.36  -5.34  -1775.068746    0      1      

Converged after 20 iterations.

Dipole moment: (129.461860, 54.324131, 120.760560) |e|*Ang

Energy contributions relative to reference atoms: (reference = -264426.576079)

Kinetic:       +1588.461628
Potential:     -1758.441273
External:        +0.000000
XC:            -1651.404389
Entropy (-ST):   +0.000000
Local:          +46.315288
--------------------------
Free energy:   -1775.068746
Extrapolated:  -1775.068746

Fermi levels: -0.29894, -0.29894

 Band  Eigenvalues  Occupancy
    0    -22.33878    2.00000
    1    -22.33432    2.00000
    2    -22.32347    2.00000
    3    -22.32174    2.00000
    4    -22.26400    2.00000
    5    -22.25488    2.00000
    6    -22.24282    2.00000
    7    -22.23798    2.00000
    8    -22.14398    2.00000
    9    -22.13495    2.00000
   10    -22.13300    2.00000
   11    -22.11906    2.00000
   12    -22.09399    2.00000
   13    -22.09120    2.00000
   14    -22.08508    2.00000
   15    -22.08384    2.00000
   16    -22.01631    2.00000
   17    -22.01033    2.00000
   18    -22.00352    2.00000
   19    -21.99859    2.00000
   20    -21.94114    2.00000
   21    -21.93964    2.00000
   22    -21.89564    2.00000
   23    -21.89321    2.00000
   24    -21.88858    2.00000
   25    -21.88387    2.00000
   26    -21.87131    2.00000
   27    -21.86683    2.00000
   28    -21.86409    2.00000
   29    -21.85902    2.00000
   30    -21.84939    2.00000
   31    -21.84402    2.00000
   32    -21.72397    2.00000
   33    -21.71579    2.00000
   34    -21.71571    2.00000
   35    -21.70164    2.00000
   36    -21.61759    2.00000
   37    -21.60631    2.00000
   38    -21.59966    2.00000
   39    -21.58790    2.00000
   40    -21.57792    2.00000
   41    -21.57147    2.00000
   42    -21.56087    2.00000
   43    -21.55494    2.00000
   44    -21.52685    2.00000
   45    -21.51078    2.00000
   46    -21.50982    2.00000
   47    -21.50757    2.00000
   48    -21.45522    2.00000
   49    -21.43421    2.00000
   50    -21.41003    2.00000
   51    -21.40884    2.00000
   52    -21.38675    2.00000
   53    -21.38169    2.00000
   54    -21.37813    2.00000
   55    -21.37727    2.00000
   56    -21.33526    2.00000
   57    -21.33463    2.00000
   58    -21.33001    2.00000
   59    -21.32696    2.00000
   60    -21.27859    2.00000
   61    -21.27627    2.00000
   62    -21.26356    2.00000
   63    -21.25652    2.00000
   64    -21.25275    2.00000
   65    -21.24616    2.00000
   66    -21.24014    2.00000
   67    -21.23828    2.00000
   68    -21.23297    2.00000
   69    -21.23002    2.00000
   70    -21.18310    2.00000
   71    -21.17825    2.00000
   72    -21.17283    2.00000
   73    -21.16597    2.00000
   74    -21.16430    2.00000
   75    -21.16025    2.00000
   76    -21.07862    2.00000
   77    -21.07696    2.00000
   78    -21.05219    2.00000
   79    -21.04344    2.00000
   80    -21.04198    2.00000
   81    -21.02987    2.00000
   82    -21.02503    2.00000
   83    -21.00265    2.00000
   84    -20.98539    2.00000
   85    -20.96805    2.00000
   86    -20.96791    2.00000
   87    -20.96255    2.00000
   88    -20.93517    2.00000
   89    -20.93228    2.00000
   90    -20.92390    2.00000
   91    -20.91990    2.00000
   92    -20.87182    2.00000
   93    -20.86729    2.00000
   94    -20.86321    2.00000
   95    -20.85741    2.00000
   96    -20.74623    2.00000
   97    -20.74518    2.00000
   98    -20.74325    2.00000
   99    -20.74301    2.00000
  100    -20.71977    2.00000
  101    -20.70670    2.00000
  102    -20.70481    2.00000
  103    -20.69851    2.00000
  104    -20.63024    2.00000
  105    -20.62136    2.00000
  106    -20.62093    2.00000
  107    -20.61634    2.00000
  108    -20.60956    2.00000
  109    -20.60724    2.00000
  110    -20.60688    2.00000
  111    -20.58563    2.00000
  112    -20.54192    2.00000
  113    -20.54003    2.00000
  114    -20.52814    2.00000
  115    -20.52171    2.00000
  116    -20.49514    2.00000
  117    -20.49335    2.00000
  118    -20.49289    2.00000
  119    -20.49268    2.00000
  120    -20.45911    2.00000
  121    -20.45639    2.00000
  122    -20.45376    2.00000
  123    -20.44959    2.00000
  124    -20.36371    2.00000
  125    -20.36343    2.00000
  126    -20.36287    2.00000
  127    -20.36188    2.00000
  128    -10.31592    2.00000
  129    -10.31567    2.00000
  130    -10.31489    2.00000
  131    -10.31480    2.00000
  132    -10.08862    2.00000
  133    -10.08754    2.00000
  134    -10.08714    2.00000
  135    -10.08583    2.00000
  136    -10.05181    2.00000
  137    -10.04977    2.00000
  138    -10.03966    2.00000
  139    -10.03788    2.00000
  140     -9.96289    2.00000
  141     -9.96225    2.00000
  142     -9.96192    2.00000
  143     -9.96095    2.00000
  144     -9.91878    2.00000
  145     -9.91543    2.00000
  146     -9.91154    2.00000
  147     -9.91035    2.00000
  148     -9.85032    2.00000
  149     -9.84435    2.00000
  150     -9.83386    2.00000
  151     -9.83232    2.00000
  152     -9.81959    2.00000
  153     -9.81502    2.00000
  154     -9.81374    2.00000
  155     -9.81205    2.00000
  156     -9.73757    2.00000
  157     -9.72062    2.00000
  158     -9.71047    2.00000
  159     -9.69258    2.00000
  160     -9.63619    2.00000
  161     -9.63542    2.00000
  162     -9.62514    2.00000
  163     -9.61699    2.00000
  164     -9.60597    2.00000
  165     -9.60549    2.00000
  166     -9.59719    2.00000
  167     -9.58815    2.00000
  168     -9.57472    2.00000
  169     -9.56505    2.00000
  170     -9.55426    2.00000
  171     -9.54359    2.00000
  172     -9.53970    2.00000
  173     -9.53899    2.00000
  174     -9.53409    2.00000
  175     -9.52490    2.00000
  176     -9.48868    2.00000
  177     -9.46730    2.00000
  178     -9.46635    2.00000
  179     -9.45642    2.00000
  180     -9.43403    2.00000
  181     -9.42767    2.00000
  182     -9.42721    2.00000
  183     -9.42131    2.00000
  184     -9.40747    2.00000
  185     -9.40071    2.00000
  186     -9.39158    2.00000
  187     -9.36428    2.00000
  188     -9.35693    2.00000
  189     -9.35258    2.00000
  190     -9.34461    2.00000
  191     -9.33749    2.00000
  192     -9.32557    2.00000
  193     -9.32530    2.00000
  194     -9.32213    2.00000
  195     -9.31627    2.00000
  196     -9.29466    2.00000
  197     -9.28649    2.00000
  198     -9.28280    2.00000
  199     -9.28127    2.00000
  200     -9.27677    2.00000
  201     -9.27595    2.00000
  202     -9.27577    2.00000
  203     -9.27305    2.00000
  204     -9.21059    2.00000
  205     -9.19980    2.00000
  206     -9.17231    2.00000
  207     -9.17146    2.00000
  208     -9.14401    2.00000
  209     -9.14190    2.00000
  210     -9.13306    2.00000
  211     -9.12979    2.00000
  212     -9.12662    2.00000
  213     -9.11880    2.00000
  214     -9.11333    2.00000
  215     -9.11019    2.00000
  216     -9.06409    2.00000
  217     -9.06149    2.00000
  218     -9.05987    2.00000
  219     -9.05753    2.00000
  220     -9.02222    2.00000
  221     -9.01024    2.00000
  222     -9.00757    2.00000
  223     -9.00314    2.00000
  224     -8.98944    2.00000
  225     -8.98547    2.00000
  226     -8.98458    2.00000
  227     -8.98221    2.00000
  228     -8.82052    2.00000
  229     -8.80557    2.00000
  230     -8.78538    2.00000
  231     -8.78254    2.00000
  232     -8.77735    2.00000
  233     -8.77448    2.00000
  234     -8.75354    2.00000
  235     -8.75054    2.00000
  236     -8.73665    2.00000
  237     -8.73270    2.00000
  238     -8.73082    2.00000
  239     -8.73058    2.00000
  240     -8.63943    2.00000
  241     -8.63539    2.00000
  242     -8.62743    2.00000
  243     -8.62326    2.00000
  244     -8.45415    2.00000
  245     -8.45163    2.00000
  246     -8.43938    2.00000
  247     -8.43760    2.00000
  248     -8.39571    2.00000
  249     -8.38407    2.00000
  250     -8.37788    2.00000
  251     -8.34650    2.00000
  252     -8.32600    2.00000
  253     -8.31644    2.00000
  254     -8.30763    2.00000
  255     -8.28875    2.00000
  256     -7.33869    2.00000
  257     -7.33729    2.00000
  258     -7.33020    2.00000
  259     -7.32776    2.00000
  260     -7.25907    2.00000
  261     -7.24086    2.00000
  262     -7.22278    2.00000
  263     -7.21256    2.00000
  264     -7.09891    2.00000
  265     -7.09645    2.00000
  266     -7.09049    2.00000
  267     -7.07604    2.00000
  268     -6.91624    2.00000
  269     -6.91137    2.00000
  270     -6.86983    2.00000
  271     -6.86880    2.00000
  272     -6.80897    2.00000
  273     -6.80156    2.00000
  274     -6.79742    2.00000
  275     -6.79370    2.00000
  276     -6.78314    2.00000
  277     -6.77831    2.00000
  278     -6.77174    2.00000
  279     -6.76990    2.00000
  280     -6.73310    2.00000
  281     -6.71829    2.00000
  282     -6.71357    2.00000
  283     -6.70118    2.00000
  284     -6.61121    2.00000
  285     -6.58372    2.00000
  286     -6.57272    2.00000
  287     -6.57059    2.00000
  288     -6.56297    2.00000
  289     -6.52308    2.00000
  290     -6.51462    2.00000
  291     -6.51165    2.00000
  292     -6.50562    2.00000
  293     -6.46926    2.00000
  294     -6.43676    2.00000
  295     -6.43046    2.00000
  296     -6.34308    2.00000
  297     -6.29860    2.00000
  298     -6.28840    2.00000
  299     -6.26621    2.00000
  300     -6.24477    2.00000
  301     -6.22886    2.00000
  302     -6.22016    2.00000
  303     -6.19247    2.00000
  304     -6.17509    2.00000
  305     -6.16262    2.00000
  306     -6.15496    2.00000
  307     -6.10443    2.00000
  308     -6.09622    2.00000
  309     -6.07743    2.00000
  310     -6.04130    2.00000
  311     -6.03727    2.00000
  312     -5.96734    2.00000
  313     -5.96462    2.00000
  314     -5.90779    2.00000
  315     -5.89646    2.00000
  316     -5.87877    2.00000
  317     -5.87555    2.00000
  318     -5.85835    2.00000
  319     -5.85153    2.00000
  320     -5.84583    2.00000
  321     -5.79888    2.00000
  322     -5.79804    2.00000
  323     -5.77422    2.00000
  324     -5.76675    2.00000
  325     -5.75803    2.00000
  326     -5.75143    2.00000
  327     -5.73202    2.00000
  328     -5.71259    2.00000
  329     -5.67436    2.00000
  330     -5.66046    2.00000
  331     -5.64947    2.00000
  332     -5.59368    2.00000
  333     -5.59330    2.00000
  334     -5.58437    2.00000
  335     -5.57991    2.00000
  336     -5.57275    2.00000
  337     -5.55878    2.00000
  338     -5.53926    2.00000
  339     -5.53596    2.00000
  340     -5.45630    2.00000
  341     -5.44379    2.00000
  342     -5.44229    2.00000
  343     -5.40540    2.00000
  344     -5.33408    2.00000
  345     -5.33406    2.00000
  346     -5.29913    2.00000
  347     -5.29342    2.00000
  348     -5.27851    2.00000
  349     -5.27811    2.00000
  350     -5.25203    2.00000
  351     -5.23283    2.00000
  352     -5.20246    2.00000
  353     -5.18996    2.00000
  354     -5.18907    2.00000
  355     -5.16920    2.00000
  356     -5.16903    2.00000
  357     -5.12664    2.00000
  358     -5.11834    2.00000
  359     -5.11548    2.00000
  360     -5.01803    2.00000
  361     -5.00931    2.00000
  362     -4.93238    2.00000
  363     -4.89839    2.00000
  364     -4.88715    2.00000
  365     -4.87131    2.00000
  366     -4.86978    2.00000
  367     -4.85555    2.00000
  368     -4.85480    2.00000
  369     -4.83677    2.00000
  370     -4.81847    2.00000
  371     -4.80143    2.00000
  372     -4.75789    2.00000
  373     -4.72514    2.00000
  374     -4.72053    2.00000
  375     -4.65727    2.00000
  376     -4.61958    2.00000
  377     -4.61195    2.00000
  378     -4.60927    2.00000
  379     -4.57601    2.00000
  380     -4.53840    2.00000
  381     -4.48983    2.00000
  382     -4.44724    2.00000
  383     -4.39935    2.00000
  384     -4.36014    2.00000
  385     -4.35792    2.00000
  386     -4.31147    2.00000
  387     -4.30749    2.00000
  388     -4.29994    2.00000
  389     -4.29809    2.00000
  390     -4.27621    2.00000
  391     -4.27590    2.00000
  392     -4.19205    2.00000
  393     -4.19121    2.00000
  394     -4.18355    2.00000
  395     -4.18041    2.00000
  396     -4.02833    2.00000
  397     -4.02175    2.00000
  398     -4.01480    2.00000
  399     -4.00482    2.00000
  400     -4.00137    2.00000
  401     -3.98599    2.00000
  402     -3.97727    2.00000
  403     -3.96405    2.00000
  404     -3.95299    2.00000
  405     -3.94546    2.00000
  406     -3.93453    2.00000
  407     -3.93127    2.00000
  408     -3.92639    2.00000
  409     -3.92326    2.00000
  410     -3.91427    2.00000
  411     -3.91121    2.00000
  412     -3.86590    2.00000
  413     -3.85609    2.00000
  414     -3.85310    2.00000
  415     -3.84664    2.00000
  416     -3.83957    2.00000
  417     -3.83772    2.00000
  418     -3.81965    2.00000
  419     -3.81386    2.00000
  420     -3.80747    2.00000
  421     -3.80536    2.00000
  422     -3.80149    2.00000
  423     -3.80052    2.00000
  424     -3.76395    2.00000
  425     -3.76129    2.00000
  426     -3.74886    2.00000
  427     -3.73795    2.00000
  428     -3.72886    2.00000
  429     -3.72525    2.00000
  430     -3.72170    2.00000
  431     -3.70216    2.00000
  432     -3.69876    2.00000
  433     -3.69505    2.00000
  434     -3.68461    2.00000
  435     -3.67981    2.00000
  436     -3.63440    2.00000
  437     -3.62893    2.00000
  438     -3.62531    2.00000
  439     -3.62164    2.00000
  440     -3.60621    2.00000
  441     -3.59944    2.00000
  442     -3.59742    2.00000
  443     -3.58797    2.00000
  444     -3.57292    2.00000
  445     -3.55704    2.00000
  446     -3.53446    2.00000
  447     -3.52798    2.00000
  448     -3.51586    2.00000
  449     -3.51537    2.00000
  450     -3.51352    2.00000
  451     -3.51276    2.00000
  452     -3.51027    2.00000
  453     -3.50364    2.00000
  454     -3.50218    2.00000
  455     -3.49970    2.00000
  456     -3.44788    2.00000
  457     -3.44595    2.00000
  458     -3.44102    2.00000
  459     -3.43437    2.00000
  460     -3.42177    2.00000
  461     -3.41265    2.00000
  462     -3.40700    2.00000
  463     -3.39178    2.00000
  464     -3.37686    2.00000
  465     -3.36347    2.00000
  466     -3.36287    2.00000
  467     -3.35512    2.00000
  468     -3.31965    2.00000
  469     -3.31230    2.00000
  470     -3.30894    2.00000
  471     -3.30440    2.00000
  472     -3.27936    2.00000
  473     -3.27614    2.00000
  474     -3.26626    2.00000
  475     -3.26547    2.00000
  476     -3.25600    2.00000
  477     -3.25155    2.00000
  478     -3.24968    2.00000
  479     -3.24739    2.00000
  480     -3.24564    2.00000
  481     -3.24358    2.00000
  482     -3.23466    2.00000
  483     -3.23188    2.00000
  484     -3.20904    2.00000
  485     -3.20626    2.00000
  486     -3.20470    2.00000
  487     -3.20458    2.00000
  488     -3.13880    2.00000
  489     -3.13446    2.00000
  490     -3.13134    2.00000
  491     -3.12975    2.00000
  492     -3.06458    2.00000
  493     -3.06334    2.00000
  494     -3.06282    2.00000
  495     -3.06222    2.00000
  496     -3.00859    2.00000
  497     -3.00079    2.00000
  498     -2.99159    2.00000
  499     -2.98971    2.00000
  500     -2.98640    2.00000
  501     -2.98588    2.00000
  502     -2.97778    2.00000
  503     -2.97481    2.00000
  504     -2.90886    2.00000
  505     -2.90764    2.00000
  506     -2.90762    2.00000
  507     -2.90761    2.00000
  508     -2.63000    2.00000
  509     -2.62670    2.00000
  510     -2.62490    2.00000
  511     -2.62148    2.00000
  512      2.02361    0.00000
  513      2.55215    0.00000
  514      2.58618    0.00000
  515      2.69756    0.00000
  516      2.74840    0.00000
  517      3.00904    0.00000
  518      3.16838    0.00000
  519      3.26767    0.00000
  520      3.38253    0.00000
  521      3.66140    0.00000
  522      3.96308    0.00000
  523      3.99241    0.00000
  524      4.02412    0.00000
  525      4.07890    0.00000
  526      4.18178    0.00000
  527      4.20971    0.00000
  528      4.26207    0.00000
  529      4.29851    0.00000
  530      4.41258    0.00000
  531      4.45733    0.00000
  532      4.46161    0.00000
  533      4.47995    0.00000
  534      4.55364    0.00000
  535      4.55607    0.00000
  536      4.55809    0.00000
  537      4.57876    0.00000
  538      4.68900    0.00000
  539      4.74359    0.00000
  540      4.79061    0.00000
  541      4.79535    0.00000
  542      4.88464    0.00000
  543      4.91240    0.00000
  544      5.02602    0.00000
  545      5.09748    0.00000
  546      5.12657    0.00000
  547      5.16477    0.00000
  548      5.23832    0.00000
  549      5.36007    0.00000
  550      5.37721    0.00000
  551      5.41474    0.00000
  552      5.47562    0.00000
  553      5.48475    0.00000
  554      5.51280    0.00000
  555      5.57091    0.00000
  556      5.62576    0.00000
  557      5.68218    0.00000
  558      5.70724    0.00000
  559      5.73104    0.00000
  560      5.81056    0.00000
  561      5.82212    0.00000
  562      5.82546    0.00000
  563      5.89486    0.00000
  564      5.97232    0.00000
  565      5.97767    0.00000
  566      6.00388    0.00000
  567      6.05253    0.00000
  568      6.06476    0.00000
  569      6.07410    0.00000
  570      6.10574    0.00000
  571      6.12865    0.00000
  572      6.15565    0.00000
  573      6.18825    0.00000
  574      6.27474    0.00000
  575      6.27669    0.00000
  576      6.49386    0.00000
  577      6.50840    0.00000
  578      6.51557    0.00000
  579      6.52745    0.00000
  580      6.55104    0.00000
  581      6.59499    0.00000
  582      6.60765    0.00000
  583      6.63546    0.00000
  584      6.69960    0.00000
  585      6.75697    0.00000
  586      6.77905    0.00000
  587      6.83205    0.00000
  588      6.84536    0.00000
  589      6.90854    0.00000
  590      6.94219    0.00000
  591      6.97695    0.00000
  592      7.03921    0.00000
  593      7.05549    0.00000
  594      7.06621    0.00000
  595      7.08276    0.00000
  596      7.13006    0.00000
  597      7.15260    0.00000
  598      7.20929    0.00000
  599      7.25675    0.00000
  600      7.31782    0.00000
  601      7.32391    0.00000
  602      7.33367    0.00000
  603      7.40281    0.00000
  604      7.44400    0.00000
  605      7.44619    0.00000
  606      7.46297    0.00000
  607      7.54081    0.00000
  608      7.61295    0.00000
  609      7.65513    0.00000
  610      7.67719    0.00000
  611      7.69553    0.00000
  612      7.73974    0.00000
  613      7.82121    0.00000
  614      7.82347    0.00000
  615      7.87023    0.00000
  616      7.89620    0.00000
  617      7.91398    0.00000
  618      7.93069    0.00000

Gap: 4.645 eV
Transition (v -> c):
  (s=0, k=0, n=511, [0.00, 0.00, 0.00]) -> (s=0, k=0, n=512, [0.00, 0.00, 0.00])
Timing:                              incl.     excl.
-----------------------------------------------------------
Basic WFS set positions:             0.021     0.021   0.0% |
Basis functions set positions:       0.243     0.243   0.1% |
LCAO WFS Initialize:                 2.260     0.051   0.0% |
 Hamiltonian:                        2.209     0.000   0.0% |
  Atomic:                            1.608     0.005   0.0% |
   XC Correction:                    1.603     1.603   0.5% |
  Calculate atomic Hamiltonians:     0.009     0.009   0.0% |
  Communicate:                       0.029     0.029   0.0% |
  Hartree integrate/restrict:        0.011     0.011   0.0% |
  Initialize Hamiltonian:            0.002     0.002   0.0% |
  Poisson:                           0.157     0.004   0.0% |
   Communicate bwd 0:                0.033     0.033   0.0% |
   Communicate bwd 1:                0.033     0.033   0.0% |
   Communicate fwd 0:                0.030     0.030   0.0% |
   Communicate fwd 1:                0.033     0.033   0.0% |
   fft:                              0.006     0.006   0.0% |
   fft2:                             0.019     0.019   0.0% |
  XC 3D grid:                        0.391     0.391   0.1% |
  vbar:                              0.002     0.002   0.0% |
P tci:                               0.350     0.350   0.1% |
SCF-cycle:                         299.259     0.017   0.0% |
 Density:                           16.661     0.000   0.0% |
  Atomic density matrices:           1.779     1.779   0.6% |
  Mix:                               0.377     0.377   0.1% |
  Multipole moments:                 0.024     0.024   0.0% |
  Normalize:                         0.003     0.003   0.0% |
  Pseudo density:                   14.478     0.013   0.0% |
   Calculate density matrix:         4.686     4.686   1.5% ||
   Construct density:                9.778     9.778   3.2% ||
   Symmetrize density:               0.000     0.000   0.0% |
 Hamiltonian:                       41.967     0.002   0.0% |
  Atomic:                           30.713     0.102   0.0% |
   XC Correction:                   30.611    30.611  10.0% |---|
  Calculate atomic Hamiltonians:     0.172     0.172   0.1% |
  Communicate:                       0.593     0.593   0.2% |
  Hartree integrate/restrict:        0.186     0.186   0.1% |
  Poisson:                           2.982     0.081   0.0% |
   Communicate bwd 0:                0.618     0.618   0.2% |
   Communicate bwd 1:                0.619     0.619   0.2% |
   Communicate fwd 0:                0.561     0.561   0.2% |
   Communicate fwd 1:                0.632     0.632   0.2% |
   fft:                              0.106     0.106   0.0% |
   fft2:                             0.365     0.365   0.1% |
  XC 3D grid:                        7.291     7.291   2.4% ||
  vbar:                              0.026     0.026   0.0% |
 LCAO eigensolver:                 240.614     0.265   0.1% |
  Calculate projections:             1.637     1.637   0.5% |
  DenseAtomicCorrection:             9.695     9.695   3.2% ||
  Distribute overlap matrix:         4.522     4.522   1.5% ||
  Orbital Layouts:                 200.600   200.600  65.5% |-------------------------|
  Potential matrix:                 12.842    12.842   4.2% |-|
  Residual:                         11.053    11.053   3.6% ||
ST tci:                              0.543     0.543   0.2% |
Set symmetry:                        0.001     0.001   0.0% |
TCI: Evaluate splines:               0.185     0.185   0.1% |
mktci:                               0.785     0.785   0.3% |
Other:                               2.771     2.771   0.9% |
-----------------------------------------------------------
Total:                                       306.418 100.0%

Memory usage: 592.07 MiB
Date: Wed Feb 20 13:25:08 2019
