
  ___ ___ ___ _ _ _  
 |   |   |_  | | | | 
 | | | | | . | | | | 
 |__ |  _|___|_____|  21.6.1b1
 |___|_|             

User:   ali5@compute-14
Date:   Fri Aug  6 11:21:49 2021
Arch:   x86_64
Pid:    1418133
Python: 3.8.9
gpaw:   /users/home/aleksei/gpawproject/gpaw/gpaw (5e46c27e61)
_gpaw:  /users/home/aleksei/gpawproject/gpaw/build/lib.linux-x86_64-3.8/
        _gpaw.cpython-38-x86_64-linux-gnu.so (5e46c27e61)
ase:    /users/home/aleksei/gpawproject/ase/ase (version 3.22.0b1-5c4361a7fd)
numpy:  /users/home/eojons/spack/opt/spack/linux-centos8-cascadelake/gcc-9.3.0/py-numpy-1.20.2-dgf27bhjua75jm66wbtas3vnjet4dzqg/lib/python3.8/site-packages/numpy (version 1.20.2)
scipy:  /users/home/eojons/spack/opt/spack/linux-centos8-cascadelake/gcc-9.3.0/py-scipy-1.6.2-5mj6sw3rf63wmprfl3ofjpi64tayycfh/lib/python3.8/site-packages/scipy (version 1.6.2)
libxc:  5.1.3
units:  Angstrom and eV
cores: 8
OpenMP: False
OMP_NUM_THREADS: 1

Input parameters:
  basis: dzp
  convergence: {density: 1e-06,
                eigenstates: 10000000000.0}
  h: 0.15
  mode: {interpolation: 3,
         name: lcao}
  occupations: {fixmagmom: True,
                name: fermi-dirac,
                width: 0.0}
  symmetry: off
  xc: PBE

System changes: positions, numbers, cell, pbc, initial_charges, initial_magmoms 

Initialize ...

C-setup:
  name: Carbon
  id: 4aa54d4b901d75f77cc0ea3eec22967b
  Z: 6.0
  valence: 4
  core: 2
  charge: 0.0
  file: /users/home/eojons/gpaw-setups-0.9.20000/C.PBE.gz
  compensation charges: gauss, rc=0.20, lmax=2
  cutoffs: 1.14(filt), 1.14(core),
  valence states:
                energy  radius
    2s(2.00)   -13.751   0.635
    2p(2.00)    -5.284   0.635
    *s          13.461   0.635
    *p          21.927   0.635
    *d           0.000   0.635

  LCAO basis set for C:
    Name: dzp
    File: /users/home/eojons/gpaw-setups-0.9.20000/C.dzp.basis.gz
    Number of radial functions: 5
    Number of spherical harmonics: 13
      l=0, rc=5.5469 Bohr: 2s-sz confined orbital
      l=1, rc=6.6719 Bohr: 2p-sz confined orbital
      l=0, rc=3.0312 Bohr: 2s-dz split-valence wave
      l=1, rc=3.7500 Bohr: 2p-dz split-valence wave
      l=2, rc=6.6719 Bohr: d-type Gaussian polarization

O-setup:
  name: Oxygen
  id: 32ecd46bf208036f09c70b0ec9a88b78
  Z: 8.0
  valence: 6
  core: 2
  charge: 0.0
  file: /users/home/eojons/gpaw-setups-0.9.20000/O.PBE.gz
  compensation charges: gauss, rc=0.21, lmax=2
  cutoffs: 1.17(filt), 0.83(core),
  valence states:
                energy  radius
    2s(2.00)   -23.961   0.688
    2p(4.00)    -9.029   0.598
    *s           3.251   0.688
    *p          18.182   0.598
    *d           0.000   0.619

  LCAO basis set for O:
    Name: dzp
    File: /users/home/eojons/gpaw-setups-0.9.20000/O.dzp.basis.gz
    Number of radial functions: 5
    Number of spherical harmonics: 13
      l=0, rc=4.3438 Bohr: 2s-sz confined orbital
      l=1, rc=5.3906 Bohr: 2p-sz confined orbital
      l=0, rc=2.2969 Bohr: 2s-dz split-valence wave
      l=1, rc=2.8906 Bohr: 2p-dz split-valence wave
      l=2, rc=5.3906 Bohr: d-type Gaussian polarization

H-setup:
  name: Hydrogen
  id: d65de229564ff8ea4db303e23b6d1ecf
  Z: 1.0
  valence: 1
  core: 0
  charge: 0.0
  file: /users/home/eojons/gpaw-setups-0.9.20000/H.PBE.gz
  compensation charges: gauss, rc=0.15, lmax=2
  cutoffs: 0.85(filt), 0.53(core),
  valence states:
                energy  radius
    1s(1.00)    -6.494   0.476
    *s          20.717   0.476
    *p           0.000   0.476

  LCAO basis set for H:
    Name: dzp
    File: /users/home/eojons/gpaw-setups-0.9.20000/H.dzp.basis.gz
    Number of radial functions: 3
    Number of spherical harmonics: 5
      l=0, rc=6.4219 Bohr: 1s-sz confined orbital
      l=0, rc=3.6094 Bohr: 1s-dz split-valence wave
      l=1, rc=6.4219 Bohr: p-type Gaussian polarization

Reference energy: -4146.069181

Spin-paired calculation

Convergence criteria:
  Maximum total energy change: 0.0005 eV / electron
  Maximum integral of absolute density change: 1e-06 electrons
  Maximum integral of absolute eigenstate change: 1e+10 eV^2
  Maximum number of iterations: 333

Symmetries present (total): 1

  ( 1  0  0)
  ( 0  1  0)
  ( 0  0  1)

1 k-point (Gamma)
1 k-point in the irreducible part of the Brillouin zone
       k-points in crystal coordinates                weights
   0:     0.00000000    0.00000000    0.00000000          1/1

Wave functions: LCAO
  Diagonalizer: Serial LAPACK
  Atomic Correction: dense with blas
  Datatype: float
 

Occupation numbers: width=0.000 eV 

Eigensolver
   LCAO using direct dense diagonalizer 

Densities:
  Coarse grid: 104*112*104 grid
  Fine grid: 208*224*208 grid
  Total Charge: 0.000000 

Density mixing:
  Method: separate
  Backend: pulay
  Linear mixing parameter: 0.25
  Mixing with 3 old densities
  No damping of long wave oscillations 

Hamiltonian:
  XC and Coulomb potentials evaluated on a 208*224*208 grid
  Using the PBE Exchange-Correlation functional
  Interpolation: tri-quintic (5. degree polynomial)
  Poisson solver: FastPoissonSolver using
    Stencil: 6*3+1=19 point O(h^6) finite-difference Laplacian
    FFT axes: []
    FST axes: [0, 2, 1]
 

XC parameters: PBE with 2 nearest neighbor stencil

Memory estimate:
  Process memory now: 566.29 MiB
  Calculator: 57.75 MiB
    Density: 36.56 MiB
      Arrays: 29.14 MiB
      Localized functions: 0.88 MiB
      Mixer: 6.55 MiB
    Hamiltonian: 19.13 MiB
      Arrays: 19.06 MiB
      XC: 0.00 MiB
      Poisson: 0.00 MiB
      vbar: 0.07 MiB
    Wavefunctions: 2.06 MiB
      C [qnM]: 0.01 MiB
      S, T [2 x qmm]: 0.05 MiB
      P [aqMi]: 0.00 MiB
      BasisFunctions: 2.00 MiB
      Eigensolver: 0.00 MiB

Total number of cores used: 8
Domain decomposition: 2 x 2 x 2

Number of atoms: 7
Number of atomic orbitals: 59
Number of bands in calculation: 15
Number of valence electrons: 18
Bands to converge: occupied

... initialized

Initializing position-dependent things.

Density initialized from atomic densities
           .--------------------------------------.  
          /|                                      |  
         / |                                      |  
        /  |                                      |  
       /   |                                      |  
      /    |                                      |  
     /     |                                      |  
    /      |                                      |  
   /       |                                      |  
  /        |                                      |  
 *         |                                      |  
 |         |                                      |  
 |         |                                      |  
 |         |                                      |  
 |         |             O                        |  
 |         |            H C  H                    |  
 |         |          H  C H                      |  
 |         |                                      |  
 |         |                                      |  
 |         .--------------------------------------.  
 |        /                                      /   
 |       /                                      /    
 |      /                                      /     
 |     /                                      /      
 |    /                                      /       
 |   /                                      /        
 |  /                                      /         
 | /                                      /          
 |/                                      /           
 *--------------------------------------*            

Positions:
   0 C      7.919568    9.000401    7.219204    ( 0.0000,  0.0000,  0.0000)
   1 O      7.919568    8.268821    8.455828    ( 0.0000,  0.0000,  0.0000)
   2 C      7.919568    7.537241    7.219204    ( 0.0000,  0.0000,  0.0000)
   3 H      8.839136    9.537642    7.000000    ( 0.0000,  0.0000,  0.0000)
   4 H      7.000000    9.537642    7.000000    ( 0.0000,  0.0000,  0.0000)
   5 H      7.000000    7.000000    7.000000    ( 0.0000,  0.0000,  0.0000)
   6 H      8.839136    7.000000    7.000000    ( 0.0000,  0.0000,  0.0000)

Unit cell:
           periodic     x           y           z      points  spacing
  1. axis:    no    15.839136    0.000000    0.000000   104     0.1523
  2. axis:    no     0.000000   16.537642    0.000000   112     0.1477
  3. axis:    no     0.000000    0.000000   15.455828   104     0.1486

  Lengths:  15.839136  16.537642  15.455828
  Angles:   90.000000  90.000000  90.000000

Effective grid spacing dv^(1/3) = 0.1495

                     log10-error:    total        iterations:
           time      wfs    density  energy       poisson
iter:   1  11:21:50                 -38.080947    1      
iter:   2  11:21:51         -0.80   -37.274495    1      
iter:   3  11:21:52         -0.96   -36.799282    1      
iter:   4  11:21:52         -1.52   -36.765477    1      
iter:   5  11:21:53         -2.14   -36.764550    1      
iter:   6  11:21:53         -2.51   -36.764044    1      
iter:   7  11:21:54         -2.89   -36.763961    1      
iter:   8  11:21:55         -3.35   -36.763957    1      
iter:   9  11:21:55         -3.57   -36.763955    1      
iter:  10  11:21:56         -4.09   -36.763955    1      
iter:  11  11:21:56         -4.22   -36.763955    1      
iter:  12  11:21:57         -4.71   -36.763955    1      
iter:  13  11:21:58         -4.91   -36.763955    1      
iter:  14  11:21:58         -5.15   -36.763955    1      
iter:  15  11:21:59         -5.37   -36.763955    1      
iter:  16  11:21:59         -5.70   -36.763955    1      
iter:  17  11:22:00         -5.83   -36.763955    1      
iter:  18  11:22:00         -6.11   -36.763955    1      

Converged after 18 iterations.

Dipole moment: (-0.000000, -0.000000, -0.342048) |e|*Ang

Energy contributions relative to reference atoms: (reference = -4146.069181)

Kinetic:        +31.779293
Potential:      -33.553411
External:        +0.000000
XC:             -35.107772
Entropy (-ST):   +0.000000
Local:           +0.117934
--------------------------
Free energy:    -36.763955
Extrapolated:   -36.763955

 Band  Eigenvalues  Occupancy
    0    -26.74265    2.00000
    1    -16.58156    2.00000
    2    -15.54425    2.00000
    3    -12.42178    2.00000
    4    -11.68157    2.00000
    5     -9.47624    2.00000
    6     -9.21306    2.00000
    7     -7.51823    2.00000
    8     -5.88424    2.00000
    9      1.81116    0.00000
   10      2.07223    0.00000
   11      2.41844    0.00000
   12      2.88339    0.00000
   13      2.98125    0.00000
   14      4.92120    0.00000

Fermi level: -2.03654

Gap: 7.695 eV
Transition (v -> c):
  (s=0, k=0, n=8, [0.00, 0.00, 0.00]) -> (s=0, k=0, n=9, [0.00, 0.00, 0.00])
Timing:                              incl.     excl.
-----------------------------------------------------------
Basic WFS set positions:             0.000     0.000   0.0% |
Basis functions set positions:       0.005     0.005   0.0% |
LCAO WFS Initialize:                 0.579     0.019   0.2% |
 Hamiltonian:                        0.559     0.000   0.0% |
  Atomic:                            0.011     0.011   0.1% |
   XC Correction:                    0.000     0.000   0.0% |
  Calculate atomic Hamiltonians:     0.002     0.002   0.0% |
  Communicate:                       0.006     0.006   0.1% |
  Hartree integrate/restrict:        0.015     0.015   0.1% |
  Initialize Hamiltonian:            0.001     0.001   0.0% |
  Poisson:                           0.292     0.007   0.1% |
   Communicate from 1D:              0.062     0.062   0.5% |
   Communicate from 2D:              0.057     0.057   0.5% |
   Communicate to 1D:                0.060     0.060   0.5% |
   Communicate to 2D:                0.061     0.061   0.5% |
   FFT 1D:                           0.014     0.014   0.1% |
   FFT 2D:                           0.031     0.031   0.3% |
  XC 3D grid:                        0.228     0.228   1.9% ||
  vbar:                              0.004     0.004   0.0% |
P tci:                               0.002     0.002   0.0% |
SCF-cycle:                          10.023     0.007   0.1% |
 Density:                            0.508     0.000   0.0% |
  Atomic density matrices:           0.030     0.030   0.3% |
  Mix:                               0.314     0.314   2.7% ||
  Multipole moments:                 0.002     0.002   0.0% |
  Normalize:                         0.002     0.002   0.0% |
  Pseudo density:                    0.159     0.009   0.1% |
   Calculate density matrix:         0.001     0.001   0.0% |
   Construct density:                0.150     0.150   1.3% ||
   Symmetrize density:               0.000     0.000   0.0% |
 Hamiltonian:                        9.290     0.001   0.0% |
  Atomic:                            0.177     0.177   1.5% ||
   XC Correction:                    0.000     0.000   0.0% |
  Calculate atomic Hamiltonians:     0.034     0.034   0.3% |
  Communicate:                       0.101     0.101   0.9% |
  Hartree integrate/restrict:        0.228     0.228   2.0% ||
  Poisson:                           4.924     0.113   1.0% |
   Communicate from 1D:              1.030     1.030   8.8% |---|
   Communicate from 2D:              0.951     0.951   8.1% |--|
   Communicate to 1D:                1.034     1.034   8.9% |---|
   Communicate to 2D:                1.025     1.025   8.8% |---|
   FFT 1D:                           0.242     0.242   2.1% ||
   FFT 2D:                           0.529     0.529   4.5% |-|
  XC 3D grid:                        3.766     3.766  32.2% |------------|
  vbar:                              0.059     0.059   0.5% |
 LCAO eigensolver:                   0.218     0.001   0.0% |
  Calculate projections:             0.000     0.000   0.0% |
  DenseAtomicCorrection:             0.002     0.002   0.0% |
  Distribute overlap matrix:         0.026     0.026   0.2% |
  Orbital Layouts:                   0.012     0.012   0.1% |
  Potential matrix:                  0.177     0.177   1.5% ||
ST tci:                              0.001     0.001   0.0% |
Set symmetry:                        0.000     0.000   0.0% |
TCI: Evaluate splines:               0.204     0.204   1.7% ||
mktci:                               0.001     0.001   0.0% |
Other:                               0.871     0.871   7.5% |--|
-----------------------------------------------------------
Total:                                        11.686 100.0%

Memory usage: 566.29 MiB
Date: Fri Aug  6 11:22:00 2021
