
  ___ ___ ___ _ _ _  
 |   |   |_  | | | | 
 | | | | | . | | | | 
 |__ |  _|___|_____|  21.6.1b1
 |___|_|             

User:   ali5@compute-14
Date:   Fri Aug  6 11:28:30 2021
Arch:   x86_64
Pid:    1418133
Python: 3.8.9
gpaw:   /users/home/aleksei/gpawproject/gpaw/gpaw (5e46c27e61)
_gpaw:  /users/home/aleksei/gpawproject/gpaw/build/lib.linux-x86_64-3.8/
        _gpaw.cpython-38-x86_64-linux-gnu.so (5e46c27e61)
ase:    /users/home/aleksei/gpawproject/ase/ase (version 3.22.0b1-5c4361a7fd)
numpy:  /users/home/eojons/spack/opt/spack/linux-centos8-cascadelake/gcc-9.3.0/py-numpy-1.20.2-dgf27bhjua75jm66wbtas3vnjet4dzqg/lib/python3.8/site-packages/numpy (version 1.20.2)
scipy:  /users/home/eojons/spack/opt/spack/linux-centos8-cascadelake/gcc-9.3.0/py-scipy-1.6.2-5mj6sw3rf63wmprfl3ofjpi64tayycfh/lib/python3.8/site-packages/scipy (version 1.6.2)
libxc:  5.1.3
units:  Angstrom and eV
cores: 8
OpenMP: False
OMP_NUM_THREADS: 1

Input parameters:
  basis: dzp
  convergence: {density: 1e-06,
                eigenstates: 10000000000.0}
  h: 0.15
  mode: {interpolation: 3,
         name: lcao}
  occupations: {fixmagmom: True,
                name: fermi-dirac,
                width: 0.0}
  symmetry: off
  xc: PBE

System changes: positions, numbers, cell, pbc, initial_charges, initial_magmoms 

Initialize ...

C-setup:
  name: Carbon
  id: 4aa54d4b901d75f77cc0ea3eec22967b
  Z: 6.0
  valence: 4
  core: 2
  charge: 0.0
  file: /users/home/eojons/gpaw-setups-0.9.20000/C.PBE.gz
  compensation charges: gauss, rc=0.20, lmax=2
  cutoffs: 1.14(filt), 1.14(core),
  valence states:
                energy  radius
    2s(2.00)   -13.751   0.635
    2p(2.00)    -5.284   0.635
    *s          13.461   0.635
    *p          21.927   0.635
    *d           0.000   0.635

  LCAO basis set for C:
    Name: dzp
    File: /users/home/eojons/gpaw-setups-0.9.20000/C.dzp.basis.gz
    Number of radial functions: 5
    Number of spherical harmonics: 13
      l=0, rc=5.5469 Bohr: 2s-sz confined orbital
      l=1, rc=6.6719 Bohr: 2p-sz confined orbital
      l=0, rc=3.0312 Bohr: 2s-dz split-valence wave
      l=1, rc=3.7500 Bohr: 2p-dz split-valence wave
      l=2, rc=6.6719 Bohr: d-type Gaussian polarization

H-setup:
  name: Hydrogen
  id: d65de229564ff8ea4db303e23b6d1ecf
  Z: 1.0
  valence: 1
  core: 0
  charge: 0.0
  file: /users/home/eojons/gpaw-setups-0.9.20000/H.PBE.gz
  compensation charges: gauss, rc=0.15, lmax=2
  cutoffs: 0.85(filt), 0.53(core),
  valence states:
                energy  radius
    1s(1.00)    -6.494   0.476
    *s          20.717   0.476
    *p           0.000   0.476

  LCAO basis set for H:
    Name: dzp
    File: /users/home/eojons/gpaw-setups-0.9.20000/H.dzp.basis.gz
    Number of radial functions: 3
    Number of spherical harmonics: 5
      l=0, rc=6.4219 Bohr: 1s-sz confined orbital
      l=0, rc=3.6094 Bohr: 1s-dz split-valence wave
      l=1, rc=6.4219 Bohr: p-type Gaussian polarization

Reference energy: -4235.414084

Spin-paired calculation

Convergence criteria:
  Maximum total energy change: 0.0005 eV / electron
  Maximum integral of absolute density change: 1e-06 electrons
  Maximum integral of absolute eigenstate change: 1e+10 eV^2
  Maximum number of iterations: 333

Symmetries present (total): 1

  ( 1  0  0)
  ( 0  1  0)
  ( 0  0  1)

1 k-point (Gamma)
1 k-point in the irreducible part of the Brillouin zone
       k-points in crystal coordinates                weights
   0:     0.00000000    0.00000000    0.00000000          1/1

Wave functions: LCAO
  Diagonalizer: Serial LAPACK
  Atomic Correction: dense with blas
  Datatype: float
 

Occupation numbers: width=0.000 eV 

Eigensolver
   LCAO using direct dense diagonalizer 

Densities:
  Coarse grid: 124*120*112 grid
  Fine grid: 248*240*224 grid
  Total Charge: 0.000000 

Density mixing:
  Method: separate
  Backend: pulay
  Linear mixing parameter: 0.25
  Mixing with 3 old densities
  No damping of long wave oscillations 

Hamiltonian:
  XC and Coulomb potentials evaluated on a 248*240*224 grid
  Using the PBE Exchange-Correlation functional
  Interpolation: tri-quintic (5. degree polynomial)
  Poisson solver: FastPoissonSolver using
    Stencil: 6*3+1=19 point O(h^6) finite-difference Laplacian
    FFT axes: []
    FST axes: [2, 1, 0]
 

XC parameters: PBE with 2 nearest neighbor stencil

Memory estimate:
  Process memory now: 566.29 MiB
  Calculator: 81.37 MiB
    Density: 50.77 MiB
      Arrays: 40.21 MiB
      Localized functions: 1.50 MiB
      Mixer: 9.06 MiB
    Hamiltonian: 26.42 MiB
      Arrays: 26.30 MiB
      XC: 0.00 MiB
      Poisson: 0.00 MiB
      vbar: 0.12 MiB
    Wavefunctions: 4.18 MiB
      C [qnM]: 0.02 MiB
      S, T [2 x qmm]: 0.16 MiB
      P [aqMi]: 0.00 MiB
      BasisFunctions: 4.00 MiB
      Eigensolver: 0.00 MiB

Total number of cores used: 8
Domain decomposition: 2 x 2 x 2

Number of atoms: 14
Number of atomic orbitals: 102
Number of bands in calculation: 20
Number of valence electrons: 26
Bands to converge: occupied

... initialized

Initializing position-dependent things.

Density initialized from atomic densities
            .--------------------------------------------.  
           /|                                            |  
          / |                                            |  
         /  |                                            |  
        /   |                                            |  
       /    |                                            |  
      /     |                                            |  
     /      |                                            |  
    /       |                                            |  
   /        |                                            |  
  /         |                                            |  
 *          |                                            |  
 |          |                                            |  
 |          |                                            |  
 |          |               HH  H                        |  
 |          |                CC                          |  
 |          |          H C    H C H                      |  
 |          |            H     H                         |  
 |          |            H      H                        |  
 |          |                                            |  
 |          .--------------------------------------------.  
 |         /                                            /   
 |        /                                            /    
 |       /                                            /     
 |      /                                            /      
 |     /                                            /       
 |    /                                            /        
 |   /                                            /         
 |  /                                            /          
 | /                                            /           
 |/                                            /            
 *--------------------------------------------*             

Positions:
   0 C      9.161537    8.759198    8.567796    ( 0.0000,  0.0000,  0.0000)
   1 H      9.161537    8.759198    9.666116    ( 0.0000,  0.0000,  0.0000)
   2 C      9.161537   10.209488    8.094613    ( 0.0000,  0.0000,  0.0000)
   3 H      9.161537   10.253195    7.000000    ( 0.0000,  0.0000,  0.0000)
   4 H      8.276055   10.743893    8.452144    ( 0.0000,  0.0000,  0.0000)
   5 H     10.047019   10.743893    8.452144    ( 0.0000,  0.0000,  0.0000)
   6 C     10.417525    8.034053    8.094613    ( 0.0000,  0.0000,  0.0000)
   7 H     10.455376    8.012200    7.000000    ( 0.0000,  0.0000,  0.0000)
   8 H     11.323074    8.533700    8.452144    ( 0.0000,  0.0000,  0.0000)
   9 H     10.437592    7.000000    8.452144    ( 0.0000,  0.0000,  0.0000)
  10 C      7.905549    8.034053    8.094613    ( 0.0000,  0.0000,  0.0000)
  11 H      7.867698    8.012200    7.000000    ( 0.0000,  0.0000,  0.0000)
  12 H      7.885482    7.000000    8.452144    ( 0.0000,  0.0000,  0.0000)
  13 H      7.000000    8.533700    8.452144    ( 0.0000,  0.0000,  0.0000)

Unit cell:
           periodic     x           y           z      points  spacing
  1. axis:    no    18.323074    0.000000    0.000000   124     0.1478
  2. axis:    no     0.000000   17.743893    0.000000   120     0.1479
  3. axis:    no     0.000000    0.000000   16.666116   112     0.1488

  Lengths:  18.323074  17.743893  16.666116
  Angles:   90.000000  90.000000  90.000000

Effective grid spacing dv^(1/3) = 0.1481

                     log10-error:    total        iterations:
           time      wfs    density  energy       poisson
iter:   1  11:28:32                 -75.740764    1      
iter:   2  11:28:32         -0.67   -73.032726    1      
iter:   3  11:28:33         -0.86   -72.073295    1      
iter:   4  11:28:34         -1.20   -71.944907    1      
iter:   5  11:28:35         -2.13   -71.943780    1      
iter:   6  11:28:35         -2.39   -71.943207    1      
iter:   7  11:28:36         -2.62   -71.942885    1      
iter:   8  11:28:37         -3.20   -71.942867    1      
iter:   9  11:28:38         -3.48   -71.942864    1      
iter:  10  11:28:38         -3.80   -71.942865    1      
iter:  11  11:28:39         -4.05   -71.942865    1      
iter:  12  11:28:40         -4.34   -71.942865    1      
iter:  13  11:28:40         -4.74   -71.942865    1      
iter:  14  11:28:41         -5.06   -71.942865    1      
iter:  15  11:28:42         -5.35   -71.942865    1      
iter:  16  11:28:43         -5.58   -71.942865    1      
iter:  17  11:28:43         -5.89   -71.942865    1      
iter:  18  11:28:44         -6.13   -71.942865    1      

Converged after 18 iterations.

Dipole moment: (0.000000, 0.000011, 0.023030) |e|*Ang

Energy contributions relative to reference atoms: (reference = -4235.414084)

Kinetic:        +58.376708
Potential:      -66.268690
External:        +0.000000
XC:             -64.145623
Entropy (-ST):   +0.000000
Local:           +0.094741
--------------------------
Free energy:    -71.942865
Extrapolated:   -71.942865

 Band  Eigenvalues  Occupancy
    0    -19.87794    2.00000
    1    -16.74068    2.00000
    2    -16.74068    2.00000
    3    -13.61700    2.00000
    4    -11.26517    2.00000
    5    -10.42218    2.00000
    6    -10.42204    2.00000
    7     -9.14457    2.00000
    8     -9.14441    2.00000
    9     -8.60789    2.00000
   10     -7.78169    2.00000
   11     -7.78150    2.00000
   12     -7.57989    2.00000
   13      1.62536    0.00000
   14      2.64504    0.00000
   15      3.13956    0.00000
   16      3.14053    0.00000
   17      3.41322    0.00000
   18      3.41378    0.00000
   19      3.91172    0.00000

Fermi level: -2.97726

Gap: 9.205 eV
Transition (v -> c):
  (s=0, k=0, n=12, [0.00, 0.00, 0.00]) -> (s=0, k=0, n=13, [0.00, 0.00, 0.00])
Timing:                              incl.     excl.
-----------------------------------------------------------
Basic WFS set positions:             0.000     0.000   0.0% |
Basis functions set positions:       0.010     0.010   0.1% |
LCAO WFS Initialize:                 0.678     0.026   0.2% |
 Hamiltonian:                        0.651     0.000   0.0% |
  Atomic:                            0.025     0.010   0.1% |
   XC Correction:                    0.016     0.016   0.1% |
  Calculate atomic Hamiltonians:     0.003     0.003   0.0% |
  Communicate:                       0.003     0.003   0.0% |
  Hartree integrate/restrict:        0.020     0.020   0.1% |
  Initialize Hamiltonian:            0.002     0.002   0.0% |
  Poisson:                           0.280     0.011   0.1% |
   Communicate from 1D:              0.021     0.021   0.1% |
   Communicate from 2D:              0.075     0.075   0.5% |
   Communicate to 1D:                0.078     0.078   0.5% |
   Communicate to 2D:                0.025     0.025   0.2% |
   FFT 1D:                           0.027     0.027   0.2% |
   FFT 2D:                           0.042     0.042   0.3% |
  XC 3D grid:                        0.314     0.314   2.2% ||
  vbar:                              0.005     0.005   0.0% |
P tci:                               0.007     0.007   0.0% |
SCF-cycle:                          12.545     0.007   0.0% |
 Density:                            0.975     0.000   0.0% |
  Atomic density matrices:           0.034     0.034   0.2% |
  Mix:                               0.483     0.483   3.3% ||
  Multipole moments:                 0.002     0.002   0.0% |
  Normalize:                         0.003     0.003   0.0% |
  Pseudo density:                    0.453     0.014   0.1% |
   Calculate density matrix:         0.001     0.001   0.0% |
   Construct density:                0.437     0.437   3.0% ||
   Symmetrize density:               0.000     0.000   0.0% |
 Hamiltonian:                       10.963     0.001   0.0% |
  Atomic:                            0.434     0.166   1.1% |
   XC Correction:                    0.269     0.269   1.9% ||
  Calculate atomic Hamiltonians:     0.040     0.040   0.3% |
  Communicate:                       0.044     0.044   0.3% |
  Hartree integrate/restrict:        0.326     0.326   2.3% ||
  Poisson:                           4.738     0.180   1.2% |
   Communicate from 1D:              0.365     0.365   2.5% ||
   Communicate from 2D:              1.309     1.309   9.0% |---|
   Communicate to 1D:                1.283     1.283   8.9% |---|
   Communicate to 2D:                0.442     0.442   3.0% ||
   FFT 1D:                           0.448     0.448   3.1% ||
   FFT 2D:                           0.711     0.711   4.9% |-|
  XC 3D grid:                        5.296     5.296  36.6% |--------------|
  vbar:                              0.082     0.082   0.6% |
 LCAO eigensolver:                   0.599     0.001   0.0% |
  Calculate projections:             0.001     0.001   0.0% |
  DenseAtomicCorrection:             0.002     0.002   0.0% |
  Distribute overlap matrix:         0.032     0.032   0.2% |
  Orbital Layouts:                   0.026     0.026   0.2% |
  Potential matrix:                  0.537     0.537   3.7% ||
ST tci:                              0.003     0.003   0.0% |
Set symmetry:                        0.000     0.000   0.0% |
TCI: Evaluate splines:               0.074     0.074   0.5% |
mktci:                               0.002     0.002   0.0% |
Other:                               1.169     1.169   8.1% |--|
-----------------------------------------------------------
Total:                                        14.489 100.0%

Memory usage: 566.29 MiB
Date: Fri Aug  6 11:28:44 2021
