
  ___ ___ ___ _ _ _  
 |   |   |_  | | | | 
 | | | | | . | | | | 
 |__ |  _|___|_____|  1.5.2b1
 |___|_|             

User:   aleksei@compute-0-13
Date:   Wed Feb 20 06:29:47 2019
Arch:   x86_64
Pid:    26806
Python: 3.6.5
gpaw:   /users/home/aleksei/NEW_PROJECTS/gpaw_lcao/source_code/gpaw (75f3e393b1)
_gpaw:  /users/home/aleksei/NEW_PROJECTS/gpaw_lcao/source_code/build/bin.linux-x86_64-3.6/
        gpaw-python (fa5ca3e740)
ase:    /users/home/aleksei/ase_my_fork/ase (version 3.18.0b1-471271e4ee)
numpy:  /opt/share/python/intel2019/intelpython3/lib/python3.6/site-packages/numpy (version 1.15.2)
scipy:  /opt/share/python/intel2019/intelpython3/lib/python3.6/site-packages/scipy (version 1.1.0)
libxc:  4.0.4
units:  Angstrom and eV
cores:  8

Input parameters:
  basis: dzp
  convergence: {density: 10000000000.0,
                eigenstates: 1e-10,
                energy: 10000000000.0}
  eigensolver: direct_min_lcao
  h: 0.2
  mixer: {method: dummy}
  mode: {interpolation: 3,
         name: lcao}
  nbands: nao
  occupations: {fixmagmom: True,
                name: fermi-dirac,
                width: 0.0}
  poissonsolver: {eps: 1e-16,
                  name: fast,
                  nn: 3}
  xc: PBE

System changes: positions, numbers, cell, pbc, initial_charges, initial_magmoms 

Initialize ...

O-setup:
  name: Oxygen
  id: 32ecd46bf208036f09c70b0ec9a88b78
  Z: 8
  valence: 6
  core: 2
  charge: 0.0
  file: /users/home/aleksei/gpaw-setups-0.9.11271/O.PBE.gz
  cutoffs: 0.67(comp), 1.17(filt), 0.83(core), lmax=2
  valence states:
                energy  radius
    2s(2.00)   -23.961   0.688
    2p(4.00)    -9.029   0.598
    *s           3.251   0.688
    *p          18.182   0.598
    *d           0.000   0.619

  LCAO basis set for O:
    Name: dzp
    File: /users/home/aleksei/gpaw-setups-0.9.11271/O.dzp.basis.gz
    Number of radial functions: 5
    Number of spherical harmonics: 13
      l=0, rc=4.3438 Bohr: 2s-sz confined orbital
      l=1, rc=5.3906 Bohr: 2p-sz confined orbital
      l=0, rc=2.2969 Bohr: 2s-dz split-valence wave
      l=1, rc=2.8906 Bohr: 2p-dz split-valence wave
      l=2, rc=5.3906 Bohr: d-type Gaussian polarization

H-setup:
  name: Hydrogen
  id: d65de229564ff8ea4db303e23b6d1ecf
  Z: 1
  valence: 1
  core: 0
  charge: 0.0
  file: /users/home/aleksei/gpaw-setups-0.9.11271/H.PBE.gz
  cutoffs: 0.48(comp), 0.85(filt), 0.53(core), lmax=2
  valence states:
                energy  radius
    1s(1.00)    -6.494   0.476
    *s          20.717   0.476
    *p           0.000   0.476

  LCAO basis set for H:
    Name: dzp
    File: /users/home/aleksei/gpaw-setups-0.9.11271/H.dzp.basis.gz
    Number of radial functions: 3
    Number of spherical harmonics: 5
      l=0, rc=6.4219 Bohr: 1s-sz confined orbital
      l=0, rc=3.6094 Bohr: 1s-dz split-valence wave
      l=1, rc=6.4219 Bohr: p-type Gaussian polarization

Reference energy: -66106.644020

Spin-paired calculation

Occupation numbers:
  Fixed magnetic moment
  Fermi-Dirac: width=0.0000 eV

Convergence criteria:
  Maximum total energy change: 1e+10 eV / electron
  Maximum integral of absolute density change: 1e+10 electrons
  Maximum integral of absolute eigenstate change: 1e-10 eV^2
  Maximum number of iterations: 333

Symmetries present (total): 1

  ( 1  0  0)
  ( 0  1  0)
  ( 0  0  1)

1 k-point (Gamma)
1 k-point in the irreducible part of the Brillouin zone
       k-points in crystal coordinates                weights
   0:     0.00000000    0.00000000    0.00000000          1/1

Wave functions: LCAO
  Diagonalizer: Serial LAPACK
  Atomic Correction: dense with blas
  Datatype: float
 

Eigensolver
   Direct minimisation using exponential transformation.
       Search direction: LBFGS algorithm with preconditioning
       Line search: Inexact line search based on cubic interpolation,
                    strong and approximate Wolfe conditions
       Preconditioning: True
       WARNING: do not use it for metals as occupation numbers are
                not found variationally
 

Densities:
  Coarse grid: 48*48*48 grid
  Fine grid: 96*96*96 grid
  Total Charge: 0.000000 

No density mixing

Hamiltonian:
  XC and Coulomb potentials evaluated on a 96*96*96 grid
  Using the PBE Exchange-Correlation functional
  Interpolation: tri-quintic (5. degree polynomial)
  Poisson solver: FastPoissonSolver using
    6*3+1=19 point O(h^6) finite-difference Laplacian stencil;
    FFT axes: [0, 1, 2];
    FST axes: [].
 

XC parameters: PBE with 2 nearest neighbor stencil

Memory estimate:
  Process memory now: 95.21 MiB
  Calculator: 29.90 MiB
    Density: 7.36 MiB
      Arrays: 2.74 MiB
      Localized functions: 4.62 MiB
      Mixer: 0.00 MiB
    Hamiltonian: 2.13 MiB
      Arrays: 1.79 MiB
      XC: 0.00 MiB
      Poisson: 0.00 MiB
      vbar: 0.33 MiB
    Wavefunctions: 20.41 MiB
      C [qnM]: 4.13 MiB
      S, T [2 x qmm]: 8.27 MiB
      P [aqMi]: 0.06 MiB
      BasisFunctions: 7.95 MiB
      Eigensolver: 0.00 MiB

Total number of cores used: 8
Domain decomposition: 2 x 2 x 2

Number of atoms: 96
Number of atomic orbitals: 736
Number of bands in calculation: 736
Bands to converge: occupied states only
Number of valence electrons: 256

... initialized

Initializing position-dependent things.

Density initialized from atomic densities
       .-----------------------.  
      /|            H O H     H|  
     / |H     H                |  
    /O |    H        H      H  |  
   /   |   H      H O     H    H  
  /    |H  H O H    HH    H   O|  
 * H   HH        HOH O      O  |  
 |     |  HH      O  O   O     |  
 |     H O O   H   HH     H H  |  
 |     |HH    HH H OH   HH OOH |  
 |     |       O     O H       |  
 |  H  |  H       H        H   |  
 |H  O H--O--H---OH--H-----O---.  
 |O H /         H OH O      H /   
 | H /   H             H     /    
 |  /   O                 O /     
 | /   H                   /      
 |/    O                  /       
 *-----------------------*        

Positions:
   0 O     -0.069000    0.824000   -1.295000    ( 0.0000,  0.0000,  0.0000)
   1 H      0.786000    0.943000   -0.752000    ( 0.0000,  0.0000,  0.0000)
   2 H     -0.414000   -0.001000   -0.865000    ( 0.0000,  0.0000,  0.0000)
   3 O     -0.282000   -0.674000   -3.822000    ( 0.0000,  0.0000,  0.0000)
   4 H      0.018000   -0.147000   -4.624000    ( 0.0000,  0.0000,  0.0000)
   5 H     -0.113000   -0.080000   -3.034000    ( 0.0000,  0.0000,  0.0000)
   6 O      2.253000    1.261000    0.151000    ( 0.0000,  0.0000,  0.0000)
   7 H      2.606000    0.638000   -0.539000    ( 0.0000,  0.0000,  0.0000)
   8 H      2.455000    0.790000    1.019000    ( 0.0000,  0.0000,  0.0000)
   9 O      3.106000   -0.276000   -1.795000    ( 0.0000,  0.0000,  0.0000)
  10 H      2.914000    0.459000   -2.386000    ( 0.0000,  0.0000,  0.0000)
  11 H      2.447000   -1.053000   -1.919000    ( 0.0000,  0.0000,  0.0000)
  12 O      6.257000   -0.625000   -0.626000    ( 0.0000,  0.0000,  0.0000)
  13 H      7.107000   -1.002000   -0.317000    ( 0.0000,  0.0000,  0.0000)
  14 H      5.526000   -1.129000   -0.131000    ( 0.0000,  0.0000,  0.0000)
  15 O      5.451000   -1.261000   -2.937000    ( 0.0000,  0.0000,  0.0000)
  16 H      4.585000   -0.957000   -2.503000    ( 0.0000,  0.0000,  0.0000)
  17 H      6.079000   -0.919000   -2.200000    ( 0.0000,  0.0000,  0.0000)
  18 O     -0.515000    3.689000    0.482000    ( 0.0000,  0.0000,  0.0000)
  19 H     -0.218000    3.020000   -0.189000    ( 0.0000,  0.0000,  0.0000)
  20 H      0.046000    3.568000    1.382000    ( 0.0000,  0.0000,  0.0000)
  21 O     -0.205000    2.640000   -3.337000    ( 0.0000,  0.0000,  0.0000)
  22 H     -1.083000    2.576000   -3.771000    ( 0.0000,  0.0000,  0.0000)
  23 H     -0.213000    1.885000   -2.680000    ( 0.0000,  0.0000,  0.0000)
  24 O      0.132000    6.301000   -0.278000    ( 0.0000,  0.0000,  0.0000)
  25 H      1.104000    6.366000   -0.068000    ( 0.0000,  0.0000,  0.0000)
  26 H     -0.148000    5.363000   -0.112000    ( 0.0000,  0.0000,  0.0000)
  27 O     -0.505000    6.680000   -3.285000    ( 0.0000,  0.0000,  0.0000)
  28 H     -0.674000    7.677000   -3.447000    ( 0.0000,  0.0000,  0.0000)
  29 H     -0.965000    6.278000   -2.517000    ( 0.0000,  0.0000,  0.0000)
  30 O      4.063000    3.342000   -0.474000    ( 0.0000,  0.0000,  0.0000)
  31 H      4.950000    2.912000   -0.663000    ( 0.0000,  0.0000,  0.0000)
  32 H      3.484000    2.619000   -0.125000    ( 0.0000,  0.0000,  0.0000)
  33 O      2.575000    2.404000   -3.170000    ( 0.0000,  0.0000,  0.0000)
  34 H      1.694000    2.841000   -3.296000    ( 0.0000,  0.0000,  0.0000)
  35 H      3.049000    2.956000   -2.503000    ( 0.0000,  0.0000,  0.0000)
  36 O      6.666000    2.030000   -0.815000    ( 0.0000,  0.0000,  0.0000)
  37 H      7.476000    2.277000   -0.316000    ( 0.0000,  0.0000,  0.0000)
  38 H      6.473000    1.064000   -0.651000    ( 0.0000,  0.0000,  0.0000)
  39 O      6.860000    2.591000   -3.584000    ( 0.0000,  0.0000,  0.0000)
  40 H      6.928000    3.530000   -3.176000    ( 0.0000,  0.0000,  0.0000)
  41 H      6.978000    2.097000   -2.754000    ( 0.0000,  0.0000,  0.0000)
  42 O      2.931000    6.022000   -0.243000    ( 0.0000,  0.0000,  0.0000)
  43 H      3.732000    6.562000   -0.004000    ( 0.0000,  0.0000,  0.0000)
  44 H      3.226000    5.115000   -0.404000    ( 0.0000,  0.0000,  0.0000)
  45 O      2.291000    7.140000   -2.455000    ( 0.0000,  0.0000,  0.0000)
  46 H      1.317000    6.937000   -2.532000    ( 0.0000,  0.0000,  0.0000)
  47 H      2.586000    6.574000   -1.669000    ( 0.0000,  0.0000,  0.0000)
  48 O      6.843000    5.460000    1.065000    ( 0.0000,  0.0000,  0.0000)
  49 H      7.803000    5.290000    0.852000    ( 0.0000,  0.0000,  0.0000)
  50 H      6.727000    5.424000    2.062000    ( 0.0000,  0.0000,  0.0000)
  51 O      6.896000    4.784000   -2.130000    ( 0.0000,  0.0000,  0.0000)
  52 H      6.191000    5.238000   -2.702000    ( 0.0000,  0.0000,  0.0000)
  53 H      6.463000    4.665000   -1.259000    ( 0.0000,  0.0000,  0.0000)
  54 O      0.398000    0.691000    4.098000    ( 0.0000,  0.0000,  0.0000)
  55 H      0.047000    1.567000    3.807000    ( 0.0000,  0.0000,  0.0000)
  56 H      1.268000    0.490000    3.632000    ( 0.0000,  0.0000,  0.0000)
  57 O      2.687000    0.272000    2.641000    ( 0.0000,  0.0000,  0.0000)
  58 H      3.078000    1.126000    3.027000    ( 0.0000,  0.0000,  0.0000)
  59 H      3.376000   -0.501000    2.793000    ( 0.0000,  0.0000,  0.0000)
  60 O      6.002000   -0.525000    4.002000    ( 0.0000,  0.0000,  0.0000)
  61 H      6.152000    0.405000    3.660000    ( 0.0000,  0.0000,  0.0000)
  62 H      5.987000   -0.447000    4.980000    ( 0.0000,  0.0000,  0.0000)
  63 O      0.649000    3.541000    2.897000    ( 0.0000,  0.0000,  0.0000)
  64 H      0.245000    4.301000    3.459000    ( 0.0000,  0.0000,  0.0000)
  65 H      1.638000    3.457000    3.084000    ( 0.0000,  0.0000,  0.0000)
  66 O     -0.075000    5.662000    4.233000    ( 0.0000,  0.0000,  0.0000)
  67 H     -0.182000    6.512000    3.776000    ( 0.0000,  0.0000,  0.0000)
  68 H     -0.241000    5.961000    5.212000    ( 0.0000,  0.0000,  0.0000)
  69 O      3.243000    2.585000    3.878000    ( 0.0000,  0.0000,  0.0000)
  70 H      3.110000    2.343000    4.817000    ( 0.0000,  0.0000,  0.0000)
  71 H      4.262000    2.718000    3.780000    ( 0.0000,  0.0000,  0.0000)
  72 O      5.942000    2.582000    3.712000    ( 0.0000,  0.0000,  0.0000)
  73 H      6.250000    3.500000    3.566000    ( 0.0000,  0.0000,  0.0000)
  74 H      6.379000    2.564000    4.636000    ( 0.0000,  0.0000,  0.0000)
  75 O      2.686000    5.638000    5.164000    ( 0.0000,  0.0000,  0.0000)
  76 H      1.781000    5.472000    4.698000    ( 0.0000,  0.0000,  0.0000)
  77 H      2.454000    6.286000    5.887000    ( 0.0000,  0.0000,  0.0000)
  78 O      6.744000    5.276000    3.826000    ( 0.0000,  0.0000,  0.0000)
  79 H      6.238000    5.608000    4.632000    ( 0.0000,  0.0000,  0.0000)
  80 H      7.707000    5.258000    4.110000    ( 0.0000,  0.0000,  0.0000)
  81 O      8.573000    8.472000    0.407000    ( 0.0000,  0.0000,  0.0000)
  82 H      9.069000    7.656000    0.067000    ( 0.0000,  0.0000,  0.0000)
  83 H      8.472000    8.425000    1.397000    ( 0.0000,  0.0000,  0.0000)
  84 O      8.758000    8.245000    2.989000    ( 0.0000,  0.0000,  0.0000)
  85 H      9.294000    9.091000    3.172000    ( 0.0000,  0.0000,  0.0000)
  86 H      7.906000    8.527000    3.373000    ( 0.0000,  0.0000,  0.0000)
  87 O      4.006000    7.734000    3.021000    ( 0.0000,  0.0000,  0.0000)
  88 H      4.685000    8.238000    3.547000    ( 0.0000,  0.0000,  0.0000)
  89 H      3.468000    7.158000    3.624000    ( 0.0000,  0.0000,  0.0000)
  90 O      5.281000    6.089000    6.035000    ( 0.0000,  0.0000,  0.0000)
  91 H      5.131000    7.033000    6.378000    ( 0.0000,  0.0000,  0.0000)
  92 H      4.428000    5.704000    5.720000    ( 0.0000,  0.0000,  0.0000)
  93 O      5.067000    7.323000    0.662000    ( 0.0000,  0.0000,  0.0000)
  94 H      5.785000    6.667000    0.703000    ( 0.0000,  0.0000,  0.0000)
  95 H      4.718000    7.252000    1.585000    ( 0.0000,  0.0000,  0.0000)

Unit cell:
           periodic     x           y           z      points  spacing
  1. axis:    yes    9.855373    0.000000    0.000000    48     0.2053
  2. axis:    yes    0.000000    9.855373    0.000000    48     0.2053
  3. axis:    yes    0.000000    0.000000    9.855373    48     0.2053

  Lengths:   9.855373   9.855373   9.855373
  Angles:   90.000000  90.000000  90.000000

Effective grid spacing dv^(1/3) = 0.2053

                     log10-error:    total        iterations:
           time      wfs    density  energy       fermi  poisson
iter:   1  06:29:54  -1.50         -442.317126    0      1      
iter:   2  06:29:55  -1.48         -442.455941    0      1      
iter:   3  06:29:56  -2.58         -442.522518    0      1      
iter:   4  06:29:57  -3.27         -442.528651    0      1      
iter:   5  06:29:58  -4.47         -442.530168    0      1      
iter:   6  06:29:59  -4.84         -442.530300    0      1      
iter:   7  06:30:00  -5.31         -442.530368    0      1      
iter:   8  06:30:01  -5.72         -442.530375    0      1      
iter:   9  06:30:02  -7.05         -442.530381    0      1      
iter:  10  06:30:04  -7.55         -442.530382    0      1      
iter:  11  06:30:05  -7.86         -442.530382    0      1      
iter:  12  06:30:06  -8.59         -442.530382    0      1      
iter:  13  06:30:07  -8.89         -442.530382    0      1      
iter:  14  06:30:08  -9.56         -442.530382    0      1      
iter:  15  06:30:09 -10.43         -442.530382    0      1      

Converged after 15 iterations.

Dipole moment: (31.968116, 13.743700, 30.191969) |e|*Ang

Energy contributions relative to reference atoms: (reference = -66106.644020)

Kinetic:       +396.404522
Potential:     -439.341693
External:        +0.000000
XC:            -412.748186
Entropy (-ST):   +0.000000
Local:          +13.154975
--------------------------
Free energy:   -442.530382
Extrapolated:  -442.530382

Fermi levels: -2.13888, -2.13888

 Band  Eigenvalues  Occupancy
    0    -22.34083    2.00000
    1    -22.24281    2.00000
    2    -22.13530    2.00000
    3    -22.08335    2.00000
    4    -21.99815    2.00000
    5    -21.94100    2.00000
    6    -21.86793    2.00000
    7    -21.85008    2.00000
    8    -21.70380    2.00000
    9    -21.60810    2.00000
   10    -21.57720    2.00000
   11    -21.50724    2.00000
   12    -21.40846    2.00000
   13    -21.38873    2.00000
   14    -21.33517    2.00000
   15    -21.27627    2.00000
   16    -21.25174    2.00000
   17    -21.22927    2.00000
   18    -21.17224    2.00000
   19    -21.04182    2.00000
   20    -21.02554    2.00000
   21    -20.96352    2.00000
   22    -20.91939    2.00000
   23    -20.87180    2.00000
   24    -20.74353    2.00000
   25    -20.69751    2.00000
   26    -20.62082    2.00000
   27    -20.60678    2.00000
   28    -20.52756    2.00000
   29    -20.48975    2.00000
   30    -20.45299    2.00000
   31    -20.36443    2.00000
   32    -10.31497    2.00000
   33    -10.08241    2.00000
   34    -10.04831    2.00000
   35     -9.95775    2.00000
   36     -9.90995    2.00000
   37     -9.83151    2.00000
   38     -9.81436    2.00000
   39     -9.70703    2.00000
   40     -9.61584    2.00000
   41     -9.59448    2.00000
   42     -9.57250    2.00000
   43     -9.53731    2.00000
   44     -9.48654    2.00000
   45     -9.42492    2.00000
   46     -9.36408    2.00000
   47     -9.34344    2.00000
   48     -9.31932    2.00000
   49     -9.29247    2.00000
   50     -9.27355    2.00000
   51     -9.20838    2.00000
   52     -9.12933    2.00000
   53     -9.11106    2.00000
   54     -9.05798    2.00000
   55     -9.01894    2.00000
   56     -8.98647    2.00000
   57     -8.78293    2.00000
   58     -8.75278    2.00000
   59     -8.72822    2.00000
   60     -8.62477    2.00000
   61     -8.45071    2.00000
   62     -8.37489    2.00000
   63     -8.30520    2.00000
   64     -7.33388    2.00000
   65     -7.21172    2.00000
   66     -7.09658    2.00000
   67     -6.90979    2.00000
   68     -6.78980    2.00000
   69     -6.76851    2.00000
   70     -6.69918    2.00000
   71     -6.57130    2.00000
   72     -6.52075    2.00000
   73     -6.50420    2.00000
   74     -6.28530    2.00000
   75     -6.24169    2.00000
   76     -6.17255    2.00000
   77     -6.07538    2.00000
   78     -5.89404    2.00000
   79     -5.85664    2.00000
   80     -5.79541    2.00000
   81     -5.72987    2.00000
   82     -5.65735    2.00000
   83     -5.59092    2.00000
   84     -5.55711    2.00000
   85     -5.45346    2.00000
   86     -5.27574    2.00000
   87     -5.24997    2.00000
   88     -5.16795    2.00000
   89     -5.12378    2.00000
   90     -5.00699    2.00000
   91     -4.88456    2.00000
   92     -4.84872    2.00000
   93     -4.79736    2.00000
   94     -4.57350    2.00000
   95     -4.39570    2.00000
   96     -4.30791    2.00000
   97     -4.29468    2.00000
   98     -4.18899    2.00000
   99     -4.01953    2.00000
  100     -3.98359    2.00000
  101     -3.92103    2.00000
  102     -3.91229    2.00000
  103     -3.84462    2.00000
  104     -3.83598    2.00000
  105     -3.80585    2.00000
  106     -3.76210    2.00000
  107     -3.72560    2.00000
  108     -3.69564    2.00000
  109     -3.62771    2.00000
  110     -3.56859    2.00000
  111     -3.52571    2.00000
  112     -3.51094    2.00000
  113     -3.49581    2.00000
  114     -3.44059    2.00000
  115     -3.39009    2.00000
  116     -3.36037    2.00000
  117     -3.31838    2.00000
  118     -3.27307    2.00000
  119     -3.25260    2.00000
  120     -3.24434    2.00000
  121     -3.20159    2.00000
  122     -3.12457    2.00000
  123     -3.06084    2.00000
  124     -3.00209    2.00000
  125     -2.97840    2.00000
  126     -2.89982    2.00000
  127     -2.61252    2.00000
  128      2.02432    0.00000
  129      3.66243    0.00000
  130      3.96483    0.00000
  131      4.07969    0.00000
  132      4.21043    0.00000
  133      4.30019    0.00000
  134      4.46251    0.00000
  135      5.16552    0.00000
  136      5.36232    0.00000
  137      5.41628    0.00000
  138      5.47667    0.00000
  139      5.73224    0.00000
  140      5.81209    0.00000
  141      5.97855    0.00000
  142      6.05382    0.00000
  143      6.07603    0.00000
  144      6.27848    0.00000
  145      6.50932    0.00000
  146      6.55190    0.00000
  147      6.70146    0.00000
  148      6.97796    0.00000
  149      7.15433    0.00000
  150      7.32625    0.00000
  151      7.44613    0.00000
  152      7.65681    0.00000
  153      7.82275    0.00000
  154      7.93267    0.00000
  155      8.04871    0.00000
  156      8.33245    0.00000
  157      8.42046    0.00000
  158      8.46153    0.00000
  159      8.52030    0.00000
  160      8.60484    0.00000
  161      8.81251    0.00000
  162      8.87984    0.00000
  163      8.98970    0.00000
  164      9.04118    0.00000
  165      9.14711    0.00000
  166      9.22844    0.00000
  167      9.33341    0.00000
  168      9.47894    0.00000
  169      9.49557    0.00000
  170      9.59959    0.00000
  171      9.71683    0.00000
  172      9.73820    0.00000
  173      9.82691    0.00000
  174      9.93466    0.00000
  175     10.02215    0.00000
  176     10.11985    0.00000
  177     10.15594    0.00000
  178     10.23623    0.00000
  179     10.27984    0.00000
  180     10.47092    0.00000
  181     10.50604    0.00000
  182     10.54887    0.00000
  183     10.63274    0.00000
  184     10.68848    0.00000
  185     10.79246    0.00000
  186     10.84388    0.00000
  187     10.94650    0.00000
  188     11.04077    0.00000
  189     11.18299    0.00000
  190     11.20069    0.00000
  191     11.29221    0.00000
  192     11.38957    0.00000
  193     11.46439    0.00000
  194     11.54972    0.00000
  195     11.66280    0.00000
  196     11.68251    0.00000
  197     11.88460    0.00000
  198     12.05295    0.00000
  199     12.17550    0.00000
  200     12.28020    0.00000
  201     12.29641    0.00000
  202     12.43682    0.00000
  203     12.45514    0.00000
  204     12.57668    0.00000
  205     12.65395    0.00000
  206     12.84254    0.00000
  207     12.93467    0.00000
  208     13.07550    0.00000
  209     13.31685    0.00000
  210     13.34290    0.00000
  211     13.43148    0.00000
  212     13.63301    0.00000
  213     13.84364    0.00000
  214     13.91185    0.00000
  215     14.04159    0.00000
  216     14.12047    0.00000
  217     14.24374    0.00000
  218     14.32667    0.00000
  219     14.70344    0.00000
  220     14.73817    0.00000
  221     14.87721    0.00000
  222     14.91033    0.00000
  223     15.19274    0.00000
  224     15.32106    0.00000
  225     15.42645    0.00000
  226     15.51649    0.00000
  227     15.53968    0.00000
  228     15.80009    0.00000
  229     15.80348    0.00000
  230     15.86291    0.00000
  231     15.98085    0.00000
  232     16.20275    0.00000
  233     16.35674    0.00000
  234     16.50642    0.00000
  235     16.62865    0.00000
  236     16.68140    0.00000
  237     16.77401    0.00000
  238     16.92583    0.00000
  239     17.10573    0.00000
  240     17.15612    0.00000
  241     17.29346    0.00000
  242     17.52679    0.00000
  243     17.58749    0.00000
  244     17.61651    0.00000
  245     17.84844    0.00000
  246     18.11108    0.00000
  247     18.24004    0.00000
  248     18.31133    0.00000
  249     18.48846    0.00000
  250     18.59284    0.00000
  251     18.71819    0.00000
  252     18.79217    0.00000
  253     18.94775    0.00000
  254     19.08865    0.00000
  255     19.28725    0.00000
  256     19.31976    0.00000
  257     19.65256    0.00000
  258     19.70342    0.00000
  259     19.78848    0.00000
  260     19.92588    0.00000
  261     20.12118    0.00000
  262     20.15792    0.00000
  263     20.27086    0.00000
  264     20.33574    0.00000
  265     20.48333    0.00000
  266     20.60800    0.00000
  267     20.70402    0.00000
  268     20.83821    0.00000
  269     20.87674    0.00000
  270     21.03697    0.00000
  271     21.11509    0.00000
  272     21.17972    0.00000
  273     21.27340    0.00000
  274     21.35697    0.00000
  275     21.52848    0.00000
  276     21.63452    0.00000
  277     21.70220    0.00000
  278     21.75353    0.00000
  279     21.86488    0.00000
  280     21.96855    0.00000
  281     22.06286    0.00000
  282     22.10838    0.00000
  283     22.23242    0.00000
  284     22.28951    0.00000
  285     22.39350    0.00000
  286     22.44767    0.00000
  287     22.57433    0.00000
  288     22.67832    0.00000
  289     22.79523    0.00000
  290     22.87366    0.00000
  291     22.89967    0.00000
  292     22.99483    0.00000
  293     23.03088    0.00000
  294     23.19323    0.00000
  295     23.27814    0.00000
  296     23.30836    0.00000
  297     23.42555    0.00000
  298     23.52133    0.00000
  299     23.52863    0.00000
  300     23.64113    0.00000
  301     23.73310    0.00000
  302     23.78644    0.00000
  303     23.93448    0.00000
  304     23.99653    0.00000
  305     24.07609    0.00000
  306     24.14032    0.00000
  307     24.23142    0.00000
  308     24.37636    0.00000
  309     24.52258    0.00000
  310     24.57011    0.00000
  311     24.72369    0.00000
  312     24.78833    0.00000
  313     24.85990    0.00000
  314     24.95002    0.00000
  315     24.99245    0.00000
  316     25.10825    0.00000
  317     25.12023    0.00000
  318     25.23244    0.00000
  319     25.34598    0.00000
  320     25.46583    0.00000
  321     25.58012    0.00000
  322     25.72225    0.00000
  323     25.81684    0.00000
  324     25.88484    0.00000
  325     25.97389    0.00000
  326     26.03875    0.00000
  327     26.08180    0.00000
  328     26.18952    0.00000
  329     26.25948    0.00000
  330     26.29618    0.00000
  331     26.42939    0.00000
  332     26.51172    0.00000
  333     26.63870    0.00000
  334     26.71746    0.00000
  335     26.79917    0.00000
  336     27.00234    0.00000
  337     27.09619    0.00000
  338     27.14898    0.00000
  339     27.22475    0.00000
  340     27.26546    0.00000
  341     27.46757    0.00000
  342     27.51325    0.00000
  343     27.64827    0.00000
  344     27.82730    0.00000
  345     27.90654    0.00000
  346     27.95459    0.00000
  347     28.03443    0.00000
  348     28.15836    0.00000
  349     28.23061    0.00000
  350     28.41447    0.00000
  351     28.48281    0.00000
  352     28.65489    0.00000
  353     28.86690    0.00000
  354     28.92298    0.00000
  355     29.03652    0.00000
  356     29.14271    0.00000
  357     29.21027    0.00000
  358     29.27200    0.00000
  359     29.29846    0.00000
  360     29.40850    0.00000
  361     29.54869    0.00000
  362     29.64226    0.00000
  363     29.69941    0.00000
  364     29.85331    0.00000
  365     29.87642    0.00000
  366     30.00878    0.00000
  367     30.08543    0.00000
  368     30.22262    0.00000
  369     30.35786    0.00000
  370     30.38736    0.00000
  371     30.52198    0.00000
  372     30.67770    0.00000
  373     30.75151    0.00000
  374     30.85742    0.00000
  375     30.96605    0.00000
  376     31.20422    0.00000
  377     31.28627    0.00000
  378     31.46046    0.00000
  379     31.46319    0.00000
  380     31.54697    0.00000
  381     31.72047    0.00000
  382     31.78369    0.00000
  383     31.99001    0.00000
  384     32.06937    0.00000
  385     32.14530    0.00000
  386     32.23220    0.00000
  387     32.28604    0.00000
  388     32.36616    0.00000
  389     32.48672    0.00000
  390     32.60843    0.00000
  391     32.67742    0.00000
  392     32.74692    0.00000
  393     32.86004    0.00000
  394     32.89181    0.00000
  395     33.25366    0.00000
  396     33.30324    0.00000
  397     33.36846    0.00000
  398     33.60304    0.00000
  399     33.69886    0.00000
  400     33.77267    0.00000
  401     33.80912    0.00000
  402     33.89392    0.00000
  403     34.02539    0.00000
  404     34.17467    0.00000
  405     34.26328    0.00000
  406     34.37737    0.00000
  407     34.42914    0.00000
  408     34.44097    0.00000
  409     34.57297    0.00000
  410     34.72551    0.00000
  411     34.85068    0.00000
  412     34.93078    0.00000
  413     35.04932    0.00000
  414     35.16835    0.00000
  415     35.28194    0.00000
  416     35.31306    0.00000
  417     35.44997    0.00000
  418     35.55224    0.00000
  419     35.66126    0.00000
  420     35.76480    0.00000
  421     35.90499    0.00000
  422     36.04933    0.00000
  423     36.10297    0.00000
  424     36.20381    0.00000
  425     36.38229    0.00000
  426     36.44652    0.00000
  427     36.54623    0.00000
  428     36.58813    0.00000
  429     36.76667    0.00000
  430     36.82688    0.00000
  431     36.84164    0.00000
  432     37.04722    0.00000
  433     37.10176    0.00000
  434     37.24035    0.00000
  435     37.35147    0.00000
  436     37.57679    0.00000
  437     37.61487    0.00000
  438     37.75254    0.00000
  439     37.88451    0.00000
  440     37.94761    0.00000
  441     38.07657    0.00000
  442     38.11806    0.00000
  443     38.22099    0.00000
  444     38.29363    0.00000
  445     38.55086    0.00000
  446     38.70622    0.00000
  447     38.79728    0.00000
  448     38.80814    0.00000
  449     38.90255    0.00000
  450     39.14817    0.00000
  451     39.19895    0.00000
  452     39.38374    0.00000
  453     39.53578    0.00000
  454     39.62656    0.00000
  455     39.68133    0.00000
  456     39.74566    0.00000
  457     39.90278    0.00000
  458     40.00361    0.00000
  459     40.10982    0.00000
  460     40.20952    0.00000
  461     40.29339    0.00000
  462     40.36181    0.00000
  463     40.57360    0.00000
  464     40.67395    0.00000
  465     40.72577    0.00000
  466     40.78748    0.00000
  467     40.87985    0.00000
  468     41.19474    0.00000
  469     41.27834    0.00000
  470     41.35015    0.00000
  471     41.44373    0.00000
  472     41.52121    0.00000
  473     41.64504    0.00000
  474     41.73552    0.00000
  475     41.90957    0.00000
  476     42.02935    0.00000
  477     42.08155    0.00000
  478     42.24989    0.00000
  479     42.38088    0.00000
  480     42.41882    0.00000
  481     42.47372    0.00000
  482     42.66324    0.00000
  483     42.85880    0.00000
  484     42.89422    0.00000
  485     43.04301    0.00000
  486     43.16709    0.00000
  487     43.30052    0.00000
  488     43.30686    0.00000
  489     43.50031    0.00000
  490     43.65843    0.00000
  491     43.99629    0.00000
  492     44.26161    0.00000
  493     44.34230    0.00000
  494     44.51713    0.00000
  495     44.55907    0.00000
  496     44.75945    0.00000
  497     44.99267    0.00000
  498     45.02796    0.00000
  499     45.16326    0.00000
  500     45.26132    0.00000
  501     45.52992    0.00000
  502     45.58047    0.00000
  503     45.69464    0.00000
  504     45.78616    0.00000
  505     46.23484    0.00000
  506     46.35966    0.00000
  507     46.64668    0.00000
  508     46.72449    0.00000
  509     46.91328    0.00000
  510     47.58543    0.00000
  511     47.84170    0.00000
  512     48.17538    0.00000
  513     48.47587    0.00000
  514     48.64607    0.00000
  515     48.74850    0.00000
  516     49.05787    0.00000
  517     49.30663    0.00000
  518     49.48226    0.00000
  519     49.63144    0.00000
  520     49.69682    0.00000
  521     49.86294    0.00000
  522     49.92040    0.00000
  523     50.21273    0.00000
  524     50.49071    0.00000
  525     50.59095    0.00000
  526     50.66723    0.00000
  527     50.75764    0.00000
  528     51.16295    0.00000
  529     51.41536    0.00000
  530     51.60838    0.00000
  531     51.73119    0.00000
  532     51.96733    0.00000
  533     51.98943    0.00000
  534     52.16058    0.00000
  535     52.30389    0.00000
  536     52.41458    0.00000
  537     52.53568    0.00000
  538     52.64987    0.00000
  539     52.73766    0.00000
  540     52.92505    0.00000
  541     53.11143    0.00000
  542     53.29090    0.00000
  543     53.36105    0.00000
  544     53.79578    0.00000
  545     53.82634    0.00000
  546     53.97922    0.00000
  547     54.09180    0.00000
  548     54.39728    0.00000
  549     54.49620    0.00000
  550     54.70668    0.00000
  551     54.92218    0.00000
  552     54.99784    0.00000
  553     55.21408    0.00000
  554     55.30761    0.00000
  555     55.46957    0.00000
  556     55.70295    0.00000
  557     55.94037    0.00000
  558     56.12211    0.00000
  559     56.29526    0.00000
  560     56.36071    0.00000
  561     56.66323    0.00000
  562     56.90445    0.00000
  563     57.17889    0.00000
  564     57.23962    0.00000
  565     57.28413    0.00000
  566     57.43518    0.00000
  567     57.76138    0.00000
  568     58.00781    0.00000
  569     58.20331    0.00000
  570     58.27950    0.00000
  571     58.42027    0.00000
  572     58.59768    0.00000
  573     58.79083    0.00000
  574     58.97444    0.00000
  575     59.08725    0.00000
  576     59.10895    0.00000
  577     59.25338    0.00000
  578     59.43503    0.00000
  579     59.46402    0.00000
  580     59.51497    0.00000
  581     59.82467    0.00000
  582     59.94922    0.00000
  583     59.98575    0.00000
  584     60.19707    0.00000
  585     60.26634    0.00000
  586     60.34086    0.00000
  587     60.43714    0.00000
  588     60.61319    0.00000
  589     60.78012    0.00000
  590     60.80969    0.00000
  591     60.90425    0.00000
  592     60.93085    0.00000
  593     61.07665    0.00000
  594     61.20402    0.00000
  595     61.28830    0.00000
  596     61.46507    0.00000
  597     61.53950    0.00000
  598     61.61679    0.00000
  599     61.73001    0.00000
  600     61.88174    0.00000
  601     61.90452    0.00000
  602     62.09536    0.00000
  603     62.13371    0.00000
  604     62.29521    0.00000
  605     62.38920    0.00000
  606     62.49412    0.00000
  607     62.54423    0.00000
  608     62.64205    0.00000
  609     62.76873    0.00000
  610     63.07865    0.00000
  611     63.14539    0.00000
  612     63.28046    0.00000
  613     63.37809    0.00000
  614     63.47660    0.00000
  615     63.59793    0.00000
  616     63.78329    0.00000
  617     63.84221    0.00000
  618     63.89904    0.00000
  619     64.06714    0.00000
  620     64.23421    0.00000
  621     64.32916    0.00000
  622     64.42211    0.00000
  623     64.59324    0.00000
  624     64.66150    0.00000
  625     64.82871    0.00000
  626     64.96479    0.00000
  627     65.00399    0.00000
  628     65.16450    0.00000
  629     65.31949    0.00000
  630     65.43733    0.00000
  631     65.45632    0.00000
  632     65.61197    0.00000
  633     65.66306    0.00000
  634     65.69610    0.00000
  635     65.77481    0.00000
  636     65.98542    0.00000
  637     66.07628    0.00000
  638     66.09183    0.00000
  639     66.25674    0.00000
  640     66.42215    0.00000
  641     66.51907    0.00000
  642     66.64540    0.00000
  643     66.71256    0.00000
  644     66.90063    0.00000
  645     67.00337    0.00000
  646     67.15592    0.00000
  647     67.40417    0.00000
  648     67.46139    0.00000
  649     67.60590    0.00000
  650     67.80547    0.00000
  651     67.88401    0.00000
  652     68.01706    0.00000
  653     68.09929    0.00000
  654     68.26240    0.00000
  655     68.39782    0.00000
  656     68.50519    0.00000
  657     68.69015    0.00000
  658     68.86498    0.00000
  659     69.01761    0.00000
  660     69.20220    0.00000
  661     69.65747    0.00000
  662     69.76052    0.00000
  663     70.00962    0.00000
  664     70.10248    0.00000
  665     70.17547    0.00000
  666     70.28692    0.00000
  667     70.61782    0.00000
  668     70.92419    0.00000
  669     71.16905    0.00000
  670     71.58606    0.00000
  671     72.47926    0.00000
  672     72.64736    0.00000
  673     72.72443    0.00000
  674     73.07650    0.00000
  675     73.17198    0.00000
  676     73.43257    0.00000
  677     73.47074    0.00000
  678     73.60578    0.00000
  679     74.23082    0.00000
  680     74.23925    0.00000
  681     74.45136    0.00000
  682     74.78005    0.00000
  683     74.83349    0.00000
  684     75.04857    0.00000
  685     75.19374    0.00000
  686     75.24423    0.00000
  687     75.46782    0.00000
  688     75.47342    0.00000
  689     75.77343    0.00000
  690     75.95613    0.00000
  691     76.49474    0.00000
  692     76.57037    0.00000
  693     76.72024    0.00000
  694     76.79483    0.00000
  695     77.02506    0.00000
  696     77.16030    0.00000
  697     77.29727    0.00000
  698     77.36482    0.00000
  699     77.44776    0.00000
  700     77.63890    0.00000
  701     77.68982    0.00000
  702     77.79797    0.00000
  703     77.91091    0.00000
  704     78.12702    0.00000
  705     78.16100    0.00000
  706     78.39174    0.00000
  707     78.45660    0.00000
  708     78.57794    0.00000
  709     78.64376    0.00000
  710     78.87802    0.00000
  711     79.02631    0.00000
  712     79.16364    0.00000
  713     79.24055    0.00000
  714     79.40174    0.00000
  715     79.53327    0.00000
  716     79.66015    0.00000
  717     79.97676    0.00000
  718     79.99440    0.00000
  719     80.16974    0.00000
  720     80.32369    0.00000
  721     80.56278    0.00000
  722     80.60904    0.00000
  723     80.99758    0.00000
  724     81.07965    0.00000
  725     81.35426    0.00000
  726     81.53909    0.00000
  727     81.62853    0.00000
  728     82.04686    0.00000
  729     82.25188    0.00000
  730     82.70250    0.00000
  731     82.90307    0.00000
  732     83.06852    0.00000
  733     83.25011    0.00000
  734     84.54111    0.00000
  735     85.31002    0.00000

Gap: 4.637 eV
Transition (v -> c):
  (s=0, k=0, n=127, [0.00, 0.00, 0.00]) -> (s=0, k=0, n=128, [0.00, 0.00, 0.00])
Timing:                                incl.     excl.
-------------------------------------------------------------
Basic WFS set positions:               0.004     0.004   0.0% |
Basis functions set positions:         0.083     0.083   0.4% |
LCAO WFS Initialize:                   0.559     0.016   0.1% |
 Hamiltonian:                          0.543     0.000   0.0% |
  Atomic:                              0.407     0.006   0.0% |
   XC Correction:                      0.401     0.401   1.8% ||
  Calculate atomic Hamiltonians:       0.003     0.003   0.0% |
  Communicate:                         0.000     0.000   0.0% |
  Hartree integrate/restrict:          0.002     0.002   0.0% |
  Initialize Hamiltonian:              0.000     0.000   0.0% |
  Poisson:                             0.040     0.001   0.0% |
   Communicate bwd 0:                  0.008     0.008   0.0% |
   Communicate bwd 1:                  0.009     0.009   0.0% |
   Communicate fwd 0:                  0.008     0.008   0.0% |
   Communicate fwd 1:                  0.009     0.009   0.0% |
   fft:                                0.001     0.001   0.0% |
   fft2:                               0.005     0.005   0.0% |
  XC 3D grid:                          0.090     0.090   0.4% |
  vbar:                                0.001     0.001   0.0% |
P tci:                                 0.123     0.123   0.5% |
SCF-cycle:                            19.589     0.006   0.0% |
 Direct Minimisation step:            19.264     0.027   0.1% |
  Broadcast gradients:                 0.002     0.002   0.0% |
  Calculate gradients:                 4.021     0.061   0.3% |
   Construct Gradient Matrix:          0.765     0.765   3.4% ||
   DenseAtomicCorrection:              0.100     0.100   0.4% |
   Distribute overlap matrix:          0.591     0.591   2.6% ||
   Potential matrix:                   2.404     2.404  10.6% |---|
   Residual:                           0.099     0.099   0.4% |
  Get Search Direction:                0.049     0.049   0.2% |
  LCAO eigensolver:                    0.428     0.001   0.0% |
   Calculate projections:              0.007     0.007   0.0% |
   DenseAtomicCorrection:              0.006     0.006   0.0% |
   Distribute overlap matrix:          0.032     0.032   0.1% |
   Orbital Layouts:                    0.240     0.240   1.1% |
   Potential matrix:                   0.142     0.142   0.6% |
  Preconditioning::                    0.124     0.124   0.5% |
  Unitary rotation:                    2.569     0.574   2.5% ||
   Broadcast coefficients:             0.014     0.014   0.1% |
   Pade Approximants:                  1.981     1.981   8.7% |--|
  Update Kohn-Sham energy:            12.044     0.000   0.0% |
   Density:                            2.692     0.000   0.0% |
    Atomic density matrices:           0.601     0.601   2.6% ||
    Mix:                               0.076     0.076   0.3% |
    Multipole moments:                 0.009     0.009   0.0% |
    Normalize:                         0.001     0.001   0.0% |
    Pseudo density:                    2.004     0.002   0.0% |
     Calculate density matrix:         0.075     0.075   0.3% |
     Construct density:                1.926     1.926   8.5% |--|
     Symmetrize density:               0.000     0.000   0.0% |
   Hamiltonian:                        9.352     0.002   0.0% |
    Atomic:                            6.976     0.127   0.6% |
     XC Correction:                    6.849     6.849  30.2% |-----------|
    Calculate atomic Hamiltonians:     0.048     0.048   0.2% |
    Communicate:                       0.001     0.001   0.0% |
    Hartree integrate/restrict:        0.035     0.035   0.2% |
    New Kinetic Energy:                0.091     0.006   0.0% |
     Pseudo part:                      0.085     0.085   0.4% |
    Poisson:                           0.689     0.017   0.1% |
     Communicate bwd 0:                0.146     0.146   0.6% |
     Communicate bwd 1:                0.147     0.147   0.6% |
     Communicate fwd 0:                0.135     0.135   0.6% |
     Communicate fwd 1:                0.152     0.152   0.7% |
     fft:                              0.017     0.017   0.1% |
     fft2:                             0.074     0.074   0.3% |
    XC 3D grid:                        1.503     1.503   6.6% |--|
    vbar:                              0.006     0.006   0.0% |
 Get canonical representation:         0.318     0.137   0.6% |
  DenseAtomicCorrection:               0.006     0.006   0.0% |
  Distribute overlap matrix:           0.034     0.034   0.2% |
  Potential matrix:                    0.141     0.141   0.6% |
ST tci:                                0.132     0.132   0.6% |
Set symmetry:                          0.001     0.001   0.0% |
TCI: Evaluate splines:                 0.270     0.270   1.2% |
mktci:                                 0.173     0.173   0.8% |
Other:                                 1.759     1.759   7.8% |--|
-------------------------------------------------------------
Total:                                          22.692 100.0%

Memory usage: 207.26 MiB
Date: Wed Feb 20 06:30:09 2019
