NaCl	10	-26.30311243351069	10	43.60142111778259	162.926
NaF	15	-32.889325786967554	15	130.0622136592865	196.480
LiCl	9	-28.320941096237306	9	9.055898427963257	196.480
LiF	10	-36.78686477761637	10	14.796472311019897	196.480
MgO	12	-45.20939670876698	12	38.109514236450195	198.543
