
  ___ ___ ___ _ _ _  
 |   |   |_  | | | | 
 | | | | | . | | | | 
 |__ |  _|___|_____|  21.6.1b1
 |___|_|             

User:   ali5@compute-15
Date:   Fri Aug  6 11:12:19 2021
Arch:   x86_64
Pid:    1432539
Python: 3.8.9
gpaw:   /users/home/aleksei/gpawproject/gpaw/gpaw (5e46c27e61)
_gpaw:  /users/home/aleksei/gpawproject/gpaw/build/lib.linux-x86_64-3.8/
        _gpaw.cpython-38-x86_64-linux-gnu.so (5e46c27e61)
ase:    /users/home/aleksei/gpawproject/ase/ase (version 3.22.0b1-5c4361a7fd)
numpy:  /users/home/eojons/spack/opt/spack/linux-centos8-cascadelake/gcc-9.3.0/py-numpy-1.20.2-dgf27bhjua75jm66wbtas3vnjet4dzqg/lib/python3.8/site-packages/numpy (version 1.20.2)
scipy:  /users/home/eojons/spack/opt/spack/linux-centos8-cascadelake/gcc-9.3.0/py-scipy-1.6.2-5mj6sw3rf63wmprfl3ofjpi64tayycfh/lib/python3.8/site-packages/scipy (version 1.6.2)
libxc:  5.1.3
units:  Angstrom and eV
cores: 8
OpenMP: False
OMP_NUM_THREADS: 1

Input parameters:
  basis: tzdp
  convergence: {density: 1e-06,
                eigenstates: 10000000000.0}
  eigensolver: {functional: {'name': 'ks'},
                linesearch_algo: {'name': 'SwcAwc', 'method': 'LBFGS_P'},
                localizationtype: None,
                matrix_exp: pade_approx,
                name: direct-min-lcao,
                orthonormalization: {'name': 'gramschmidt'},
                representation: {'name': 'sparse'},
                searchdir_algo: {'name': 'LBFGS_P'},
                update_precond_counter: 1000,
                update_ref_orbs_counter: 20,
                use_prec: True}
  h: 0.2
  mixer: {backend: no-mixing}
  mode: {interpolation: 3,
         name: lcao}
  nbands: nao
  occupations: {name: fixed-uniform}
  symmetry: off
  xc: PBE

System changes: positions, numbers, cell, pbc, initial_charges, initial_magmoms 

Initialize ...

O-setup:
  name: Oxygen
  id: 32ecd46bf208036f09c70b0ec9a88b78
  Z: 8.0
  valence: 6
  core: 2
  charge: 0.0
  file: /users/home/eojons/gpaw-setups-0.9.20000/O.PBE.gz
  compensation charges: gauss, rc=0.21, lmax=2
  cutoffs: 1.17(filt), 0.83(core),
  valence states:
                energy  radius
    2s(2.00)   -23.961   0.688
    2p(4.00)    -9.029   0.598
    *s           3.251   0.688
    *p          18.182   0.598
    *d           0.000   0.619

  LCAO basis set for O:
    Name: tzdp
    File: ./O.tzdp.basis
    Number of radial functions: 8
    Number of spherical harmonics: 22
      l=0, rc=4.3438 Bohr: 2s-sz confined orbital
      l=1, rc=5.3906 Bohr: 2p-sz confined orbital
      l=0, rc=2.2969 Bohr: 2s-dz split-valence wave
      l=1, rc=2.8906 Bohr: 2p-dz split-valence wave
      l=0, rc=1.8125 Bohr: 2s-tz split-valence wave
      l=1, rc=2.2656 Bohr: 2p-tz split-valence wave
      l=2, rc=5.3906 Bohr: d-type Gaussian polarization
      l=2, rc=1.8281 Bohr: d-type split-valence polarization 2

H-setup:
  name: Hydrogen
  id: d65de229564ff8ea4db303e23b6d1ecf
  Z: 1.0
  valence: 1
  core: 0
  charge: 0.0
  file: /users/home/eojons/gpaw-setups-0.9.20000/H.PBE.gz
  compensation charges: gauss, rc=0.15, lmax=2
  cutoffs: 0.85(filt), 0.53(core),
  valence states:
                energy  radius
    1s(1.00)    -6.494   0.476
    *s          20.717   0.476
    *p           0.000   0.476

  LCAO basis set for H:
    Name: tzdp
    File: ./H.tzdp.basis
    Number of radial functions: 5
    Number of spherical harmonics: 9
      l=0, rc=6.6406 Bohr: 1s-sz confined orbital
      l=0, rc=3.6094 Bohr: 1s-dz split-valence wave
      l=0, rc=2.8438 Bohr: 1s-tz split-valence wave
      l=1, rc=6.6406 Bohr: p-type Gaussian polarization
      l=1, rc=1.9375 Bohr: p-type split-valence polarization 2

Reference energy: -66106.644020

Spin-paired calculation

Convergence criteria:
  Maximum total energy change: 0.0005 eV / electron
  Maximum integral of absolute density change: 1e-06 electrons
  Maximum integral of absolute eigenstate change: 1e+10 eV^2
  Maximum number of iterations: 333

Symmetries present (total): 1

  ( 1  0  0)
  ( 0  1  0)
  ( 0  0  1)

1 k-point (Gamma)
1 k-point in the irreducible part of the Brillouin zone
       k-points in crystal coordinates                weights
   0:     0.00000000    0.00000000    0.00000000          1/1

Wave functions: LCAO
  Diagonalizer: Serial LAPACK
  Atomic Correction: dense with blas
  Datatype: float
 

Occupation numbers: Uniform distribution of occupation numbers 

Eigensolver
   Direct minimisation using exponential transformation.
       Search direction: LBFGS algorithm with preconditioning
       Line search: Inexact line search based on cubic interpolation,
                    strong and approximate Wolfe conditions
       Preconditioning: True
       WARNING: do not use it for metals as occupation numbers are
                not found variationally
 

Densities:
  Coarse grid: 48*48*48 grid
  Fine grid: 96*96*96 grid
  Total Charge: 0.000000 

Density mixing:
  Method: separate
  Backend: no-mixing
  Linear mixing parameter: 0
  Mixing with 0 old densities
  Damping of long wave oscillations: 0 

Hamiltonian:
  XC and Coulomb potentials evaluated on a 96*96*96 grid
  Using the PBE Exchange-Correlation functional
  Interpolation: tri-quintic (5. degree polynomial)
  Poisson solver: FastPoissonSolver using
    Stencil: 6*3+1=19 point O(h^6) finite-difference Laplacian
    FFT axes: [0, 1, 2]
    FST axes: []
 

XC parameters: PBE with 2 nearest neighbor stencil

Memory estimate:
  Process memory now: 186.53 MiB
  Calculator: 55.89 MiB
    Density: 7.36 MiB
      Arrays: 2.74 MiB
      Localized functions: 4.62 MiB
      Mixer: 0.00 MiB
    Hamiltonian: 2.13 MiB
      Arrays: 1.79 MiB
      XC: 0.00 MiB
      Poisson: 0.00 MiB
      vbar: 0.33 MiB
    Wavefunctions: 46.40 MiB
      C [qnM]: 12.50 MiB
      S, T [2 x qmm]: 25.00 MiB
      P [aqMi]: 0.11 MiB
      BasisFunctions: 8.79 MiB
      Eigensolver: 0.00 MiB

Total number of cores used: 8
Domain decomposition: 2 x 2 x 2

Number of atoms: 96
Number of atomic orbitals: 1280
Number of bands in calculation: 1280
Number of valence electrons: 256
Bands to converge: occupied

... initialized

Initializing position-dependent things.

Density initialized from atomic densities
       .-----------------------.  
      /|            H O H     H|  
     / |H     H                |  
    /O |    H        H      H  |  
   /   |   H      H O     H    H  
  /    |H  H O H    HH    H   O|  
 * H   HH        HOH O      O  |  
 |     |  HH      O  O   O     |  
 |     H O O   H   HH     H H  |  
 |     |HH    HH H OH   HH OOH |  
 |     |       O     O H       |  
 |  H  |  H       H        H   |  
 |H  O H--O--H---OH--H-----O---.  
 |O H /         H OH O      H /   
 | H /   H             H     /    
 |  /   O                 O /     
 | /   H                   /      
 |/    O                  /       
 *-----------------------*        

Positions:
   0 O     -0.069000    0.824000   -1.295000    ( 0.0000,  0.0000,  0.0000)
   1 H      0.786000    0.943000   -0.752000    ( 0.0000,  0.0000,  0.0000)
   2 H     -0.414000   -0.001000   -0.865000    ( 0.0000,  0.0000,  0.0000)
   3 O     -0.282000   -0.674000   -3.822000    ( 0.0000,  0.0000,  0.0000)
   4 H      0.018000   -0.147000   -4.624000    ( 0.0000,  0.0000,  0.0000)
   5 H     -0.113000   -0.080000   -3.034000    ( 0.0000,  0.0000,  0.0000)
   6 O      2.253000    1.261000    0.151000    ( 0.0000,  0.0000,  0.0000)
   7 H      2.606000    0.638000   -0.539000    ( 0.0000,  0.0000,  0.0000)
   8 H      2.455000    0.790000    1.019000    ( 0.0000,  0.0000,  0.0000)
   9 O      3.106000   -0.276000   -1.795000    ( 0.0000,  0.0000,  0.0000)
  10 H      2.914000    0.459000   -2.386000    ( 0.0000,  0.0000,  0.0000)
  11 H      2.447000   -1.053000   -1.919000    ( 0.0000,  0.0000,  0.0000)
  12 O      6.257000   -0.625000   -0.626000    ( 0.0000,  0.0000,  0.0000)
  13 H      7.107000   -1.002000   -0.317000    ( 0.0000,  0.0000,  0.0000)
  14 H      5.526000   -1.129000   -0.131000    ( 0.0000,  0.0000,  0.0000)
  15 O      5.451000   -1.261000   -2.937000    ( 0.0000,  0.0000,  0.0000)
  16 H      4.585000   -0.957000   -2.503000    ( 0.0000,  0.0000,  0.0000)
  17 H      6.079000   -0.919000   -2.200000    ( 0.0000,  0.0000,  0.0000)
  18 O     -0.515000    3.689000    0.482000    ( 0.0000,  0.0000,  0.0000)
  19 H     -0.218000    3.020000   -0.189000    ( 0.0000,  0.0000,  0.0000)
  20 H      0.046000    3.568000    1.382000    ( 0.0000,  0.0000,  0.0000)
  21 O     -0.205000    2.640000   -3.337000    ( 0.0000,  0.0000,  0.0000)
  22 H     -1.083000    2.576000   -3.771000    ( 0.0000,  0.0000,  0.0000)
  23 H     -0.213000    1.885000   -2.680000    ( 0.0000,  0.0000,  0.0000)
  24 O      0.132000    6.301000   -0.278000    ( 0.0000,  0.0000,  0.0000)
  25 H      1.104000    6.366000   -0.068000    ( 0.0000,  0.0000,  0.0000)
  26 H     -0.148000    5.363000   -0.112000    ( 0.0000,  0.0000,  0.0000)
  27 O     -0.505000    6.680000   -3.285000    ( 0.0000,  0.0000,  0.0000)
  28 H     -0.674000    7.677000   -3.447000    ( 0.0000,  0.0000,  0.0000)
  29 H     -0.965000    6.278000   -2.517000    ( 0.0000,  0.0000,  0.0000)
  30 O      4.063000    3.342000   -0.474000    ( 0.0000,  0.0000,  0.0000)
  31 H      4.950000    2.912000   -0.663000    ( 0.0000,  0.0000,  0.0000)
  32 H      3.484000    2.619000   -0.125000    ( 0.0000,  0.0000,  0.0000)
  33 O      2.575000    2.404000   -3.170000    ( 0.0000,  0.0000,  0.0000)
  34 H      1.694000    2.841000   -3.296000    ( 0.0000,  0.0000,  0.0000)
  35 H      3.049000    2.956000   -2.503000    ( 0.0000,  0.0000,  0.0000)
  36 O      6.666000    2.030000   -0.815000    ( 0.0000,  0.0000,  0.0000)
  37 H      7.476000    2.277000   -0.316000    ( 0.0000,  0.0000,  0.0000)
  38 H      6.473000    1.064000   -0.651000    ( 0.0000,  0.0000,  0.0000)
  39 O      6.860000    2.591000   -3.584000    ( 0.0000,  0.0000,  0.0000)
  40 H      6.928000    3.530000   -3.176000    ( 0.0000,  0.0000,  0.0000)
  41 H      6.978000    2.097000   -2.754000    ( 0.0000,  0.0000,  0.0000)
  42 O      2.931000    6.022000   -0.243000    ( 0.0000,  0.0000,  0.0000)
  43 H      3.732000    6.562000   -0.004000    ( 0.0000,  0.0000,  0.0000)
  44 H      3.226000    5.115000   -0.404000    ( 0.0000,  0.0000,  0.0000)
  45 O      2.291000    7.140000   -2.455000    ( 0.0000,  0.0000,  0.0000)
  46 H      1.317000    6.937000   -2.532000    ( 0.0000,  0.0000,  0.0000)
  47 H      2.586000    6.574000   -1.669000    ( 0.0000,  0.0000,  0.0000)
  48 O      6.843000    5.460000    1.065000    ( 0.0000,  0.0000,  0.0000)
  49 H      7.803000    5.290000    0.852000    ( 0.0000,  0.0000,  0.0000)
  50 H      6.727000    5.424000    2.062000    ( 0.0000,  0.0000,  0.0000)
  51 O      6.896000    4.784000   -2.130000    ( 0.0000,  0.0000,  0.0000)
  52 H      6.191000    5.238000   -2.702000    ( 0.0000,  0.0000,  0.0000)
  53 H      6.463000    4.665000   -1.259000    ( 0.0000,  0.0000,  0.0000)
  54 O      0.398000    0.691000    4.098000    ( 0.0000,  0.0000,  0.0000)
  55 H      0.047000    1.567000    3.807000    ( 0.0000,  0.0000,  0.0000)
  56 H      1.268000    0.490000    3.632000    ( 0.0000,  0.0000,  0.0000)
  57 O      2.687000    0.272000    2.641000    ( 0.0000,  0.0000,  0.0000)
  58 H      3.078000    1.126000    3.027000    ( 0.0000,  0.0000,  0.0000)
  59 H      3.376000   -0.501000    2.793000    ( 0.0000,  0.0000,  0.0000)
  60 O      6.002000   -0.525000    4.002000    ( 0.0000,  0.0000,  0.0000)
  61 H      6.152000    0.405000    3.660000    ( 0.0000,  0.0000,  0.0000)
  62 H      5.987000   -0.447000    4.980000    ( 0.0000,  0.0000,  0.0000)
  63 O      0.649000    3.541000    2.897000    ( 0.0000,  0.0000,  0.0000)
  64 H      0.245000    4.301000    3.459000    ( 0.0000,  0.0000,  0.0000)
  65 H      1.638000    3.457000    3.084000    ( 0.0000,  0.0000,  0.0000)
  66 O     -0.075000    5.662000    4.233000    ( 0.0000,  0.0000,  0.0000)
  67 H     -0.182000    6.512000    3.776000    ( 0.0000,  0.0000,  0.0000)
  68 H     -0.241000    5.961000    5.212000    ( 0.0000,  0.0000,  0.0000)
  69 O      3.243000    2.585000    3.878000    ( 0.0000,  0.0000,  0.0000)
  70 H      3.110000    2.343000    4.817000    ( 0.0000,  0.0000,  0.0000)
  71 H      4.262000    2.718000    3.780000    ( 0.0000,  0.0000,  0.0000)
  72 O      5.942000    2.582000    3.712000    ( 0.0000,  0.0000,  0.0000)
  73 H      6.250000    3.500000    3.566000    ( 0.0000,  0.0000,  0.0000)
  74 H      6.379000    2.564000    4.636000    ( 0.0000,  0.0000,  0.0000)
  75 O      2.686000    5.638000    5.164000    ( 0.0000,  0.0000,  0.0000)
  76 H      1.781000    5.472000    4.698000    ( 0.0000,  0.0000,  0.0000)
  77 H      2.454000    6.286000    5.887000    ( 0.0000,  0.0000,  0.0000)
  78 O      6.744000    5.276000    3.826000    ( 0.0000,  0.0000,  0.0000)
  79 H      6.238000    5.608000    4.632000    ( 0.0000,  0.0000,  0.0000)
  80 H      7.707000    5.258000    4.110000    ( 0.0000,  0.0000,  0.0000)
  81 O      8.573000    8.472000    0.407000    ( 0.0000,  0.0000,  0.0000)
  82 H      9.069000    7.656000    0.067000    ( 0.0000,  0.0000,  0.0000)
  83 H      8.472000    8.425000    1.397000    ( 0.0000,  0.0000,  0.0000)
  84 O      8.758000    8.245000    2.989000    ( 0.0000,  0.0000,  0.0000)
  85 H      9.294000    9.091000    3.172000    ( 0.0000,  0.0000,  0.0000)
  86 H      7.906000    8.527000    3.373000    ( 0.0000,  0.0000,  0.0000)
  87 O      4.006000    7.734000    3.021000    ( 0.0000,  0.0000,  0.0000)
  88 H      4.685000    8.238000    3.547000    ( 0.0000,  0.0000,  0.0000)
  89 H      3.468000    7.158000    3.624000    ( 0.0000,  0.0000,  0.0000)
  90 O      5.281000    6.089000    6.035000    ( 0.0000,  0.0000,  0.0000)
  91 H      5.131000    7.033000    6.378000    ( 0.0000,  0.0000,  0.0000)
  92 H      4.428000    5.704000    5.720000    ( 0.0000,  0.0000,  0.0000)
  93 O      5.067000    7.323000    0.662000    ( 0.0000,  0.0000,  0.0000)
  94 H      5.785000    6.667000    0.703000    ( 0.0000,  0.0000,  0.0000)
  95 H      4.718000    7.252000    1.585000    ( 0.0000,  0.0000,  0.0000)

Unit cell:
           periodic     x           y           z      points  spacing
  1. axis:    yes    9.855373    0.000000    0.000000    48     0.2053
  2. axis:    yes    0.000000    9.855373    0.000000    48     0.2053
  3. axis:    yes    0.000000    0.000000    9.855373    48     0.2053

  Lengths:   9.855373   9.855373   9.855373
  Angles:   90.000000  90.000000  90.000000

Effective grid spacing dv^(1/3) = 0.2053

                     log10-error:    total        iterations:
           time      wfs    density  energy       poisson
iter:   1  11:12:25         -0.86  -449.018302    1      
iter:   2  11:12:26         -2.13  -449.213997    1      
iter:   3  11:12:27         -2.55  -449.285222    1      
iter:   4  11:12:28         -2.96  -449.292395    1      
iter:   5  11:12:29         -3.43  -449.294050    1      
iter:   6  11:12:30         -4.12  -449.294230    1      
iter:   7  11:12:31         -4.24  -449.294322    1      
iter:   8  11:12:33         -4.40  -449.294330    1      
iter:   9  11:12:34         -4.68  -449.294337    1      
iter:  10  11:12:35         -5.21  -449.294339    1      
iter:  11  11:12:36         -5.59  -449.294339    1      
iter:  12  11:12:37         -5.94  -449.294339    1      
iter:  13  11:12:38         -6.02  -449.294339    1      

Occupied states converged after 15 e/g evaluations

Converged after 13 iterations.

Dipole moment: (31.797843, 13.655766, 29.904966) |e|*Ang

Energy contributions relative to reference atoms: (reference = -66106.644020)

Kinetic:       +386.851996
Potential:     -433.050222
External:        +0.000000
XC:            -415.952281
Entropy (-ST):   +0.000000
Local:          +12.856167
--------------------------
Free energy:   -449.294339
Extrapolated:  -449.294339

 Band  Eigenvalues  Occupancy
    0    -22.32137    2.00000
    1    -22.22382    2.00000
    2    -22.11871    2.00000
    3    -22.07014    2.00000
    4    -21.98573    2.00000
    5    -21.92483    2.00000
    6    -21.85441    2.00000
    7    -21.83351    2.00000
    8    -21.68884    2.00000
    9    -21.59535    2.00000
   10    -21.57941    2.00000
   11    -21.50146    2.00000
   12    -21.39590    2.00000
   13    -21.37621    2.00000
   14    -21.32586    2.00000
   15    -21.27160    2.00000
   16    -21.24659    2.00000
   17    -21.22161    2.00000
   18    -21.16865    2.00000
   19    -21.02938    2.00000
   20    -21.01704    2.00000
   21    -20.94875    2.00000
   22    -20.91002    2.00000
   23    -20.86257    2.00000
   24    -20.74876    2.00000
   25    -20.69533    2.00000
   26    -20.61711    2.00000
   27    -20.60190    2.00000
   28    -20.51560    2.00000
   29    -20.48799    2.00000
   30    -20.44938    2.00000
   31    -20.35387    2.00000
   32    -10.26635    2.00000
   33    -10.05436    2.00000
   34    -10.00720    2.00000
   35     -9.91717    2.00000
   36     -9.86741    2.00000
   37     -9.78739    2.00000
   38     -9.76958    2.00000
   39     -9.66553    2.00000
   40     -9.57400    2.00000
   41     -9.56053    2.00000
   42     -9.53293    2.00000
   43     -9.49955    2.00000
   44     -9.44955    2.00000
   45     -9.39584    2.00000
   46     -9.32513    2.00000
   47     -9.30292    2.00000
   48     -9.29001    2.00000
   49     -9.26281    2.00000
   50     -9.24291    2.00000
   51     -9.17705    2.00000
   52     -9.10268    2.00000
   53     -9.08010    2.00000
   54     -9.02441    2.00000
   55     -8.99064    2.00000
   56     -8.95763    2.00000
   57     -8.76375    2.00000
   58     -8.73424    2.00000
   59     -8.71063    2.00000
   60     -8.59232    2.00000
   61     -8.43087    2.00000
   62     -8.35081    2.00000
   63     -8.27753    2.00000
   64     -7.32349    2.00000
   65     -7.19916    2.00000
   66     -7.09616    2.00000
   67     -6.90880    2.00000
   68     -6.79175    2.00000
   69     -6.75796    2.00000
   70     -6.70112    2.00000
   71     -6.56854    2.00000
   72     -6.52369    2.00000
   73     -6.49763    2.00000
   74     -6.28913    2.00000
   75     -6.24503    2.00000
   76     -6.17980    2.00000
   77     -6.07870    2.00000
   78     -5.89654    2.00000
   79     -5.85421    2.00000
   80     -5.80111    2.00000
   81     -5.73452    2.00000
   82     -5.66011    2.00000
   83     -5.59343    2.00000
   84     -5.55552    2.00000
   85     -5.45688    2.00000
   86     -5.27864    2.00000
   87     -5.24481    2.00000
   88     -5.17019    2.00000
   89     -5.12400    2.00000
   90     -5.01091    2.00000
   91     -4.88242    2.00000
   92     -4.85666    2.00000
   93     -4.79780    2.00000
   94     -4.57140    2.00000
   95     -4.39156    2.00000
   96     -4.30334    2.00000
   97     -4.28982    2.00000
   98     -4.17970    2.00000
   99     -4.02018    2.00000
  100     -3.98765    2.00000
  101     -3.92180    2.00000
  102     -3.91216    2.00000
  103     -3.85290    2.00000
  104     -3.84119    2.00000
  105     -3.80689    2.00000
  106     -3.76669    2.00000
  107     -3.73290    2.00000
  108     -3.70404    2.00000
  109     -3.62812    2.00000
  110     -3.57271    2.00000
  111     -3.52795    2.00000
  112     -3.51230    2.00000
  113     -3.50123    2.00000
  114     -3.46057    2.00000
  115     -3.39084    2.00000
  116     -3.35863    2.00000
  117     -3.32225    2.00000
  118     -3.29029    2.00000
  119     -3.26081    2.00000
  120     -3.25896    2.00000
  121     -3.20756    2.00000
  122     -3.13561    2.00000
  123     -3.06958    2.00000
  124     -3.01635    2.00000
  125     -2.98620    2.00000
  126     -2.91161    2.00000
  127     -2.63207    2.00000
  128      1.94491    0.00000
  129      3.59917    0.00000
  130      3.89594    0.00000
  131      4.00122    0.00000
  132      4.13344    0.00000
  133      4.20049    0.00000
  134      4.37597    0.00000
  135      5.08765    0.00000
  136      5.27226    0.00000
  137      5.35292    0.00000
  138      5.39400    0.00000
  139      5.65089    0.00000
  140      5.71570    0.00000
  141      5.84163    0.00000
  142      5.95165    0.00000
  143      5.97829    0.00000
  144      6.15806    0.00000
  145      6.34224    0.00000
  146      6.42342    0.00000
  147      6.56377    0.00000
  148      6.85102    0.00000
  149      7.02950    0.00000
  150      7.19486    0.00000
  151      7.28885    0.00000
  152      7.49687    0.00000
  153      7.56512    0.00000
  154      7.74748    0.00000
  155      7.84972    0.00000
  156      8.12149    0.00000
  157      8.19426    0.00000
  158      8.24465    0.00000
  159      8.29521    0.00000
  160      8.40608    0.00000
  161      8.51988    0.00000
  162      8.63726    0.00000
  163      8.73074    0.00000
  164      8.74975    0.00000
  165      8.86976    0.00000
  166      8.95351    0.00000
  167      9.06892    0.00000
  168      9.20400    0.00000
  169      9.23746    0.00000
  170      9.31552    0.00000
  171      9.43398    0.00000
  172      9.47220    0.00000
  173      9.51643    0.00000
  174      9.65538    0.00000
  175      9.77486    0.00000
  176      9.83193    0.00000
  177      9.86891    0.00000
  178      9.87824    0.00000
  179      9.90915    0.00000
  180     10.11771    0.00000
  181     10.16782    0.00000
  182     10.21961    0.00000
  183     10.34020    0.00000
  184     10.34517    0.00000
  185     10.40689    0.00000
  186     10.42413    0.00000
  187     10.55884    0.00000
  188     10.71613    0.00000
  189     10.75069    0.00000
  190     10.84883    0.00000
  191     10.91149    0.00000
  192     11.01288    0.00000
  193     11.06627    0.00000
  194     11.13773    0.00000
  195     11.17513    0.00000
  196     11.28189    0.00000
  197     11.37769    0.00000
  198     11.55436    0.00000
  199     11.70377    0.00000
  200     11.78409    0.00000
  201     11.83719    0.00000
  202     11.89450    0.00000
  203     11.95122    0.00000
  204     12.07213    0.00000
  205     12.18217    0.00000
  206     12.36357    0.00000
  207     12.46175    0.00000
  208     12.55178    0.00000
  209     12.77313    0.00000
  210     12.80667    0.00000
  211     12.97681    0.00000
  212     13.04915    0.00000
  213     13.16594    0.00000
  214     13.27617    0.00000
  215     13.50184    0.00000
  216     13.57924    0.00000
  217     13.64229    0.00000
  218     13.76572    0.00000
  219     14.06056    0.00000
  220     14.10309    0.00000
  221     14.24015    0.00000
  222     14.36636    0.00000
  223     14.55728    0.00000
  224     14.59328    0.00000
  225     14.68328    0.00000
  226     14.81315    0.00000
  227     14.97713    0.00000
  228     15.25834    0.00000
  229     15.30130    0.00000
  230     15.35915    0.00000
  231     15.46581    0.00000
  232     15.64284    0.00000
  233     15.77425    0.00000
  234     15.85582    0.00000
  235     15.90599    0.00000
  236     16.05977    0.00000
  237     16.14340    0.00000
  238     16.33411    0.00000
  239     16.34839    0.00000
  240     16.47709    0.00000
  241     16.67087    0.00000
  242     16.87879    0.00000
  243     16.98263    0.00000
  244     17.08536    0.00000
  245     17.24890    0.00000
  246     17.46551    0.00000
  247     17.62648    0.00000
  248     17.75717    0.00000
  249     17.87479    0.00000
  250     17.97918    0.00000
  251     18.05089    0.00000
  252     18.13906    0.00000
  253     18.31283    0.00000
  254     18.47274    0.00000
  255     18.59771    0.00000
  256     18.69147    0.00000
  257     18.91417    0.00000
  258     19.03244    0.00000
  259     19.09815    0.00000
  260     19.18857    0.00000
  261     19.30139    0.00000
  262     19.47226    0.00000
  263     19.51026    0.00000
  264     19.66684    0.00000
  265     19.79096    0.00000
  266     19.93739    0.00000
  267     19.99164    0.00000
  268     20.05990    0.00000
  269     20.15506    0.00000
  270     20.31487    0.00000
  271     20.36315    0.00000
  272     20.43763    0.00000
  273     20.66887    0.00000
  274     20.75160    0.00000
  275     20.76874    0.00000
  276     20.91977    0.00000
  277     21.00939    0.00000
  278     21.08077    0.00000
  279     21.21304    0.00000
  280     21.27557    0.00000
  281     21.29310    0.00000
  282     21.41692    0.00000
  283     21.44536    0.00000
  284     21.58912    0.00000
  285     21.70349    0.00000
  286     21.75831    0.00000
  287     21.86036    0.00000
  288     21.93638    0.00000
  289     22.06784    0.00000
  290     22.13105    0.00000
  291     22.14613    0.00000
  292     22.30405    0.00000
  293     22.32161    0.00000
  294     22.43555    0.00000
  295     22.45722    0.00000
  296     22.61406    0.00000
  297     22.75933    0.00000
  298     22.77620    0.00000
  299     22.82341    0.00000
  300     22.84527    0.00000
  301     22.92617    0.00000
  302     23.08246    0.00000
  303     23.18849    0.00000
  304     23.28234    0.00000
  305     23.29175    0.00000
  306     23.44885    0.00000
  307     23.50837    0.00000
  308     23.54631    0.00000
  309     23.76212    0.00000
  310     23.79039    0.00000
  311     23.86378    0.00000
  312     23.95885    0.00000
  313     24.04930    0.00000
  314     24.08681    0.00000
  315     24.21747    0.00000
  316     24.34237    0.00000
  317     24.38846    0.00000
  318     24.47198    0.00000
  319     24.57713    0.00000
  320     24.64184    0.00000
  321     24.83990    0.00000
  322     24.93689    0.00000
  323     24.94257    0.00000
  324     25.06649    0.00000
  325     25.14246    0.00000
  326     25.22214    0.00000
  327     25.24828    0.00000
  328     25.37307    0.00000
  329     25.45180    0.00000
  330     25.50324    0.00000
  331     25.60956    0.00000
  332     25.73629    0.00000
  333     25.80269    0.00000
  334     25.91837    0.00000
  335     25.94170    0.00000
  336     26.13780    0.00000
  337     26.15755    0.00000
  338     26.27218    0.00000
  339     26.32769    0.00000
  340     26.39792    0.00000
  341     26.59865    0.00000
  342     26.60153    0.00000
  343     26.79795    0.00000
  344     26.83853    0.00000
  345     26.99680    0.00000
  346     27.06961    0.00000
  347     27.14503    0.00000
  348     27.22182    0.00000
  349     27.29626    0.00000
  350     27.37131    0.00000
  351     27.48287    0.00000
  352     27.62870    0.00000
  353     27.74530    0.00000
  354     27.98395    0.00000
  355     28.04566    0.00000
  356     28.13955    0.00000
  357     28.18625    0.00000
  358     28.29849    0.00000
  359     28.42962    0.00000
  360     28.52973    0.00000
  361     28.54708    0.00000
  362     28.63616    0.00000
  363     28.69392    0.00000
  364     28.79283    0.00000
  365     28.82726    0.00000
  366     28.93391    0.00000
  367     29.00378    0.00000
  368     29.16561    0.00000
  369     29.29359    0.00000
  370     29.32939    0.00000
  371     29.45073    0.00000
  372     29.67820    0.00000
  373     29.75612    0.00000
  374     29.82734    0.00000
  375     29.88777    0.00000
  376     30.00498    0.00000
  377     30.08897    0.00000
  378     30.21876    0.00000
  379     30.24298    0.00000
  380     30.34768    0.00000
  381     30.58754    0.00000
  382     30.65752    0.00000
  383     30.70782    0.00000
  384     30.75805    0.00000
  385     30.94792    0.00000
  386     31.01445    0.00000
  387     31.02743    0.00000
  388     31.18330    0.00000
  389     31.20418    0.00000
  390     31.34677    0.00000
  391     31.39099    0.00000
  392     31.49892    0.00000
  393     31.59275    0.00000
  394     31.82459    0.00000
  395     31.87207    0.00000
  396     32.00888    0.00000
  397     32.08412    0.00000
  398     32.09605    0.00000
  399     32.24008    0.00000
  400     32.32730    0.00000
  401     32.48760    0.00000
  402     32.49259    0.00000
  403     32.57723    0.00000
  404     32.79926    0.00000
  405     32.83411    0.00000
  406     32.94104    0.00000
  407     33.03140    0.00000
  408     33.07821    0.00000
  409     33.15222    0.00000
  410     33.33134    0.00000
  411     33.43281    0.00000
  412     33.53180    0.00000
  413     33.56243    0.00000
  414     33.62286    0.00000
  415     33.78202    0.00000
  416     33.87287    0.00000
  417     33.91025    0.00000
  418     34.03579    0.00000
  419     34.21139    0.00000
  420     34.24854    0.00000
  421     34.35170    0.00000
  422     34.41605    0.00000
  423     34.57006    0.00000
  424     34.76424    0.00000
  425     34.79926    0.00000
  426     34.89909    0.00000
  427     34.96444    0.00000
  428     35.01403    0.00000
  429     35.13605    0.00000
  430     35.18272    0.00000
  431     35.33883    0.00000
  432     35.40189    0.00000
  433     35.51244    0.00000
  434     35.63986    0.00000
  435     35.69785    0.00000
  436     35.93460    0.00000
  437     35.99162    0.00000
  438     36.06931    0.00000
  439     36.17611    0.00000
  440     36.25115    0.00000
  441     36.41910    0.00000
  442     36.47822    0.00000
  443     36.60220    0.00000
  444     36.67688    0.00000
  445     36.73819    0.00000
  446     36.79527    0.00000
  447     36.90560    0.00000
  448     36.99442    0.00000
  449     37.11728    0.00000
  450     37.27443    0.00000
  451     37.42918    0.00000
  452     37.58066    0.00000
  453     37.60301    0.00000
  454     37.72043    0.00000
  455     37.77513    0.00000
  456     37.84203    0.00000
  457     37.96282    0.00000
  458     38.08865    0.00000
  459     38.18719    0.00000
  460     38.22895    0.00000
  461     38.30853    0.00000
  462     38.35934    0.00000
  463     38.50476    0.00000
  464     38.65059    0.00000
  465     38.72909    0.00000
  466     38.83780    0.00000
  467     38.92194    0.00000
  468     39.02962    0.00000
  469     39.06804    0.00000
  470     39.12195    0.00000
  471     39.24575    0.00000
  472     39.33463    0.00000
  473     39.62021    0.00000
  474     39.65998    0.00000
  475     39.77899    0.00000
  476     39.95394    0.00000
  477     39.99370    0.00000
  478     40.06865    0.00000
  479     40.14462    0.00000
  480     40.18862    0.00000
  481     40.30546    0.00000
  482     40.48436    0.00000
  483     40.62624    0.00000
  484     40.72851    0.00000
  485     40.74951    0.00000
  486     40.88647    0.00000
  487     41.00031    0.00000
  488     41.05953    0.00000
  489     41.18431    0.00000
  490     41.31924    0.00000
  491     41.39793    0.00000
  492     41.53859    0.00000
  493     41.75012    0.00000
  494     41.89233    0.00000
  495     41.99496    0.00000
  496     42.15648    0.00000
  497     42.33445    0.00000
  498     42.39455    0.00000
  499     42.52935    0.00000
  500     42.57217    0.00000
  501     42.68059    0.00000
  502     42.82129    0.00000
  503     42.98154    0.00000
  504     43.10955    0.00000
  505     43.13206    0.00000
  506     43.39267    0.00000
  507     43.50176    0.00000
  508     43.68279    0.00000
  509     43.96322    0.00000
  510     44.06611    0.00000
  511     44.32160    0.00000
  512     44.57104    0.00000
  513     44.64459    0.00000
  514     44.89408    0.00000
  515     45.01272    0.00000
  516     45.09133    0.00000
  517     45.11692    0.00000
  518     45.33781    0.00000
  519     45.38716    0.00000
  520     45.50531    0.00000
  521     45.83328    0.00000
  522     45.94759    0.00000
  523     46.00278    0.00000
  524     46.27328    0.00000
  525     46.29790    0.00000
  526     46.47654    0.00000
  527     46.69583    0.00000
  528     46.85965    0.00000
  529     46.92401    0.00000
  530     47.05323    0.00000
  531     47.08975    0.00000
  532     47.23291    0.00000
  533     47.41772    0.00000
  534     47.46444    0.00000
  535     47.67256    0.00000
  536     47.77309    0.00000
  537     47.88515    0.00000
  538     47.98740    0.00000
  539     48.02303    0.00000
  540     48.13729    0.00000
  541     48.19729    0.00000
  542     48.41748    0.00000
  543     48.53380    0.00000
  544     48.53757    0.00000
  545     48.84079    0.00000
  546     48.94975    0.00000
  547     49.02560    0.00000
  548     49.10978    0.00000
  549     49.24571    0.00000
  550     49.31018    0.00000
  551     49.35326    0.00000
  552     49.37324    0.00000
  553     49.48587    0.00000
  554     49.64268    0.00000
  555     49.76608    0.00000
  556     49.84228    0.00000
  557     50.00623    0.00000
  558     50.04929    0.00000
  559     50.25043    0.00000
  560     50.34091    0.00000
  561     50.46262    0.00000
  562     50.62573    0.00000
  563     50.65418    0.00000
  564     50.75992    0.00000
  565     50.98861    0.00000
  566     51.07605    0.00000
  567     51.14243    0.00000
  568     51.21918    0.00000
  569     51.41071    0.00000
  570     51.48109    0.00000
  571     51.53308    0.00000
  572     51.75366    0.00000
  573     51.81889    0.00000
  574     52.04268    0.00000
  575     52.07635    0.00000
  576     52.19518    0.00000
  577     52.32756    0.00000
  578     52.40148    0.00000
  579     52.46342    0.00000
  580     52.60044    0.00000
  581     52.64809    0.00000
  582     52.87176    0.00000
  583     52.94483    0.00000
  584     53.01309    0.00000
  585     53.16092    0.00000
  586     53.25944    0.00000
  587     53.39278    0.00000
  588     53.50852    0.00000
  589     53.70747    0.00000
  590     53.84370    0.00000
  591     53.94822    0.00000
  592     54.01870    0.00000
  593     54.06267    0.00000
  594     54.12503    0.00000
  595     54.18744    0.00000
  596     54.23544    0.00000
  597     54.40839    0.00000
  598     54.53919    0.00000
  599     54.63548    0.00000
  600     54.76401    0.00000
  601     54.81445    0.00000
  602     54.93014    0.00000
  603     54.95648    0.00000
  604     55.15285    0.00000
  605     55.26589    0.00000
  606     55.38673    0.00000
  607     55.50043    0.00000
  608     55.59291    0.00000
  609     55.72608    0.00000
  610     55.79590    0.00000
  611     55.83412    0.00000
  612     55.91977    0.00000
  613     56.03538    0.00000
  614     56.10965    0.00000
  615     56.25491    0.00000
  616     56.36144    0.00000
  617     56.38911    0.00000
  618     56.56972    0.00000
  619     56.59646    0.00000
  620     56.79714    0.00000
  621     56.87114    0.00000
  622     57.04040    0.00000
  623     57.06979    0.00000
  624     57.18625    0.00000
  625     57.37008    0.00000
  626     57.52685    0.00000
  627     57.66908    0.00000
  628     57.72308    0.00000
  629     57.77527    0.00000
  630     57.94111    0.00000
  631     58.07628    0.00000
  632     58.15634    0.00000
  633     58.27787    0.00000
  634     58.34047    0.00000
  635     58.38789    0.00000
  636     58.46982    0.00000
  637     58.61274    0.00000
  638     58.76019    0.00000
  639     58.78344    0.00000
  640     58.89240    0.00000
  641     58.96709    0.00000
  642     59.01826    0.00000
  643     59.12359    0.00000
  644     59.23658    0.00000
  645     59.28640    0.00000
  646     59.45527    0.00000
  647     59.59593    0.00000
  648     59.67126    0.00000
  649     59.70923    0.00000
  650     59.89031    0.00000
  651     59.93568    0.00000
  652     60.05358    0.00000
  653     60.15046    0.00000
  654     60.31256    0.00000
  655     60.44596    0.00000
  656     60.70272    0.00000
  657     60.73547    0.00000
  658     61.01325    0.00000
  659     61.07987    0.00000
  660     61.15718    0.00000
  661     61.23887    0.00000
  662     61.28237    0.00000
  663     61.38853    0.00000
  664     61.44609    0.00000
  665     61.62262    0.00000
  666     61.78858    0.00000
  667     61.85800    0.00000
  668     61.94914    0.00000
  669     62.13426    0.00000
  670     62.19951    0.00000
  671     62.30202    0.00000
  672     62.34918    0.00000
  673     62.48111    0.00000
  674     62.57017    0.00000
  675     62.64297    0.00000
  676     62.89614    0.00000
  677     62.95723    0.00000
  678     63.01252    0.00000
  679     63.07102    0.00000
  680     63.15928    0.00000
  681     63.22402    0.00000
  682     63.37681    0.00000
  683     63.60381    0.00000
  684     63.73017    0.00000
  685     63.89721    0.00000
  686     63.99426    0.00000
  687     64.07653    0.00000
  688     64.21813    0.00000
  689     64.29533    0.00000
  690     64.42041    0.00000
  691     64.47756    0.00000
  692     64.73138    0.00000
  693     64.88753    0.00000
  694     65.05838    0.00000
  695     65.17800    0.00000
  696     65.22916    0.00000
  697     65.31947    0.00000
  698     65.41114    0.00000
  699     65.64950    0.00000
  700     65.83882    0.00000
  701     66.03224    0.00000
  702     66.12796    0.00000
  703     66.23750    0.00000
  704     66.32135    0.00000
  705     66.37320    0.00000
  706     66.41319    0.00000
  707     66.65296    0.00000
  708     66.69478    0.00000
  709     66.83742    0.00000
  710     67.16179    0.00000
  711     67.22069    0.00000
  712     67.29539    0.00000
  713     67.51223    0.00000
  714     67.70800    0.00000
  715     67.92581    0.00000
  716     68.02352    0.00000
  717     68.24358    0.00000
  718     68.35974    0.00000
  719     68.44997    0.00000
  720     68.48907    0.00000
  721     68.66586    0.00000
  722     68.76652    0.00000
  723     68.97101    0.00000
  724     69.22105    0.00000
  725     69.23950    0.00000
  726     69.28681    0.00000
  727     69.49969    0.00000
  728     69.66621    0.00000
  729     69.83498    0.00000
  730     70.09667    0.00000
  731     70.10726    0.00000
  732     70.28197    0.00000
  733     70.55725    0.00000
  734     70.61999    0.00000
  735     70.67723    0.00000
  736     70.93761    0.00000
  737     71.09558    0.00000
  738     71.13696    0.00000
  739     71.24847    0.00000
  740     71.48851    0.00000
  741     71.64876    0.00000
  742     71.82977    0.00000
  743     71.99381    0.00000
  744     72.11561    0.00000
  745     72.16435    0.00000
  746     72.25129    0.00000
  747     72.32725    0.00000
  748     72.52395    0.00000
  749     72.67289    0.00000
  750     72.77951    0.00000
  751     72.80059    0.00000
  752     73.12340    0.00000
  753     73.19586    0.00000
  754     73.39047    0.00000
  755     73.51371    0.00000
  756     73.56471    0.00000
  757     73.74438    0.00000
  758     73.92588    0.00000
  759     74.18114    0.00000
  760     74.25152    0.00000
  761     74.40760    0.00000
  762     74.56640    0.00000
  763     74.67754    0.00000
  764     74.88033    0.00000
  765     74.98013    0.00000
  766     75.06817    0.00000
  767     75.27369    0.00000
  768     75.42493    0.00000
  769     75.73384    0.00000
  770     75.82300    0.00000
  771     75.82746    0.00000
  772     75.91768    0.00000
  773     75.98842    0.00000
  774     76.14560    0.00000
  775     76.36468    0.00000
  776     76.60121    0.00000
  777     76.93159    0.00000
  778     77.03905    0.00000
  779     77.27151    0.00000
  780     77.37079    0.00000
  781     77.50504    0.00000
  782     77.79531    0.00000
  783     78.27742    0.00000
  784     78.43065    0.00000
  785     78.52007    0.00000
  786     78.81784    0.00000
  787     79.06255    0.00000
  788     79.09831    0.00000
  789     79.30684    0.00000
  790     79.35841    0.00000
  791     79.82275    0.00000
  792     79.97405    0.00000
  793     80.03530    0.00000
  794     80.28222    0.00000
  795     80.52209    0.00000
  796     80.63718    0.00000
  797     80.90597    0.00000
  798     80.98487    0.00000
  799     81.34874    0.00000
  800     81.43262    0.00000
  801     81.59142    0.00000
  802     81.98690    0.00000
  803     82.18720    0.00000
  804     82.32823    0.00000
  805     82.55867    0.00000
  806     82.69467    0.00000
  807     82.91963    0.00000
  808     83.12649    0.00000
  809     83.26572    0.00000
  810     83.51704    0.00000
  811     83.63214    0.00000
  812     84.01777    0.00000
  813     84.18752    0.00000
  814     84.30828    0.00000
  815     84.35218    0.00000
  816     84.81077    0.00000
  817     85.10628    0.00000
  818     85.22998    0.00000
  819     85.73352    0.00000
  820     85.94354    0.00000
  821     86.04722    0.00000
  822     86.37365    0.00000
  823     86.61515    0.00000
  824     86.66404    0.00000
  825     86.92001    0.00000
  826     87.18874    0.00000
  827     87.35611    0.00000
  828     87.49097    0.00000
  829     87.87444    0.00000
  830     88.48444    0.00000
  831     89.12271    0.00000
  832     94.23206    0.00000
  833     95.10718    0.00000
  834     95.48418    0.00000
  835     95.97998    0.00000
  836     96.17710    0.00000
  837     96.36655    0.00000
  838     96.75835    0.00000
  839     96.86890    0.00000
  840     96.91217    0.00000
  841     97.21086    0.00000
  842     97.34121    0.00000
  843     97.60699    0.00000
  844     97.75177    0.00000
  845     97.96425    0.00000
  846     98.10629    0.00000
  847     98.17711    0.00000
  848     98.30035    0.00000
  849     98.51549    0.00000
  850     98.80785    0.00000
  851     98.94433    0.00000
  852     99.05212    0.00000
  853     99.17120    0.00000
  854     99.26378    0.00000
  855     99.37246    0.00000
  856     99.66798    0.00000
  857     99.70616    0.00000
  858     99.78959    0.00000
  859     99.89962    0.00000
  860    100.01998    0.00000
  861    100.09258    0.00000
  862    100.31870    0.00000
  863    100.67923    0.00000
  864    100.75589    0.00000
  865    100.92769    0.00000
  866    101.01866    0.00000
  867    101.15763    0.00000
  868    101.17280    0.00000
  869    101.32460    0.00000
  870    101.38805    0.00000
  871    101.62663    0.00000
  872    101.76718    0.00000
  873    101.85491    0.00000
  874    102.09735    0.00000
  875    102.19074    0.00000
  876    102.27868    0.00000
  877    102.31566    0.00000
  878    102.44542    0.00000
  879    102.58759    0.00000
  880    102.63501    0.00000
  881    102.78240    0.00000
  882    102.89490    0.00000
  883    103.00719    0.00000
  884    103.18924    0.00000
  885    103.33133    0.00000
  886    103.40817    0.00000
  887    103.48926    0.00000
  888    103.62766    0.00000
  889    103.79635    0.00000
  890    103.94970    0.00000
  891    104.03272    0.00000
  892    104.09306    0.00000
  893    104.28631    0.00000
  894    104.38543    0.00000
  895    104.44941    0.00000
  896    104.60889    0.00000
  897    104.71279    0.00000
  898    104.76129    0.00000
  899    104.92287    0.00000
  900    105.01295    0.00000
  901    105.12903    0.00000
  902    105.14321    0.00000
  903    105.21967    0.00000
  904    105.27345    0.00000
  905    105.51704    0.00000
  906    105.53930    0.00000
  907    105.71786    0.00000
  908    105.78124    0.00000
  909    105.86857    0.00000
  910    105.97359    0.00000
  911    106.13922    0.00000
  912    106.21372    0.00000
  913    106.31816    0.00000
  914    106.39475    0.00000
  915    106.58950    0.00000
  916    106.66383    0.00000
  917    106.74126    0.00000
  918    106.92048    0.00000
  919    106.96879    0.00000
  920    107.13804    0.00000
  921    107.22868    0.00000
  922    107.34589    0.00000
  923    107.42318    0.00000
  924    107.49633    0.00000
  925    107.67003    0.00000
  926    107.83797    0.00000
  927    108.03257    0.00000
  928    108.08003    0.00000
  929    108.13607    0.00000
  930    108.22244    0.00000
  931    108.34936    0.00000
  932    108.45696    0.00000
  933    108.68802    0.00000
  934    108.72047    0.00000
  935    108.78350    0.00000
  936    108.99159    0.00000
  937    109.16829    0.00000
  938    109.29650    0.00000
  939    109.41970    0.00000
  940    109.48045    0.00000
  941    109.53576    0.00000
  942    109.63720    0.00000
  943    109.68770    0.00000
  944    109.96889    0.00000
  945    110.00993    0.00000
  946    110.15399    0.00000
  947    110.27887    0.00000
  948    110.29789    0.00000
  949    110.43939    0.00000
  950    110.51243    0.00000
  951    110.56223    0.00000
  952    110.71624    0.00000
  953    110.83660    0.00000
  954    110.92996    0.00000
  955    111.08235    0.00000
  956    111.27797    0.00000
  957    111.35297    0.00000
  958    111.50527    0.00000
  959    111.66623    0.00000
  960    111.78657    0.00000
  961    111.85962    0.00000
  962    112.08480    0.00000
  963    112.23346    0.00000
  964    112.25467    0.00000
  965    112.42266    0.00000
  966    112.57628    0.00000
  967    112.76194    0.00000
  968    112.82616    0.00000
  969    112.98582    0.00000
  970    113.18267    0.00000
  971    113.38587    0.00000
  972    113.48982    0.00000
  973    113.68539    0.00000
  974    113.75596    0.00000
  975    113.81626    0.00000
  976    113.83858    0.00000
  977    113.92565    0.00000
  978    114.05654    0.00000
  979    114.19799    0.00000
  980    114.31516    0.00000
  981    114.54965    0.00000
  982    114.63854    0.00000
  983    114.75855    0.00000
  984    114.96317    0.00000
  985    115.05905    0.00000
  986    115.15112    0.00000
  987    115.24713    0.00000
  988    115.37414    0.00000
  989    115.68144    0.00000
  990    115.82088    0.00000
  991    115.85466    0.00000
  992    116.15781    0.00000
  993    116.19554    0.00000
  994    116.38456    0.00000
  995    116.53322    0.00000
  996    116.68657    0.00000
  997    116.76095    0.00000
  998    116.99637    0.00000
  999    117.07075    0.00000
 1000    117.18117    0.00000
 1001    117.39109    0.00000
 1002    117.47475    0.00000
 1003    117.58056    0.00000
 1004    117.76744    0.00000
 1005    118.09751    0.00000
 1006    118.26898    0.00000
 1007    118.39845    0.00000
 1008    118.66717    0.00000
 1009    118.75156    0.00000
 1010    118.83188    0.00000
 1011    118.87630    0.00000
 1012    119.16499    0.00000
 1013    119.21754    0.00000
 1014    119.66534    0.00000
 1015    119.88948    0.00000
 1016    119.93521    0.00000
 1017    120.04350    0.00000
 1018    120.30467    0.00000
 1019    120.51673    0.00000
 1020    120.54052    0.00000
 1021    120.86724    0.00000
 1022    121.10110    0.00000
 1023    121.21204    0.00000
 1024    121.39954    0.00000
 1025    121.43384    0.00000
 1026    121.52711    0.00000
 1027    121.67436    0.00000
 1028    121.94146    0.00000
 1029    122.07539    0.00000
 1030    122.40633    0.00000
 1031    122.48058    0.00000
 1032    122.60076    0.00000
 1033    122.69597    0.00000
 1034    122.80885    0.00000
 1035    123.00411    0.00000
 1036    123.41338    0.00000
 1037    123.57103    0.00000
 1038    123.72333    0.00000
 1039    124.00843    0.00000
 1040    124.30340    0.00000
 1041    124.41399    0.00000
 1042    124.62226    0.00000
 1043    124.82769    0.00000
 1044    124.91240    0.00000
 1045    125.09868    0.00000
 1046    125.38593    0.00000
 1047    125.52317    0.00000
 1048    125.75618    0.00000
 1049    125.80814    0.00000
 1050    125.92613    0.00000
 1051    126.33938    0.00000
 1052    126.47877    0.00000
 1053    126.54861    0.00000
 1054    126.88362    0.00000
 1055    127.23890    0.00000
 1056    127.37838    0.00000
 1057    127.46809    0.00000
 1058    127.64788    0.00000
 1059    127.74428    0.00000
 1060    128.47222    0.00000
 1061    128.64456    0.00000
 1062    128.92343    0.00000
 1063    129.01513    0.00000
 1064    129.43019    0.00000
 1065    129.56852    0.00000
 1066    129.86973    0.00000
 1067    129.97265    0.00000
 1068    130.32143    0.00000
 1069    130.39913    0.00000
 1070    130.69582    0.00000
 1071    130.93567    0.00000
 1072    131.43278    0.00000
 1073    131.69284    0.00000
 1074    132.18605    0.00000
 1075    132.66100    0.00000
 1076    132.95364    0.00000
 1077    133.16951    0.00000
 1078    133.83225    0.00000
 1079    134.06799    0.00000
 1080    134.32662    0.00000
 1081    134.99063    0.00000
 1082    135.09438    0.00000
 1083    135.69101    0.00000
 1084    135.84021    0.00000
 1085    136.66684    0.00000
 1086    137.93831    0.00000
 1087    139.77539    0.00000
 1088    147.70020    0.00000
 1089    148.79801    0.00000
 1090    149.14617    0.00000
 1091    149.65043    0.00000
 1092    149.93544    0.00000
 1093    150.22763    0.00000
 1094    150.32829    0.00000
 1095    150.46364    0.00000
 1096    150.82314    0.00000
 1097    151.20377    0.00000
 1098    151.46530    0.00000
 1099    151.75591    0.00000
 1100    152.04555    0.00000
 1101    152.11438    0.00000
 1102    152.24311    0.00000
 1103    152.45509    0.00000
 1104    152.76217    0.00000
 1105    153.21601    0.00000
 1106    153.29374    0.00000
 1107    153.42404    0.00000
 1108    153.61469    0.00000
 1109    153.71769    0.00000
 1110    153.83113    0.00000
 1111    154.00935    0.00000
 1112    154.16176    0.00000
 1113    154.31036    0.00000
 1114    154.41959    0.00000
 1115    154.58209    0.00000
 1116    154.79605    0.00000
 1117    154.89830    0.00000
 1118    155.10573    0.00000
 1119    155.20990    0.00000
 1120    155.29557    0.00000
 1121    155.45724    0.00000
 1122    155.51339    0.00000
 1123    155.59913    0.00000
 1124    155.72134    0.00000
 1125    155.86697    0.00000
 1126    156.08815    0.00000
 1127    156.11143    0.00000
 1128    156.25690    0.00000
 1129    156.34531    0.00000
 1130    156.41034    0.00000
 1131    156.59090    0.00000
 1132    156.76097    0.00000
 1133    156.96489    0.00000
 1134    157.04788    0.00000
 1135    157.18361    0.00000
 1136    157.29221    0.00000
 1137    157.46941    0.00000
 1138    157.62756    0.00000
 1139    157.71360    0.00000
 1140    157.96783    0.00000
 1141    158.09253    0.00000
 1142    158.20779    0.00000
 1143    158.25017    0.00000
 1144    158.43746    0.00000
 1145    158.60630    0.00000
 1146    158.70135    0.00000
 1147    158.84967    0.00000
 1148    159.05070    0.00000
 1149    159.13269    0.00000
 1150    159.28801    0.00000
 1151    159.54460    0.00000
 1152    159.68653    0.00000
 1153    159.79446    0.00000
 1154    159.84648    0.00000
 1155    159.97761    0.00000
 1156    160.02541    0.00000
 1157    160.25983    0.00000
 1158    160.46310    0.00000
 1159    160.69392    0.00000
 1160    160.79827    0.00000
 1161    161.07472    0.00000
 1162    161.22037    0.00000
 1163    161.39175    0.00000
 1164    161.44195    0.00000
 1165    161.72570    0.00000
 1166    161.74482    0.00000
 1167    161.93399    0.00000
 1168    162.15549    0.00000
 1169    162.30063    0.00000
 1170    162.45495    0.00000
 1171    162.53926    0.00000
 1172    162.66957    0.00000
 1173    162.81309    0.00000
 1174    163.06238    0.00000
 1175    163.21203    0.00000
 1176    163.33372    0.00000
 1177    163.43777    0.00000
 1178    163.81735    0.00000
 1179    163.84611    0.00000
 1180    164.16249    0.00000
 1181    164.53338    0.00000
 1182    164.93647    0.00000
 1183    165.05297    0.00000
 1184    165.26208    0.00000
 1185    165.42806    0.00000
 1186    165.75998    0.00000
 1187    166.00704    0.00000
 1188    166.30634    0.00000
 1189    166.55835    0.00000
 1190    166.71041    0.00000
 1191    167.09371    0.00000
 1192    167.24173    0.00000
 1193    167.80453    0.00000
 1194    168.25200    0.00000
 1195    168.58570    0.00000
 1196    168.69946    0.00000
 1197    169.12039    0.00000
 1198    169.39689    0.00000
 1199    169.72103    0.00000
 1200    170.23185    0.00000
 1201    170.32944    0.00000
 1202    170.56404    0.00000
 1203    170.79101    0.00000
 1204    171.00110    0.00000
 1205    171.04376    0.00000
 1206    171.70610    0.00000
 1207    171.78149    0.00000
 1208    172.15050    0.00000
 1209    172.80497    0.00000
 1210    173.18160    0.00000
 1211    173.43398    0.00000
 1212    173.69656    0.00000
 1213    173.94649    0.00000
 1214    174.27764    0.00000
 1215    174.47910    0.00000
 1216    174.57485    0.00000
 1217    174.60856    0.00000
 1218    175.01610    0.00000
 1219    175.04731    0.00000
 1220    175.33934    0.00000
 1221    175.63724    0.00000
 1222    175.74691    0.00000
 1223    175.96184    0.00000
 1224    176.19637    0.00000
 1225    176.32479    0.00000
 1226    176.47498    0.00000
 1227    176.70502    0.00000
 1228    176.76073    0.00000
 1229    177.07180    0.00000
 1230    177.23084    0.00000
 1231    177.34486    0.00000
 1232    177.38812    0.00000
 1233    177.69265    0.00000
 1234    177.79510    0.00000
 1235    177.97543    0.00000
 1236    178.21666    0.00000
 1237    178.39367    0.00000
 1238    178.66794    0.00000
 1239    178.93185    0.00000
 1240    179.00232    0.00000
 1241    179.40158    0.00000
 1242    179.72302    0.00000
 1243    179.73371    0.00000
 1244    179.91994    0.00000
 1245    180.28100    0.00000
 1246    180.72308    0.00000
 1247    180.81816    0.00000
 1248    181.17294    0.00000
 1249    181.70489    0.00000
 1250    181.95190    0.00000
 1251    182.63530    0.00000
 1252    182.76461    0.00000
 1253    182.96452    0.00000
 1254    183.26045    0.00000
 1255    183.46615    0.00000
 1256    184.01762    0.00000
 1257    184.36361    0.00000
 1258    184.74766    0.00000
 1259    185.46534    0.00000
 1260    185.53830    0.00000
 1261    185.83866    0.00000
 1262    186.20174    0.00000
 1263    186.52545    0.00000
 1264    187.09475    0.00000
 1265    187.27816    0.00000
 1266    187.60800    0.00000
 1267    187.97016    0.00000
 1268    188.00256    0.00000
 1269    188.87821    0.00000
 1270    189.11357    0.00000
 1271    189.23522    0.00000
 1272    189.51971    0.00000
 1273    189.98070    0.00000
 1274    190.88205    0.00000
 1275    191.52624    0.00000
 1276    192.21157    0.00000
 1277    193.19481    0.00000
 1278    193.38401    0.00000
 1279    193.57543    0.00000

Fermi level: -0.34358

Gap: 4.577 eV
Transition (v -> c):
  (s=0, k=0, n=127, [0.00, 0.00, 0.00]) -> (s=0, k=0, n=128, [0.00, 0.00, 0.00])
Timing:                               incl.     excl.
------------------------------------------------------------
Basic WFS set positions:              0.002     0.002   0.0% |
Basis functions set positions:        0.046     0.046   0.2% |
LCAO WFS Initialize:                  0.235     0.018   0.1% |
 Hamiltonian:                         0.216     0.000   0.0% |
  Atomic:                             0.156     0.016   0.1% |
   XC Correction:                     0.141     0.141   0.7% |
  Calculate atomic Hamiltonians:      0.002     0.002   0.0% |
  Communicate:                        0.000     0.000   0.0% |
  Hartree integrate/restrict:         0.002     0.002   0.0% |
  Initialize Hamiltonian:             0.000     0.000   0.0% |
  Poisson:                            0.034     0.001   0.0% |
   Communicate from 1D:               0.007     0.007   0.0% |
   Communicate from 2D:               0.007     0.007   0.0% |
   Communicate to 1D:                 0.006     0.006   0.0% |
   Communicate to 2D:                 0.007     0.007   0.0% |
   FFT 1D:                            0.001     0.001   0.0% |
   FFT 2D:                            0.003     0.003   0.0% |
  XC 3D grid:                         0.022     0.022   0.1% |
  vbar:                               0.000     0.000   0.0% |
P tci:                                0.134     0.134   0.7% |
SCF-cycle:                           18.103     0.014   0.1% |
 Density:                             0.162     0.000   0.0% |
  Atomic density matrices:            0.029     0.029   0.1% |
  Mix:                                0.003     0.003   0.0% |
  Multipole moments:                  0.000     0.000   0.0% |
  Normalize:                          0.000     0.000   0.0% |
  Pseudo density:                     0.129     0.000   0.0% |
   Calculate density matrix:          0.008     0.008   0.0% |
   Construct density:                 0.121     0.121   0.6% |
   Symmetrize density:                0.000     0.000   0.0% |
 Direct Minimisation step:           16.459     0.017   0.1% |
  Broadcast gradients:                0.013     0.013   0.1% |
  Calculate gradients:                3.602     0.144   0.7% |
   Construct Gradient Matrix:         0.438     0.438   2.3% ||
   DenseAtomicCorrection:             0.167     0.167   0.9% |
   Distribute overlap matrix:         0.546     0.546   2.8% ||
   Potential matrix:                  2.306     2.306  11.9% |----|
  Density:                            2.445     0.000   0.0% |
   Atomic density matrices:           0.484     0.484   2.5% ||
   Mix:                               0.048     0.048   0.2% |
   Multipole moments:                 0.005     0.005   0.0% |
   Normalize:                         0.001     0.001   0.0% |
   Pseudo density:                    1.908     0.002   0.0% |
    Calculate density matrix:         0.121     0.121   0.6% |
    Construct density:                1.785     1.785   9.2% |---|
    Symmetrize density:               0.000     0.000   0.0% |
  Get Search Direction:               0.064     0.064   0.3% |
  Hamiltonian:                        3.264     0.001   0.0% |
   Atomic:                            2.338     0.233   1.2% |
    XC Correction:                    2.104     2.104  10.8% |---|
   Calculate atomic Hamiltonians:     0.033     0.033   0.2% |
   Communicate:                       0.001     0.001   0.0% |
   Hartree integrate/restrict:        0.021     0.021   0.1% |
   New Kinetic Energy:                0.101     0.002   0.0% |
    Pseudo part:                      0.099     0.099   0.5% |
   Poisson:                           0.473     0.011   0.1% |
    Communicate from 1D:              0.098     0.098   0.5% |
    Communicate from 2D:              0.098     0.098   0.5% |
    Communicate to 1D:                0.094     0.094   0.5% |
    Communicate to 2D:                0.101     0.101   0.5% |
    FFT 1D:                           0.021     0.021   0.1% |
    FFT 2D:                           0.050     0.050   0.3% |
   XC 3D grid:                        0.292     0.292   1.5% ||
   vbar:                              0.004     0.004   0.0% |
  Preconditioning::                   0.183     0.183   0.9% |
  Unitary rotation:                   6.871     0.957   4.9% |-|
   Broadcast coefficients:            0.045     0.045   0.2% |
   Calculate projections:             0.205     0.205   1.1% |
   Pade Approximants:                 5.664     5.664  29.1% |-----------|
 Get canonical representation:        0.624     0.014   0.1% |
  Calculate projections:              0.013     0.013   0.1% |
  DenseAtomicCorrection:              0.010     0.010   0.1% |
  Diagonalize and rotate:             0.397     0.397   2.0% ||
  Distribute overlap matrix:          0.036     0.036   0.2% |
  Potential matrix:                   0.154     0.154   0.8% |
 Hamiltonian:                         0.218     0.000   0.0% |
  Atomic:                             0.155     0.015   0.1% |
   XC Correction:                     0.140     0.140   0.7% |
  Calculate atomic Hamiltonians:      0.002     0.002   0.0% |
  Communicate:                        0.000     0.000   0.0% |
  Hartree integrate/restrict:         0.002     0.002   0.0% |
  New Kinetic Energy:                 0.007     0.000   0.0% |
   Pseudo part:                       0.007     0.007   0.0% |
  Poisson:                            0.032     0.001   0.0% |
   Communicate from 1D:               0.007     0.007   0.0% |
   Communicate from 2D:               0.007     0.007   0.0% |
   Communicate to 1D:                 0.006     0.006   0.0% |
   Communicate to 2D:                 0.007     0.007   0.0% |
   FFT 1D:                            0.001     0.001   0.0% |
   FFT 2D:                            0.003     0.003   0.0% |
  XC 3D grid:                         0.019     0.019   0.1% |
  vbar:                               0.000     0.000   0.0% |
 LCAO eigensolver:                    0.626     0.002   0.0% |
  Calculate projections:              0.015     0.015   0.1% |
  DenseAtomicCorrection:              0.013     0.013   0.1% |
  Distribute overlap matrix:          0.034     0.034   0.2% |
  Orbital Layouts:                    0.407     0.407   2.1% ||
  Potential matrix:                   0.155     0.155   0.8% |
ST tci:                               0.159     0.159   0.8% |
Set symmetry:                         0.000     0.000   0.0% |
TCI: Evaluate splines:                0.179     0.179   0.9% |
mktci:                                0.088     0.088   0.5% |
Other:                                0.512     0.512   2.6% ||
------------------------------------------------------------
Total:                                         19.458 100.0%

Memory usage: 491.02 MiB
Date: Fri Aug  6 11:12:39 2021
