
  ___ ___ ___ _ _ _  
 |   |   |_  | | | | 
 | | | | | . | | | | 
 |__ |  _|___|_____|  21.6.1b1
 |___|_|             

User:   ali5@compute-6
Date:   Fri Aug  6 11:12:37 2021
Arch:   x86_64
Pid:    1463630
Python: 3.8.9
gpaw:   /users/home/aleksei/gpawproject/gpaw/gpaw (5e46c27e61)
_gpaw:  /users/home/aleksei/gpawproject/gpaw/build/lib.linux-x86_64-3.8/
        _gpaw.cpython-38-x86_64-linux-gnu.so (5e46c27e61)
ase:    /users/home/aleksei/gpawproject/ase/ase (version 3.22.0b1-5c4361a7fd)
numpy:  /users/home/eojons/spack/opt/spack/linux-centos8-cascadelake/gcc-9.3.0/py-numpy-1.20.2-dgf27bhjua75jm66wbtas3vnjet4dzqg/lib/python3.8/site-packages/numpy (version 1.20.2)
scipy:  /users/home/eojons/spack/opt/spack/linux-centos8-cascadelake/gcc-9.3.0/py-scipy-1.6.2-5mj6sw3rf63wmprfl3ofjpi64tayycfh/lib/python3.8/site-packages/scipy (version 1.6.2)
libxc:  5.1.3
units:  Angstrom and eV
cores: 8
OpenMP: False
OMP_NUM_THREADS: 1

Input parameters:
  basis: tzdp
  convergence: {density: 1e-06}
  h: 0.2
  mode: {interpolation: 3,
         name: lcao}
  occupations: {fixmagmom: True,
                name: fermi-dirac,
                width: 0.0}
  xc: PBE

System changes: positions, numbers, cell, pbc, initial_charges, initial_magmoms 

Initialize ...

O-setup:
  name: Oxygen
  id: 32ecd46bf208036f09c70b0ec9a88b78
  Z: 8.0
  valence: 6
  core: 2
  charge: 0.0
  file: /users/home/eojons/gpaw-setups-0.9.20000/O.PBE.gz
  compensation charges: gauss, rc=0.21, lmax=2
  cutoffs: 1.17(filt), 0.83(core),
  valence states:
                energy  radius
    2s(2.00)   -23.961   0.688
    2p(4.00)    -9.029   0.598
    *s           3.251   0.688
    *p          18.182   0.598
    *d           0.000   0.619

  LCAO basis set for O:
    Name: tzdp
    File: ./O.tzdp.basis
    Number of radial functions: 8
    Number of spherical harmonics: 22
      l=0, rc=4.3438 Bohr: 2s-sz confined orbital
      l=1, rc=5.3906 Bohr: 2p-sz confined orbital
      l=0, rc=2.2969 Bohr: 2s-dz split-valence wave
      l=1, rc=2.8906 Bohr: 2p-dz split-valence wave
      l=0, rc=1.8125 Bohr: 2s-tz split-valence wave
      l=1, rc=2.2656 Bohr: 2p-tz split-valence wave
      l=2, rc=5.3906 Bohr: d-type Gaussian polarization
      l=2, rc=1.8281 Bohr: d-type split-valence polarization 2

H-setup:
  name: Hydrogen
  id: d65de229564ff8ea4db303e23b6d1ecf
  Z: 1.0
  valence: 1
  core: 0
  charge: 0.0
  file: /users/home/eojons/gpaw-setups-0.9.20000/H.PBE.gz
  compensation charges: gauss, rc=0.15, lmax=2
  cutoffs: 0.85(filt), 0.53(core),
  valence states:
                energy  radius
    1s(1.00)    -6.494   0.476
    *s          20.717   0.476
    *p           0.000   0.476

  LCAO basis set for H:
    Name: tzdp
    File: ./H.tzdp.basis
    Number of radial functions: 5
    Number of spherical harmonics: 9
      l=0, rc=6.6406 Bohr: 1s-sz confined orbital
      l=0, rc=3.6094 Bohr: 1s-dz split-valence wave
      l=0, rc=2.8438 Bohr: 1s-tz split-valence wave
      l=1, rc=6.6406 Bohr: p-type Gaussian polarization
      l=1, rc=1.9375 Bohr: p-type split-valence polarization 2

Reference energy: -66106.644020

Spin-paired calculation

Convergence criteria:
  Maximum total energy change: 0.0005 eV / electron
  Maximum integral of absolute density change: 1e-06 electrons
  Maximum integral of absolute eigenstate change: 4e-08 eV^2
  Maximum number of iterations: 333

Symmetries present (total): 1

  ( 1  0  0)
  ( 0  1  0)
  ( 0  0  1)

1 k-point (Gamma)
1 k-point in the irreducible part of the Brillouin zone
       k-points in crystal coordinates                weights
   0:     0.00000000    0.00000000    0.00000000          1/1

Wave functions: LCAO
  Diagonalizer: Serial LAPACK
  Atomic Correction: dense with blas
  Datatype: float
 

Occupation numbers: width=0.000 eV 

Eigensolver
   LCAO using direct dense diagonalizer 

Densities:
  Coarse grid: 48*48*48 grid
  Fine grid: 96*96*96 grid
  Total Charge: 0.000000 

Density mixing:
  Method: separate
  Backend: pulay
  Linear mixing parameter: 0.05
  Mixing with 5 old densities
  Damping of long wave oscillations: 50 

Hamiltonian:
  XC and Coulomb potentials evaluated on a 96*96*96 grid
  Using the PBE Exchange-Correlation functional
  Interpolation: tri-quintic (5. degree polynomial)
  Poisson solver: FastPoissonSolver using
    Stencil: 6*3+1=19 point O(h^6) finite-difference Laplacian
    FFT axes: [0, 1, 2]
    FST axes: []
 

XC parameters: PBE with 2 nearest neighbor stencil

Memory estimate:
  Process memory now: 194.75 MiB
  Calculator: 45.99 MiB
    Density: 8.42 MiB
      Arrays: 2.74 MiB
      Localized functions: 4.62 MiB
      Mixer: 1.05 MiB
    Hamiltonian: 2.13 MiB
      Arrays: 1.79 MiB
      XC: 0.00 MiB
      Poisson: 0.00 MiB
      vbar: 0.33 MiB
    Wavefunctions: 35.45 MiB
      C [qnM]: 1.54 MiB
      S, T [2 x qmm]: 25.00 MiB
      P [aqMi]: 0.11 MiB
      BasisFunctions: 8.79 MiB
      Eigensolver: 0.00 MiB

Total number of cores used: 8
Domain decomposition: 2 x 2 x 2

Number of atoms: 96
Number of atomic orbitals: 1280
Number of bands in calculation: 158
Number of valence electrons: 256
Bands to converge: occupied

... initialized

Initializing position-dependent things.

Density initialized from atomic densities
       .-----------------------.  
      /|            H O H     H|  
     / |H     H                |  
    /O |    H        H      H  |  
   /   |   H      H O     H    H  
  /    |H  H O H    HH    H   O|  
 * H   HH        HOH O      O  |  
 |     |  HH      O  O   O     |  
 |     H O O   H   HH     H H  |  
 |     |HH    HH H OH   HH OOH |  
 |     |       O     O H       |  
 |  H  |  H       H        H   |  
 |H  O H--O--H---OH--H-----O---.  
 |O H /         H OH O      H /   
 | H /   H             H     /    
 |  /   O                 O /     
 | /   H                   /      
 |/    O                  /       
 *-----------------------*        

Positions:
   0 O     -0.069000    0.824000   -1.295000    ( 0.0000,  0.0000,  0.0000)
   1 H      0.786000    0.943000   -0.752000    ( 0.0000,  0.0000,  0.0000)
   2 H     -0.414000   -0.001000   -0.865000    ( 0.0000,  0.0000,  0.0000)
   3 O     -0.282000   -0.674000   -3.822000    ( 0.0000,  0.0000,  0.0000)
   4 H      0.018000   -0.147000   -4.624000    ( 0.0000,  0.0000,  0.0000)
   5 H     -0.113000   -0.080000   -3.034000    ( 0.0000,  0.0000,  0.0000)
   6 O      2.253000    1.261000    0.151000    ( 0.0000,  0.0000,  0.0000)
   7 H      2.606000    0.638000   -0.539000    ( 0.0000,  0.0000,  0.0000)
   8 H      2.455000    0.790000    1.019000    ( 0.0000,  0.0000,  0.0000)
   9 O      3.106000   -0.276000   -1.795000    ( 0.0000,  0.0000,  0.0000)
  10 H      2.914000    0.459000   -2.386000    ( 0.0000,  0.0000,  0.0000)
  11 H      2.447000   -1.053000   -1.919000    ( 0.0000,  0.0000,  0.0000)
  12 O      6.257000   -0.625000   -0.626000    ( 0.0000,  0.0000,  0.0000)
  13 H      7.107000   -1.002000   -0.317000    ( 0.0000,  0.0000,  0.0000)
  14 H      5.526000   -1.129000   -0.131000    ( 0.0000,  0.0000,  0.0000)
  15 O      5.451000   -1.261000   -2.937000    ( 0.0000,  0.0000,  0.0000)
  16 H      4.585000   -0.957000   -2.503000    ( 0.0000,  0.0000,  0.0000)
  17 H      6.079000   -0.919000   -2.200000    ( 0.0000,  0.0000,  0.0000)
  18 O     -0.515000    3.689000    0.482000    ( 0.0000,  0.0000,  0.0000)
  19 H     -0.218000    3.020000   -0.189000    ( 0.0000,  0.0000,  0.0000)
  20 H      0.046000    3.568000    1.382000    ( 0.0000,  0.0000,  0.0000)
  21 O     -0.205000    2.640000   -3.337000    ( 0.0000,  0.0000,  0.0000)
  22 H     -1.083000    2.576000   -3.771000    ( 0.0000,  0.0000,  0.0000)
  23 H     -0.213000    1.885000   -2.680000    ( 0.0000,  0.0000,  0.0000)
  24 O      0.132000    6.301000   -0.278000    ( 0.0000,  0.0000,  0.0000)
  25 H      1.104000    6.366000   -0.068000    ( 0.0000,  0.0000,  0.0000)
  26 H     -0.148000    5.363000   -0.112000    ( 0.0000,  0.0000,  0.0000)
  27 O     -0.505000    6.680000   -3.285000    ( 0.0000,  0.0000,  0.0000)
  28 H     -0.674000    7.677000   -3.447000    ( 0.0000,  0.0000,  0.0000)
  29 H     -0.965000    6.278000   -2.517000    ( 0.0000,  0.0000,  0.0000)
  30 O      4.063000    3.342000   -0.474000    ( 0.0000,  0.0000,  0.0000)
  31 H      4.950000    2.912000   -0.663000    ( 0.0000,  0.0000,  0.0000)
  32 H      3.484000    2.619000   -0.125000    ( 0.0000,  0.0000,  0.0000)
  33 O      2.575000    2.404000   -3.170000    ( 0.0000,  0.0000,  0.0000)
  34 H      1.694000    2.841000   -3.296000    ( 0.0000,  0.0000,  0.0000)
  35 H      3.049000    2.956000   -2.503000    ( 0.0000,  0.0000,  0.0000)
  36 O      6.666000    2.030000   -0.815000    ( 0.0000,  0.0000,  0.0000)
  37 H      7.476000    2.277000   -0.316000    ( 0.0000,  0.0000,  0.0000)
  38 H      6.473000    1.064000   -0.651000    ( 0.0000,  0.0000,  0.0000)
  39 O      6.860000    2.591000   -3.584000    ( 0.0000,  0.0000,  0.0000)
  40 H      6.928000    3.530000   -3.176000    ( 0.0000,  0.0000,  0.0000)
  41 H      6.978000    2.097000   -2.754000    ( 0.0000,  0.0000,  0.0000)
  42 O      2.931000    6.022000   -0.243000    ( 0.0000,  0.0000,  0.0000)
  43 H      3.732000    6.562000   -0.004000    ( 0.0000,  0.0000,  0.0000)
  44 H      3.226000    5.115000   -0.404000    ( 0.0000,  0.0000,  0.0000)
  45 O      2.291000    7.140000   -2.455000    ( 0.0000,  0.0000,  0.0000)
  46 H      1.317000    6.937000   -2.532000    ( 0.0000,  0.0000,  0.0000)
  47 H      2.586000    6.574000   -1.669000    ( 0.0000,  0.0000,  0.0000)
  48 O      6.843000    5.460000    1.065000    ( 0.0000,  0.0000,  0.0000)
  49 H      7.803000    5.290000    0.852000    ( 0.0000,  0.0000,  0.0000)
  50 H      6.727000    5.424000    2.062000    ( 0.0000,  0.0000,  0.0000)
  51 O      6.896000    4.784000   -2.130000    ( 0.0000,  0.0000,  0.0000)
  52 H      6.191000    5.238000   -2.702000    ( 0.0000,  0.0000,  0.0000)
  53 H      6.463000    4.665000   -1.259000    ( 0.0000,  0.0000,  0.0000)
  54 O      0.398000    0.691000    4.098000    ( 0.0000,  0.0000,  0.0000)
  55 H      0.047000    1.567000    3.807000    ( 0.0000,  0.0000,  0.0000)
  56 H      1.268000    0.490000    3.632000    ( 0.0000,  0.0000,  0.0000)
  57 O      2.687000    0.272000    2.641000    ( 0.0000,  0.0000,  0.0000)
  58 H      3.078000    1.126000    3.027000    ( 0.0000,  0.0000,  0.0000)
  59 H      3.376000   -0.501000    2.793000    ( 0.0000,  0.0000,  0.0000)
  60 O      6.002000   -0.525000    4.002000    ( 0.0000,  0.0000,  0.0000)
  61 H      6.152000    0.405000    3.660000    ( 0.0000,  0.0000,  0.0000)
  62 H      5.987000   -0.447000    4.980000    ( 0.0000,  0.0000,  0.0000)
  63 O      0.649000    3.541000    2.897000    ( 0.0000,  0.0000,  0.0000)
  64 H      0.245000    4.301000    3.459000    ( 0.0000,  0.0000,  0.0000)
  65 H      1.638000    3.457000    3.084000    ( 0.0000,  0.0000,  0.0000)
  66 O     -0.075000    5.662000    4.233000    ( 0.0000,  0.0000,  0.0000)
  67 H     -0.182000    6.512000    3.776000    ( 0.0000,  0.0000,  0.0000)
  68 H     -0.241000    5.961000    5.212000    ( 0.0000,  0.0000,  0.0000)
  69 O      3.243000    2.585000    3.878000    ( 0.0000,  0.0000,  0.0000)
  70 H      3.110000    2.343000    4.817000    ( 0.0000,  0.0000,  0.0000)
  71 H      4.262000    2.718000    3.780000    ( 0.0000,  0.0000,  0.0000)
  72 O      5.942000    2.582000    3.712000    ( 0.0000,  0.0000,  0.0000)
  73 H      6.250000    3.500000    3.566000    ( 0.0000,  0.0000,  0.0000)
  74 H      6.379000    2.564000    4.636000    ( 0.0000,  0.0000,  0.0000)
  75 O      2.686000    5.638000    5.164000    ( 0.0000,  0.0000,  0.0000)
  76 H      1.781000    5.472000    4.698000    ( 0.0000,  0.0000,  0.0000)
  77 H      2.454000    6.286000    5.887000    ( 0.0000,  0.0000,  0.0000)
  78 O      6.744000    5.276000    3.826000    ( 0.0000,  0.0000,  0.0000)
  79 H      6.238000    5.608000    4.632000    ( 0.0000,  0.0000,  0.0000)
  80 H      7.707000    5.258000    4.110000    ( 0.0000,  0.0000,  0.0000)
  81 O      8.573000    8.472000    0.407000    ( 0.0000,  0.0000,  0.0000)
  82 H      9.069000    7.656000    0.067000    ( 0.0000,  0.0000,  0.0000)
  83 H      8.472000    8.425000    1.397000    ( 0.0000,  0.0000,  0.0000)
  84 O      8.758000    8.245000    2.989000    ( 0.0000,  0.0000,  0.0000)
  85 H      9.294000    9.091000    3.172000    ( 0.0000,  0.0000,  0.0000)
  86 H      7.906000    8.527000    3.373000    ( 0.0000,  0.0000,  0.0000)
  87 O      4.006000    7.734000    3.021000    ( 0.0000,  0.0000,  0.0000)
  88 H      4.685000    8.238000    3.547000    ( 0.0000,  0.0000,  0.0000)
  89 H      3.468000    7.158000    3.624000    ( 0.0000,  0.0000,  0.0000)
  90 O      5.281000    6.089000    6.035000    ( 0.0000,  0.0000,  0.0000)
  91 H      5.131000    7.033000    6.378000    ( 0.0000,  0.0000,  0.0000)
  92 H      4.428000    5.704000    5.720000    ( 0.0000,  0.0000,  0.0000)
  93 O      5.067000    7.323000    0.662000    ( 0.0000,  0.0000,  0.0000)
  94 H      5.785000    6.667000    0.703000    ( 0.0000,  0.0000,  0.0000)
  95 H      4.718000    7.252000    1.585000    ( 0.0000,  0.0000,  0.0000)

Unit cell:
           periodic     x           y           z      points  spacing
  1. axis:    yes    9.855373    0.000000    0.000000    48     0.2053
  2. axis:    yes    0.000000    9.855373    0.000000    48     0.2053
  3. axis:    yes    0.000000    0.000000    9.855373    48     0.2053

  Lengths:   9.855373   9.855373   9.855373
  Angles:   90.000000  90.000000  90.000000

Effective grid spacing dv^(1/3) = 0.2053

                     log10-error:    total        iterations:
           time      wfs    density  energy       poisson
iter:   1  11:12:39                -469.240126    1      
iter:   2  11:12:40         -0.86  -464.366304    1      
iter:   3  11:12:41         -0.90  -449.461465    1      
iter:   4  11:12:42         -1.21  -450.035156    1      
iter:   5  11:12:43         -1.50  -449.269301    1      
iter:   6  11:12:44         -2.35  -449.267158    1      
iter:   7  11:12:45         -2.47  -449.254851    1      
iter:   8  11:12:46         -2.62  -449.250385    1      
iter:   9  11:12:47         -3.41  -449.250334    1      
iter:  10  11:12:48         -3.48  -449.250201    1      
iter:  11  11:12:49         -3.82  -449.250195    1      
iter:  12  11:12:50         -3.85  -449.250170    1      
iter:  13  11:12:51         -4.18  -449.250168    1      
iter:  14  11:12:52         -4.40  -449.250168    1      
iter:  15  11:12:53         -4.43  -449.250167    1      
iter:  16  11:12:54         -5.15  -449.250167    1      
iter:  17  11:12:55         -5.23  -449.250167    1      
iter:  18  11:12:56         -5.27  -449.250167    1      
iter:  19  11:12:57         -5.30  -449.250167    1      
iter:  20  11:12:58         -5.93  -449.250167    1      
iter:  21  11:12:59         -5.98  -449.250167    1      
iter:  22  11:13:00         -6.03  -449.250167    1      

Converged after 22 iterations.

Dipole moment: (31.797844, 13.655776, 29.904992) |e|*Ang

Energy contributions relative to reference atoms: (reference = -66106.644020)

Kinetic:       +386.897790
Potential:     -433.051406
External:        +0.000000
XC:            -415.952462
Entropy (-ST):   +0.000000
Local:          +12.855911
--------------------------
Free energy:   -449.250167
Extrapolated:  -449.250167

 Band  Eigenvalues  Occupancy
    0    -22.32139    2.00000
    1    -22.22384    2.00000
    2    -22.11873    2.00000
    3    -22.07017    2.00000
    4    -21.98575    2.00000
    5    -21.92484    2.00000
    6    -21.85442    2.00000
    7    -21.83353    2.00000
    8    -21.68885    2.00000
    9    -21.59536    2.00000
   10    -21.57943    2.00000
   11    -21.50146    2.00000
   12    -21.39590    2.00000
   13    -21.37621    2.00000
   14    -21.32586    2.00000
   15    -21.27159    2.00000
   16    -21.24658    2.00000
   17    -21.22160    2.00000
   18    -21.16865    2.00000
   19    -21.02937    2.00000
   20    -21.01703    2.00000
   21    -20.94875    2.00000
   22    -20.91001    2.00000
   23    -20.86256    2.00000
   24    -20.74873    2.00000
   25    -20.69532    2.00000
   26    -20.61709    2.00000
   27    -20.60188    2.00000
   28    -20.51558    2.00000
   29    -20.48796    2.00000
   30    -20.44935    2.00000
   31    -20.35384    2.00000
   32    -10.26638    2.00000
   33    -10.05439    2.00000
   34    -10.00720    2.00000
   35     -9.91717    2.00000
   36     -9.86742    2.00000
   37     -9.78740    2.00000
   38     -9.76959    2.00000
   39     -9.66554    2.00000
   40     -9.57401    2.00000
   41     -9.56053    2.00000
   42     -9.53293    2.00000
   43     -9.49956    2.00000
   44     -9.44956    2.00000
   45     -9.39584    2.00000
   46     -9.32514    2.00000
   47     -9.30292    2.00000
   48     -9.29001    2.00000
   49     -9.26281    2.00000
   50     -9.24291    2.00000
   51     -9.17706    2.00000
   52     -9.10267    2.00000
   53     -9.08009    2.00000
   54     -9.02441    2.00000
   55     -8.99064    2.00000
   56     -8.95763    2.00000
   57     -8.76374    2.00000
   58     -8.73422    2.00000
   59     -8.71062    2.00000
   60     -8.59232    2.00000
   61     -8.43086    2.00000
   62     -8.35080    2.00000
   63     -8.27751    2.00000
   64     -7.32349    2.00000
   65     -7.19916    2.00000
   66     -7.09616    2.00000
   67     -6.90881    2.00000
   68     -6.79175    2.00000
   69     -6.75797    2.00000
   70     -6.70113    2.00000
   71     -6.56854    2.00000
   72     -6.52370    2.00000
   73     -6.49764    2.00000
   74     -6.28913    2.00000
   75     -6.24503    2.00000
   76     -6.17980    2.00000
   77     -6.07870    2.00000
   78     -5.89653    2.00000
   79     -5.85422    2.00000
   80     -5.80109    2.00000
   81     -5.73452    2.00000
   82     -5.66011    2.00000
   83     -5.59343    2.00000
   84     -5.55552    2.00000
   85     -5.45688    2.00000
   86     -5.27863    2.00000
   87     -5.24480    2.00000
   88     -5.17019    2.00000
   89     -5.12400    2.00000
   90     -5.01090    2.00000
   91     -4.88242    2.00000
   92     -4.85664    2.00000
   93     -4.79779    2.00000
   94     -4.57140    2.00000
   95     -4.39156    2.00000
   96     -4.30335    2.00000
   97     -4.28983    2.00000
   98     -4.17973    2.00000
   99     -4.02019    2.00000
  100     -3.98766    2.00000
  101     -3.92181    2.00000
  102     -3.91217    2.00000
  103     -3.85291    2.00000
  104     -3.84120    2.00000
  105     -3.80690    2.00000
  106     -3.76670    2.00000
  107     -3.73289    2.00000
  108     -3.70405    2.00000
  109     -3.62812    2.00000
  110     -3.57269    2.00000
  111     -3.52794    2.00000
  112     -3.51230    2.00000
  113     -3.50122    2.00000
  114     -3.46055    2.00000
  115     -3.39083    2.00000
  116     -3.35861    2.00000
  117     -3.32225    2.00000
  118     -3.29026    2.00000
  119     -3.26080    2.00000
  120     -3.25894    2.00000
  121     -3.20756    2.00000
  122     -3.13559    2.00000
  123     -3.06955    2.00000
  124     -3.01633    2.00000
  125     -2.98618    2.00000
  126     -2.91158    2.00000
  127     -2.63203    2.00000
  128      1.94491    0.00000
  129      3.59917    0.00000
  130      3.89593    0.00000
  131      4.00122    0.00000
  132      4.13344    0.00000
  133      4.20049    0.00000
  134      4.37597    0.00000
  135      5.08765    0.00000
  136      5.27225    0.00000
  137      5.35292    0.00000
  138      5.39400    0.00000
  139      5.65089    0.00000
  140      5.71570    0.00000
  141      5.84162    0.00000
  142      5.95165    0.00000
  143      5.97829    0.00000
  144      6.15806    0.00000
  145      6.34224    0.00000
  146      6.42342    0.00000
  147      6.56377    0.00000
  148      6.85102    0.00000
  149      7.02949    0.00000
  150      7.19486    0.00000
  151      7.28885    0.00000
  152      7.49687    0.00000
  153      7.56512    0.00000
  154      7.74748    0.00000
  155      7.84972    0.00000
  156      8.12149    0.00000
  157      8.19426    0.00000

Fermi level: -0.34356

Gap: 4.577 eV
Transition (v -> c):
  (s=0, k=0, n=127, [0.00, 0.00, 0.00]) -> (s=0, k=0, n=128, [0.00, 0.00, 0.00])
Timing:                              incl.     excl.
-----------------------------------------------------------
Basic WFS set positions:             0.002     0.002   0.0% |
Basis functions set positions:       0.046     0.046   0.2% |
LCAO WFS Initialize:                 0.235     0.019   0.1% |
 Hamiltonian:                        0.217     0.000   0.0% |
  Atomic:                            0.157     0.018   0.1% |
   XC Correction:                    0.140     0.140   0.6% |
  Calculate atomic Hamiltonians:     0.002     0.002   0.0% |
  Communicate:                       0.000     0.000   0.0% |
  Hartree integrate/restrict:        0.002     0.002   0.0% |
  Initialize Hamiltonian:            0.000     0.000   0.0% |
  Poisson:                           0.033     0.001   0.0% |
   Communicate from 1D:              0.007     0.007   0.0% |
   Communicate from 2D:              0.007     0.007   0.0% |
   Communicate to 1D:                0.006     0.006   0.0% |
   Communicate to 2D:                0.007     0.007   0.0% |
   FFT 1D:                           0.001     0.001   0.0% |
   FFT 2D:                           0.003     0.003   0.0% |
  XC 3D grid:                        0.022     0.022   0.1% |
  vbar:                              0.000     0.000   0.0% |
P tci:                               0.133     0.133   0.6% |
SCF-cycle:                          20.801     0.017   0.1% |
 Density:                            3.423     0.000   0.0% |
  Atomic density matrices:           0.694     0.694   3.1% ||
  Mix:                               0.084     0.084   0.4% |
  Multipole moments:                 0.007     0.007   0.0% |
  Normalize:                         0.001     0.001   0.0% |
  Pseudo density:                    2.637     0.002   0.0% |
   Calculate density matrix:         0.158     0.158   0.7% |
   Construct density:                2.476     2.476  11.2% |---|
   Symmetrize density:               0.000     0.000   0.0% |
 Hamiltonian:                        4.448     0.001   0.0% |
  Atomic:                            3.290     0.360   1.6% ||
   XC Correction:                    2.930     2.930  13.2% |----|
  Calculate atomic Hamiltonians:     0.046     0.046   0.2% |
  Communicate:                       0.001     0.001   0.0% |
  Hartree integrate/restrict:        0.030     0.030   0.1% |
  Poisson:                           0.663     0.015   0.1% |
   Communicate from 1D:              0.136     0.136   0.6% |
   Communicate from 2D:              0.138     0.138   0.6% |
   Communicate to 1D:                0.132     0.132   0.6% |
   Communicate to 2D:                0.143     0.143   0.6% |
   FFT 1D:                           0.029     0.029   0.1% |
   FFT 2D:                           0.070     0.070   0.3% |
  XC 3D grid:                        0.411     0.411   1.9% ||
  vbar:                              0.006     0.006   0.0% |
 LCAO eigensolver:                  12.912     0.038   0.2% |
  Calculate projections:             0.030     0.030   0.1% |
  DenseAtomicCorrection:             0.248     0.248   1.1% |
  Distribute overlap matrix:         0.688     0.688   3.1% ||
  Orbital Layouts:                   8.514     8.514  38.5% |--------------|
  Potential matrix:                  3.394     3.394  15.3% |-----|
ST tci:                              0.158     0.158   0.7% |
Set symmetry:                        0.001     0.001   0.0% |
TCI: Evaluate splines:               0.174     0.174   0.8% |
mktci:                               0.089     0.089   0.4% |
Other:                               0.495     0.495   2.2% ||
-----------------------------------------------------------
Total:                                        22.134 100.0%

Memory usage: 381.73 MiB
Date: Fri Aug  6 11:13:00 2021
