
  ___ ___ ___ _ _ _  
 |   |   |_  | | | | 
 | | | | | . | | | | 
 |__ |  _|___|_____|  1.5.2b1
 |___|_|             

User:   aleksei@compute-0-35
Date:   Sun Feb 17 01:11:46 2019
Arch:   x86_64
Pid:    23260
Python: 3.6.5
gpaw:   /users/home/aleksei/NEW_PROJECTS/gpaw_lcao/source_code/gpaw (4f08e4a709)
_gpaw:  /users/home/aleksei/NEW_PROJECTS/gpaw_lcao/source_code/build/bin.linux-x86_64-3.6/
        gpaw-python (c5ed980b6a)
ase:    /users/home/aleksei/ase_my_fork/ase (version 3.18.0b1-471271e4ee)
numpy:  /opt/share/python/intel2019/intelpython3/lib/python3.6/site-packages/numpy (version 1.15.2)
scipy:  /opt/share/python/intel2019/intelpython3/lib/python3.6/site-packages/scipy (version 1.1.0)
units:  Angstrom and eV
cores:  8

Input parameters:
  basis: dzp
  convergence: {density: 10000000000.0,
                eigenstates: 1e-10,
                energy: 10000000000.0}
  h: 0.15
  mode: {interpolation: 3,
         name: lcao}
  occupations: {fixmagmom: True,
                name: fermi-dirac,
                width: 0.0}
  xc: PBE

System changes: positions, numbers, cell, pbc, initial_charges, initial_magmoms 

Initialize ...

C-setup:
  name: Carbon
  id: 4aa54d4b901d75f77cc0ea3eec22967b
  Z: 6
  valence: 4
  core: 2
  charge: 0.0
  file: /users/home/aleksei/gpaw-setups-0.9.11271/C.PBE.gz
  cutoffs: 0.64(comp), 1.14(filt), 1.14(core), lmax=2
  valence states:
                energy  radius
    2s(2.00)   -13.751   0.635
    2p(2.00)    -5.284   0.635
    *s          13.461   0.635
    *p          21.927   0.635
    *d           0.000   0.635

  LCAO basis set for C:
    Name: dzp
    File: /users/home/aleksei/gpaw-setups-0.9.11271/C.dzp.basis.gz
    Number of radial functions: 5
    Number of spherical harmonics: 13
      l=0, rc=5.5469 Bohr: 2s-sz confined orbital
      l=1, rc=6.6719 Bohr: 2p-sz confined orbital
      l=0, rc=3.0312 Bohr: 2s-dz split-valence wave
      l=1, rc=3.7500 Bohr: 2p-dz split-valence wave
      l=2, rc=6.6719 Bohr: d-type Gaussian polarization

H-setup:
  name: Hydrogen
  id: d65de229564ff8ea4db303e23b6d1ecf
  Z: 1
  valence: 1
  core: 0
  charge: 0.0
  file: /users/home/aleksei/gpaw-setups-0.9.11271/H.PBE.gz
  cutoffs: 0.48(comp), 0.85(filt), 0.53(core), lmax=2
  valence states:
                energy  radius
    1s(1.00)    -6.494   0.476
    *s          20.717   0.476
    *p           0.000   0.476

  LCAO basis set for H:
    Name: dzp
    File: /users/home/aleksei/gpaw-setups-0.9.11271/H.dzp.basis.gz
    Number of radial functions: 3
    Number of spherical harmonics: 5
      l=0, rc=6.4219 Bohr: 1s-sz confined orbital
      l=0, rc=3.6094 Bohr: 1s-dz split-valence wave
      l=1, rc=6.4219 Bohr: p-type Gaussian polarization

Reference energy: -1040.118278

Spin-polarized calculation.
Magnetic moment: 1.000000

Occupation numbers:
  Fixed magnetic moment
  Fermi-Dirac: width=0.0000 eV

Convergence criteria:
  Maximum total energy change: 1e+10 eV / electron
  Maximum integral of absolute density change: 1e+10 electrons
  Maximum integral of absolute eigenstate change: 1e-10 eV^2
  Maximum number of iterations: 333

Symmetries present (total): 1

  ( 1  0  0)
  ( 0  1  0)
  ( 0  0  1)

1 k-point (Gamma)
1 k-point in the irreducible part of the Brillouin zone
       k-points in crystal coordinates                weights
   0:     0.00000000    0.00000000    0.00000000          1/1

Wave functions: LCAO
  Diagonalizer: Serial LAPACK
  Atomic Correction: dense with blas
  Datatype: float
 

Eigensolver
   LCAO using direct dense diagonalizer 

Densities:
  Coarse grid: 92*92*100 grid
  Fine grid: 184*184*200 grid
  Total Charge: 0.000000 

Density mixing:
  Method: sum
  Backend: pulay
  Linear mixing parameter: 0.25
  Mixing with 3 old densities
  No damping of long wave oscillations 

Hamiltonian:
  XC and Coulomb potentials evaluated on a 184*184*200 grid
  Using the PBE Exchange-Correlation functional
  Interpolation: tri-quintic (5. degree polynomial)
  Poisson solver: FastPoissonSolver using
    6*3+1=19 point O(h^6) finite-difference Laplacian stencil;
    FFT axes: [];
    FST axes: [0, 1, 2].
 

XC parameters: PBE with 2 nearest neighbor stencil

Memory estimate:
  Process memory now: 417.51 MiB
  Calculator: 53.03 MiB
    Density: 32.07 MiB
      Arrays: 27.29 MiB
      Localized functions: 0.24 MiB
      Mixer: 4.54 MiB
    Hamiltonian: 20.30 MiB
      Arrays: 20.28 MiB
      XC: 0.00 MiB
      Poisson: 0.00 MiB
      vbar: 0.02 MiB
    Wavefunctions: 0.65 MiB
      C [qnM]: 0.00 MiB
      S, T [2 x qmm]: 0.00 MiB
      P [aqMi]: 0.00 MiB
      BasisFunctions: 0.65 MiB
      Eigensolver: 0.00 MiB

Total number of cores used: 8
Domain decomposition: 2 x 2 x 2

Number of atoms: 2
Number of atomic orbitals: 18
Number of bands in calculation: 5
Bands to converge: occupied states only
Number of valence electrons: 5

... initialized

Initializing position-dependent things.

Density initialized from atomic densities
          .---------------------------------.  
         /|                                 |  
        / |                                 |  
       /  |                                 |  
      /   |                                 |  
     /    |                                 |  
    /     |                                 |  
   /      |                                 |  
  /       |                                 |  
 *        |                                 |  
 |        |                                 |  
 |        |                                 |  
 |        |                                 |  
 |        |            C                    |  
 |        |                                 |  
 |        |            H                    |  
 |        |                                 |  
 |        |                                 |  
 |        |                                 |  
 |        .---------------------------------.  
 |       /                                 /   
 |      /                                 /    
 |     /                                 /     
 |    /                                 /      
 |   /                                 /       
 |  /                                 /        
 | /                                 /         
 |/                                 /          
 *---------------------------------*           

Positions:
   0 C      7.000000    7.000000    8.120520    ( 0.0000,  0.0000,  1.0000)
   1 H      7.000000    7.000000    7.000000    ( 0.0000,  0.0000,  0.0000)

Unit cell:
           periodic     x           y           z      points  spacing
  1. axis:    no    14.000000    0.000000    0.000000    92     0.1522
  2. axis:    no     0.000000   14.000000    0.000000    92     0.1522
  3. axis:    no     0.000000    0.000000   15.120520   100     0.1512

  Lengths:  14.000000  14.000000  15.120520
  Angles:   90.000000  90.000000  90.000000

Effective grid spacing dv^(1/3) = 0.1519

                     log10-error:    total        iterations:
           time      wfs    density  energy       fermi  poisson  magmom
iter:   1  01:11:50   +inf   +inf    -5.773020    0      1        +1.0000
iter:   2  01:11:51  +1.56  -0.61    -5.881917    0      1        +1.0000
iter:   3  01:11:52  +1.26  -0.75    -5.675595    0      1        +1.0000
iter:   4  01:11:54  -0.96  -1.77    -5.673150    0      1        +1.0000
iter:   5  01:11:55  -0.63  -1.93    -5.671977    0      1        +1.0000
iter:   6  01:11:57  -2.53  -2.50    -5.671963    0      1        +1.0000
iter:   7  01:11:58  -2.62  -2.73    -5.671939    0      1        +1.0000
iter:   8  01:12:00  -2.99  -2.91    -5.671925    0      1        +1.0000
iter:   9  01:12:01  -4.75  -3.68    -5.671925    0      1        +1.0000
iter:  10  01:12:03  -4.73  -3.84    -5.671925    0      1        +1.0000
iter:  11  01:12:04  -4.98  -3.94    -5.671925    0      1        +1.0000
iter:  12  01:12:06  -4.39  -3.78    -5.671925    0      1        +1.0000
iter:  13  01:12:07  -3.83  -3.37    -5.671926    0      1        +1.0000
iter:  14  01:12:09  -3.33  -3.14    -5.671930    0      1        +1.0000
iter:  15  01:12:10  -2.78  -2.86    -5.671944    0      1        +1.0000
iter:  16  01:12:12  -2.25  -2.58    -5.671990    0      1        +1.0000
iter:  17  01:12:13  -1.72  -2.32    -5.672143    0      1        +1.0000
iter:  18  01:12:15  -1.18  -2.05    -5.672688    0      1        +1.0000
iter:  19  01:12:16  -0.65  -1.78    -5.674490    0      1        +1.0000
iter:  20  01:12:18  -0.13  -1.51    -5.680006    0      1        +1.0000
iter:  21  01:12:19  +0.37  -1.26    -5.695169    0      1        +1.0000
iter:  22  01:12:20  +0.83  -1.03    -5.714256    0      1        +1.0000
iter:  23  01:12:22  +1.57  -0.85    -5.537167    0      1        +1.0000
iter:  24  01:12:23  +3.18  -0.74    -3.509327    0      1        +1.0000
iter:  25  01:12:25  +3.90  -0.72     3.938610    0      1        +1.0000
iter:  26  01:12:26  +3.00  -0.70     7.693288    0      1        +1.0000
iter:  27  01:12:28  +3.24  -0.75    -1.833391    0      1        +1.0000
iter:  28  01:12:29  +2.63  -0.94    -3.575624    0      1        +1.0000
iter:  29  01:12:31  +2.87  -1.00    -5.537032    0      1        +1.0000
iter:  30  01:12:32  +1.30  -1.10    -5.706247    0      1        +1.0000
iter:  31  01:12:34  +0.77  -1.12    -5.677719    0      1        +1.0000
iter:  32  01:12:35  +0.14  -1.32    -5.682994    0      1        +1.0000
iter:  33  01:12:37  +0.83  -1.20    -5.741166    0      1        +1.0000
iter:  34  01:12:38  +1.95  -0.78    -5.425906    0      1        +1.0000
iter:  35  01:12:40  +1.08  -0.69    -5.392967    0      1        +1.0000
iter:  36  01:12:41  +1.39  -0.91    -5.676139    0      1        +1.0000
iter:  37  01:12:43  -0.20  -1.43    -5.677104    0      1        +1.0000
iter:  38  01:12:44  -0.40  -1.54    -5.673224    0      1        +1.0000
iter:  39  01:12:46  -1.00  -1.83    -5.672716    0      1        +1.0000
iter:  40  01:12:47  -1.51  -2.18    -5.672582    0      1        +1.0000
iter:  41  01:12:49  -2.05  -2.37    -5.672590    0      1        +1.0000
iter:  42  01:12:50  -2.00  -2.44    -5.672661    0      1        +1.0000
iter:  43  01:12:51  -1.33  -2.21    -5.673214    0      1        +1.0000
iter:  44  01:12:53  -0.80  -1.81    -5.674116    0      1        +1.0000
iter:  45  01:12:54  -0.22  -1.62    -5.680610    0      1        +1.0000
iter:  46  01:12:56  +0.37  -1.26    -5.696267    0      1        +1.0000
iter:  47  01:12:57  +0.73  -1.03    -5.708810    0      1        +1.0000
iter:  48  01:12:59  +1.16  -0.91    -5.665689    0      1        +1.0000
iter:  49  01:13:00  +4.52  -0.78    11.172109    0      1        +1.0000
iter:  50  01:13:02  +3.03  -0.47     1.314788    0      1        +1.0000
iter:  51  01:13:03  +2.84  -0.71    -0.219393    0      1        +1.0000
iter:  52  01:13:05  +2.03  -0.68    -0.136155    0      1        +1.0000
iter:  53  01:13:06  +3.18  -1.01    -4.501091    0      1        +1.0000
iter:  54  01:13:08  +2.47  -1.01    -5.653487    0      1        +1.0000
iter:  55  01:13:09  +0.37  -1.62    -5.673364    0      1        +1.0000
iter:  56  01:13:11  -0.46  -1.76    -5.672441    0      1        +1.0000
iter:  57  01:13:12  -1.89  -2.18    -5.672420    0      1        +1.0000
iter:  58  01:13:14  -1.83  -2.24    -5.672430    0      1        +1.0000
iter:  59  01:13:15  -1.41  -2.19    -5.672815    0      1        +1.0000
iter:  60  01:13:17  -0.98  -1.88    -5.673109    0      1        +1.0000
iter:  61  01:13:18  -0.59  -1.78    -5.675668    0      1        +1.0000
iter:  62  01:13:20  -0.08  -1.46    -5.680838    0      1        +1.0000
iter:  63  01:13:21  +0.35  -1.25    -5.693697    0      1        +1.0000
iter:  64  01:13:23  +0.87  -1.05    -5.703907    0      1        +1.0000
iter:  65  01:13:24  +3.62  -0.84    -2.162618    0      1        +1.0000
iter:  66  01:13:25  +2.96  -0.70    -1.425276    0      1        +1.0000
iter:  67  01:13:27  +3.41  -0.72     1.843607    0      1        +1.0000
iter:  68  01:13:28  +2.29  -0.60     2.550532    0      1        +1.0000
iter:  69  01:13:30  +3.22  -0.88     0.892751    0      1        +1.0000
iter:  70  01:13:31  +3.34  -0.75    -5.540804    0      1        +1.0000
iter:  71  01:13:33  +1.11  -1.20    -5.678954    0      1        +1.0000
iter:  72  01:13:34  +0.21  -1.30    -5.675281    0      1        +1.0000
iter:  73  01:13:36  -0.53  -1.45    -5.674609    0      1        +1.0000
iter:  74  01:13:37  -0.91  -1.68    -5.673260    0      1        +1.0000
iter:  75  01:13:39  -0.82  -1.78    -5.671977    0      1        +1.0000
iter:  76  01:13:40  -2.89  -2.59    -5.671955    0      1        +1.0000
iter:  77  01:13:42  -3.14  -2.87    -5.671943    0      1        +1.0000
iter:  78  01:13:43  -3.83  -3.16    -5.671942    0      1        +1.0000
iter:  79  01:13:45  -4.44  -3.37    -5.671942    0      1        +1.0000
iter:  80  01:13:46  -4.63  -3.62    -5.671941    0      1        +1.0000
iter:  81  01:13:48  -4.52  -4.00    -5.671942    0      1        +1.0000
iter:  82  01:13:49  -4.13  -3.77    -5.671943    0      1        +1.0000
iter:  83  01:13:51  -3.61  -3.36    -5.671945    0      1        +1.0000
iter:  84  01:13:52  -3.09  -3.06    -5.671952    0      1        +1.0000
iter:  85  01:13:53  -2.56  -2.76    -5.671976    0      1        +1.0000
iter:  86  01:13:55  -2.03  -2.48    -5.672055    0      1        +1.0000
iter:  87  01:13:56  -1.49  -2.21    -5.672321    0      1        +1.0000
iter:  88  01:13:58  -0.96  -1.93    -5.673215    0      1        +1.0000
iter:  89  01:13:59  -0.43  -1.67    -5.676115    0      1        +1.0000
iter:  90  01:14:01  +0.08  -1.40    -5.684886    0      1        +1.0000
iter:  91  01:14:02  +0.57  -1.16    -5.705090    0      1        +1.0000
iter:  92  01:14:04  +1.03  -0.95    -5.699091    0      1        +1.0000
iter:  93  01:14:05  +2.16  -0.80    -5.192687    0      1        +1.0000
iter:  94  01:14:07  +3.70  -0.72    -1.078265    0      1        +1.0000
iter:  95  01:14:08  +3.65  -0.72     6.592206    0      1        +1.0000
iter:  96  01:14:10  +2.83  -0.70     5.650151    0      1        +1.0000
iter:  97  01:14:11  +2.46  -0.83     2.823689    0      1        +1.0000
iter:  98  01:14:13  +3.43  -0.92    -5.153733    0      1        +1.0000
iter:  99  01:14:14  +1.88  -1.16    -5.684928    0      1        +1.0000
iter: 100  01:14:16  +0.28  -1.35    -5.676319    0      1        +1.0000
iter: 101  01:14:17  +0.19  -1.52    -5.671808    0      1        +1.0000
iter: 102  01:14:19  -1.60  -2.15    -5.671857    0      1        +1.0000
iter: 103  01:14:20  -1.93  -2.21    -5.671908    0      1        +1.0000
iter: 104  01:14:22  -1.62  -2.22    -5.672075    0      1        +1.0000
iter: 105  01:14:23  -1.17  -1.95    -5.672301    0      1        +1.0000
iter: 106  01:14:24  -0.99  -1.91    -5.672967    0      1        +1.0000
iter: 107  01:14:26  -0.49  -1.70    -5.675673    0      1        +1.0000
iter: 108  01:14:27  +0.13  -1.43    -5.687120    0      1        +1.0000
iter: 109  01:14:29  +0.61  -1.12    -5.704247    0      1        +1.0000
iter: 110  01:14:30  +0.98  -0.94    -5.710882    0      1        +1.0000
iter: 111  01:14:32  +2.44  -0.81    -4.979462    0      1        +1.0000
iter: 112  01:14:33  +4.23  -0.72     5.690941    0      1        +1.0000
iter: 113  01:14:35  +3.26  -0.63     2.908737    0      1        +1.0000
iter: 114  01:14:36  +2.76  -0.59     6.033141    0      1        +1.0000
iter: 115  01:14:38  +3.35  -0.67     3.361432    0      1        +1.0000
iter: 116  01:14:39  +3.05  -0.82     7.532755    0      1        +1.0000
iter: 117  01:14:41  +2.18  -0.81     4.741203    0      1        +1.0000
iter: 118  01:14:42  +3.35  -1.02    -3.496827    0      1        +1.0000
iter: 119  01:14:44  +2.51  -1.08    -4.748052    0      1        +1.0000
iter: 120  01:14:45  +1.63  -1.00    -4.712371    0      1        +1.0000
iter: 121  01:14:47  +3.09  -0.87    -2.723471    0      1        +1.0000
iter: 122  01:14:48  +1.73  -0.83    -3.382732    0      1        +1.0000
iter: 123  01:14:50  +2.90  -0.99    -5.633811    0      1        +1.0000
iter: 124  01:14:51  +0.70  -1.47    -5.677394    0      1        +1.0000
iter: 125  01:14:52  -0.21  -1.45    -5.674223    0      1        +1.0000
iter: 126  01:14:54  -0.95  -1.52    -5.673681    0      1        +1.0000
iter: 127  01:14:55  -0.67  -1.57    -5.672973    0      1        +1.0000
iter: 128  01:14:57  -0.90  -1.76    -5.673343    0      1        +1.0000
iter: 129  01:14:58  -0.65  -1.65    -5.672086    0      1        +1.0000
iter: 130  01:15:00  -2.21  -2.29    -5.672008    0      1        +1.0000
iter: 131  01:15:01  -2.22  -2.49    -5.671969    0      1        +1.0000
iter: 132  01:15:03  -3.57  -2.89    -5.671967    0      1        +1.0000
iter: 133  01:15:04  -3.79  -3.09    -5.671967    0      1        +1.0000
iter: 134  01:15:06  -3.47  -3.22    -5.671968    0      1        +1.0000
iter: 135  01:15:07  -3.62  -2.97    -5.671965    0      1        +1.0000
iter: 136  01:15:09  -4.56  -3.39    -5.671965    0      1        +1.0000
iter: 137  01:15:10  -4.42  -3.86    -5.671965    0      1        +1.0000
iter: 138  01:15:12  -4.44  -3.94    -5.671966    0      1        +1.0000
iter: 139  01:15:13  -4.48  -4.23    -5.671966    0      1        +1.0000
iter: 140  01:15:15  -4.16  -3.85    -5.671967    0      1        +1.0000
iter: 141  01:15:16  -3.62  -3.52    -5.671970    0      1        +1.0000
iter: 142  01:15:18  -3.03  -3.05    -5.671979    0      1        +1.0000
iter: 143  01:15:19  -2.51  -2.74    -5.672006    0      1        +1.0000
iter: 144  01:15:21  -1.97  -2.46    -5.672099    0      1        +1.0000
iter: 145  01:15:22  -1.43  -2.18    -5.672407    0      1        +1.0000
iter: 146  01:15:23  -0.91  -1.90    -5.673384    0      1        +1.0000
iter: 147  01:15:25  -0.39  -1.64    -5.676629    0      1        +1.0000
iter: 148  01:15:26  +0.14  -1.38    -5.686715    0      1        +1.0000
iter: 149  01:15:28  +0.62  -1.13    -5.707667    0      1        +1.0000
iter: 150  01:15:29  +1.08  -0.93    -5.691254    0      1        +1.0000
iter: 151  01:15:31  +2.28  -0.79    -5.091618    0      1        +1.0000
iter: 152  01:15:32  +3.85  -0.72     0.236503    0      1        +1.0000
iter: 153  01:15:34  +3.47  -0.70     6.797959    0      1        +1.0000
iter: 154  01:15:35  +2.88  -0.70     2.994049    0      1        +1.0000
iter: 155  01:15:37  +2.26  -0.78     0.813260    0      1        +1.0000
iter: 156  01:15:38  +3.22  -0.83    -4.134124    0      1        +1.0000
iter: 157  01:15:40  +2.69  -1.08    -5.693940    0      1        +1.0000
iter: 158  01:15:41  +0.64  -1.13    -5.699410    0      1        +1.0000
iter: 159  01:15:43  +0.40  -1.12    -5.669292    0      1        +1.0000
iter: 160  01:15:44  -0.34  -1.22    -5.676129    0      1        +1.0000
iter: 161  01:15:46  +0.00  -1.26    -5.672951    0      1        +1.0000
iter: 162  01:15:47  -0.59  -1.50    -5.674784    0      1        +1.0000
iter: 163  01:15:49  -0.24  -1.56    -5.672369    0      1        +1.0000
iter: 164  01:15:50  -1.20  -1.93    -5.672054    0      1        +1.0000
iter: 165  01:15:52  -1.79  -2.22    -5.671972    0      1        +1.0000
iter: 166  01:15:53  -2.85  -2.62    -5.671956    0      1        +1.0000
iter: 167  01:15:54  -2.96  -2.87    -5.671948    0      1        +1.0000
iter: 168  01:15:56  -4.29  -3.19    -5.671948    0      1        +1.0000
iter: 169  01:15:57  -3.89  -3.25    -5.671949    0      1        +1.0000
iter: 170  01:15:59  -3.76  -3.28    -5.671950    0      1        +1.0000
iter: 171  01:16:00  -3.90  -3.14    -5.671950    0      1        +1.0000
iter: 172  01:16:02  -3.59  -3.13    -5.671950    0      1        +1.0000
iter: 173  01:16:03  -3.34  -3.13    -5.671952    0      1        +1.0000
iter: 174  01:16:05  -3.19  -3.00    -5.671953    0      1        +1.0000
iter: 175  01:16:06  -2.58  -2.99    -5.671993    0      1        +1.0000
iter: 176  01:16:08  -1.99  -2.41    -5.672051    0      1        +1.0000
iter: 177  01:16:09  -1.59  -2.23    -5.672230    0      1        +1.0000
iter: 178  01:16:11  -1.05  -2.00    -5.673050    0      1        +1.0000
iter: 179  01:16:12  -0.46  -1.70    -5.676063    0      1        +1.0000
iter: 180  01:16:14  +0.03  -1.41    -5.682687    0      1        +1.0000
iter: 181  01:16:15  +0.47  -1.20    -5.699997    0      1        +1.0000
iter: 182  01:16:17  +1.06  -0.99    -5.697118    0      1        +1.0000
iter: 183  01:16:18  +2.76  -0.78    -4.587781    0      1        +1.0000
iter: 184  01:16:20  +3.54  -0.71    -1.013791    0      1        +1.0000
iter: 185  01:16:21  +3.42  -0.75     2.468589    0      1        +1.0000
iter: 186  01:16:23  +2.80  -0.71     6.056120    0      1        +1.0000
iter: 187  01:16:24  +2.72  -0.76     2.247873    0      1        +1.0000
iter: 188  01:16:25  +2.26  -1.00     0.927863    0      1        +1.0000
iter: 189  01:16:27  +3.21  -1.05    -4.038154    0      1        +1.0000
iter: 190  01:16:28  +2.70  -1.07    -5.630994    0      1        +1.0000
iter: 191  01:16:30  +0.44  -1.06    -5.633878    0      1        +1.0000
iter: 192  01:16:31  +0.97  -0.91    -5.691563    0      1        +1.0000
iter: 193  01:16:33  +0.89  -0.84    -5.682594    0      1        +1.0000
iter: 194  01:16:34  +0.68  -0.84    -5.690435    0      1        +1.0000
iter: 195  01:16:36  +0.23  -1.26    -5.684997    0      1        +1.0000
iter: 196  01:16:37  +0.22  -1.13    -5.672912    0      1        +1.0000
iter: 197  01:16:39  -1.44  -1.87    -5.672419    0      1        +1.0000
iter: 198  01:16:40  -1.62  -2.10    -5.672270    0      1        +1.0000
iter: 199  01:16:42  -1.74  -2.27    -5.672453    0      1        +1.0000
iter: 200  01:16:43  -1.50  -2.06    -5.672363    0      1        +1.0000
iter: 201  01:16:45  -1.69  -2.24    -5.672402    0      1        +1.0000
iter: 202  01:16:46  -1.26  -2.13    -5.673051    0      1        +1.0000
iter: 203  01:16:48  -0.61  -1.79    -5.675336    0      1        +1.0000
iter: 204  01:16:49  -0.11  -1.47    -5.679894    0      1        +1.0000
iter: 205  01:16:51  +0.34  -1.28    -5.695631    0      1        +1.0000
iter: 206  01:16:52  +1.00  -1.03    -5.703854    0      1        +1.0000
iter: 207  01:16:54  +2.68  -0.79    -4.703356    0      1        +1.0000
iter: 208  01:16:55  +3.15  -0.71    -2.713115    0      1        +1.0000
iter: 209  01:16:56  +3.46  -0.74     0.894177    0      1        +1.0000
iter: 210  01:16:58  +2.44  -0.64     2.844365    0      1        +1.0000
iter: 211  01:16:59  +1.72  -0.68     3.365425    0      1        +1.0000
iter: 212  01:17:01  +2.78  -0.81    -0.665729    0      1        +1.0000
iter: 213  01:17:02  +2.62  -1.19    -2.454524    0      1        +1.0000
iter: 214  01:17:04  +1.99  -1.14    -2.877945    0      1        +1.0000
iter: 215  01:17:05  +2.29  -1.07    -3.713350    0      1        +1.0000
iter: 216  01:17:07  +1.97  -1.05    -3.364341    0      1        +1.0000
iter: 217  01:17:08  +1.97  -0.98    -3.481005    0      1        +1.0000
iter: 218  01:17:10  +1.83  -0.96    -3.918693    0      1        +1.0000
iter: 219  01:17:11  +1.22  -0.89    -3.715109    0      1        +1.0000
iter: 220  01:17:13  +1.89  -1.00    -3.218550    0      1        +1.0000
iter: 221  01:17:14  +2.15  -1.05    -4.113054    0      1        +1.0000
iter: 222  01:17:16  +2.18  -1.09    -4.872576    0      1        +1.0000
iter: 223  01:17:17  +2.21  -1.12    -5.623975    0      1        +1.0000
iter: 224  01:17:19  +0.72  -1.18    -5.683699    0      1        +1.0000
iter: 225  01:17:20  +0.47  -1.24    -5.678336    0      1        +1.0000
iter: 226  01:17:22  -0.13  -1.43    -5.673690    0      1        +1.0000
iter: 227  01:17:23  -0.99  -1.74    -5.672853    0      1        +1.0000
iter: 228  01:17:24  -1.55  -2.06    -5.672573    0      1        +1.0000
iter: 229  01:17:26  -2.00  -2.30    -5.672466    0      1        +1.0000
iter: 230  01:17:27  -2.60  -2.53    -5.672443    0      1        +1.0000
iter: 231  01:17:29  -2.23  -2.62    -5.672425    0      1        +1.0000
iter: 232  01:17:30  -2.77  -2.77    -5.672428    0      1        +1.0000
iter: 233  01:17:32  -2.80  -2.90    -5.672434    0      1        +1.0000
iter: 234  01:17:33  -2.81  -3.26    -5.672447    0      1        +1.0000
iter: 235  01:17:35  -2.75  -3.53    -5.672462    0      1        +1.0000
iter: 236  01:17:36  -2.70  -3.77    -5.672480    0      1        +1.0000
iter: 237  01:17:38  -2.55  -3.58    -5.672507    0      1        +1.0000
iter: 238  01:17:39  -2.36  -3.35    -5.672550    0      1        +1.0000
iter: 239  01:17:41  -2.17  -2.87    -5.672610    0      1        +1.0000
iter: 240  01:17:42  -1.92  -2.61    -5.672715    0      1        +1.0000
iter: 241  01:17:44  -1.56  -2.35    -5.672971    0      1        +1.0000
iter: 242  01:17:45  -1.11  -2.05    -5.673627    0      1        +1.0000
iter: 243  01:17:47  -0.66  -1.78    -5.675191    0      1        +1.0000
iter: 244  01:17:48  -0.19  -1.55    -5.680150    0      1        +1.0000
iter: 245  01:17:50  +0.33  -1.29    -5.695703    0      1        +1.0000
iter: 246  01:17:51  +0.79  -1.04    -5.713054    0      1        +1.0000
iter: 247  01:17:53  +1.27  -0.87    -5.636547    0      1        +1.0000
iter: 248  01:17:54  +2.90  -0.77    -4.432457    0      1        +1.0000
iter: 249  01:17:55  +3.92  -0.72     2.910778    0      1        +1.0000
iter: 250  01:17:57  +2.77  -0.66     3.502933    0      1        +1.0000
iter: 251  01:17:58  +3.19  -0.72    -3.766619    0      1        +1.0000
iter: 252  01:18:00  +2.48  -0.73    -2.690926    0      1        +1.0000
iter: 253  01:18:01  +2.19  -0.83    -2.966222    0      1        +1.0000
iter: 254  01:18:03  +1.86  -1.06    -3.156353    0      1        +1.0000
iter: 255  01:18:04  +2.28  -1.12    -4.426402    0      1        +1.0000
iter: 256  01:18:06  +2.60  -1.22    -5.623742    0      1        +1.0000
iter: 257  01:18:07  +1.14  -1.20    -5.739360    0      1        +1.0000
iter: 258  01:18:09  +0.50  -1.17    -5.716614    0      1        +1.0000
iter: 259  01:18:10  +0.98  -1.30    -5.680852    0      1        +1.0000
iter: 260  01:18:12  -0.09  -1.53    -5.682675    0      1        +1.0000
iter: 261  01:18:13  -0.13  -1.57    -5.689398    0      1        +1.0000
iter: 262  01:18:15  +0.18  -1.25    -5.695006    0      1        +1.0000
iter: 263  01:18:16  +0.36  -1.13    -5.689651    0      1        +1.0000
iter: 264  01:18:18  +0.37  -1.19    -5.691123    0      1        +1.0000
iter: 265  01:18:19  +0.20  -1.21    -5.687464    0      1        +1.0000
iter: 266  01:18:21  +0.01  -1.46    -5.692294    0      1        +1.0000
iter: 267  01:18:22  +0.40  -1.23    -5.696887    0      1        +1.0000
iter: 268  01:18:24  +0.73  -1.13    -5.714395    0      1        +1.0000
iter: 269  01:18:25  +1.42  -0.86    -5.599633    0      1        +1.0000
iter: 270  01:18:26  +2.47  -0.78    -5.010906    0      1        +1.0000
iter: 271  01:18:28  +3.52  -0.77    -2.137027    0      1        +1.0000
iter: 272  01:18:29  +2.56  -0.72    -1.587861    0      1        +1.0000
iter: 273  01:18:31  +2.01  -0.54    -0.233351    0      1        +1.0000
iter: 274  01:18:32  +2.87  -0.54     1.767068    0      1        +1.0000
iter: 275  01:18:34  +3.04  -0.90     2.797795    0      1        +1.0000
iter: 276  01:18:35  +2.72  -0.87    -2.078402    0      1        +1.0000
iter: 277  01:18:37  +2.59  -1.14    -4.206609    0      1        +1.0000
iter: 278  01:18:38  +2.58  -1.17    -5.400566    0      1        +1.0000
iter: 279  01:18:40  +1.89  -0.97    -5.818313    0      1        +1.0000
iter: 280  01:18:41  +0.99  -0.90    -5.915751    0      1        +1.0000
iter: 281  01:18:43  +1.48  -0.84    -5.850930    0      1        +1.0000
iter: 282  01:18:44  +2.04  -0.72    -5.464158    0      1        +1.0000
iter: 283  01:18:46  +1.45  -0.68    -5.316042    0      1        +1.0000
iter: 284  01:18:47  +1.97  -0.91    -5.696875    0      1        +1.0000
iter: 285  01:18:49  +0.55  -1.23    -5.717204    0      1        +1.0000
iter: 286  01:18:50  +1.23  -1.28    -5.683775    0      1        +1.0000
iter: 287  01:18:52  -0.45  -1.56    -5.682965    0      1        +1.0000
iter: 288  01:18:53  +0.15  -1.62    -5.679154    0      1        +1.0000
iter: 289  01:18:54  -0.59  -1.67    -5.680547    0      1        +1.0000
iter: 290  01:18:56  -0.09  -1.56    -5.688448    0      1        +1.0000
iter: 291  01:18:57  +0.24  -1.21    -5.691055    0      1        +1.0000
iter: 292  01:18:59  +0.30  -1.15    -5.690799    0      1        +1.0000
iter: 293  01:19:00  +0.50  -1.15    -5.696842    0      1        +1.0000
iter: 294  01:19:02  +0.80  -0.97    -5.711159    0      1        +1.0000
iter: 295  01:19:03  +1.86  -0.87    -5.472109    0      1        +1.0000
iter: 296  01:19:05  +3.14  -0.73    -4.431977    0      1        +1.0000
iter: 297  01:19:06  +3.41  -0.58     0.002489    0      1        +1.0000
iter: 298  01:19:08  +2.27  -0.55     0.403924    0      1        +1.0000
iter: 299  01:19:09  +1.94  -0.73    -0.076974    0      1        +1.0000
iter: 300  01:19:11  +2.71  -0.86    -2.880836    0      1        +1.0000
iter: 301  01:19:12  +2.79  -1.13    -5.563097    0      1        +1.0000
iter: 302  01:19:14  +1.70  -0.93    -5.884439    0      1        +1.0000
iter: 303  01:19:15  +1.25  -0.85    -6.067096    0      1        +1.0000
iter: 304  01:19:17  +2.18  -0.70    -5.701196    0      1        +1.0000
iter: 305  01:19:18  +1.68  -0.67    -5.218410    0      1        +1.0000
iter: 306  01:19:20  +1.97  -0.95    -5.581656    0      1        +1.0000
iter: 307  01:19:21  +0.95  -1.25    -5.678239    0      1        +1.0000
iter: 308  01:19:23  +0.37  -1.49    -5.683123    0      1        +1.0000
iter: 309  01:19:24  -0.55  -1.70    -5.682566    0      1        +1.0000
iter: 310  01:19:25  -0.53  -1.73    -5.682500    0      1        +1.0000
iter: 311  01:19:27  -0.99  -1.76    -5.682592    0      1        +1.0000
iter: 312  01:19:28  -1.08  -1.78    -5.681963    0      1        +1.0000
iter: 313  01:19:30  -1.44  -2.20    -5.682035    0      1        +1.0000
iter: 314  01:19:31  -1.55  -2.14    -5.681935    0      1        +1.0000
iter: 315  01:19:33  -1.99  -2.36    -5.681878    0      1        +1.0000
iter: 316  01:19:34  -2.64  -2.64    -5.681853    0      1        +1.0000
iter: 317  01:19:36  -3.41  -3.34    -5.681855    0      1        +1.0000
iter: 318  01:19:37  -3.45  -3.33    -5.681857    0      1        +1.0000
iter: 319  01:19:39  -4.06  -3.76    -5.681858    0      1        +1.0000
iter: 320  01:19:40  -3.85  -4.03    -5.681860    0      1        +1.0000
iter: 321  01:19:42  -3.47  -3.62    -5.681864    0      1        +1.0000
iter: 322  01:19:43  -3.18  -3.11    -5.681869    0      1        +1.0000
iter: 323  01:19:45  -3.04  -3.01    -5.681874    0      1        +1.0000
iter: 324  01:19:46  -2.31  -2.91    -5.681942    0      1        +1.0000
iter: 325  01:19:48  -1.95  -2.31    -5.681949    0      1        +1.0000
iter: 326  01:19:49  -1.83  -2.30    -5.682032    0      1        +1.0000
iter: 327  01:19:51  -1.27  -2.14    -5.682611    0      1        +1.0000
iter: 328  01:19:52  -0.77  -1.78    -5.683757    0      1        +1.0000
iter: 329  01:19:54  -0.51  -1.56    -5.683955    0      1        +1.0000
iter: 330  01:19:55  -0.34  -1.52    -5.686234    0      1        +1.0000
iter: 331  01:19:56  -0.14  -1.36    -5.681845    0      1        +1.0000
iter: 332  01:19:58  -0.67  -2.16    -5.685504    0      1        +1.0000
iter: 333  01:19:59  -0.24  -1.44    -5.686333    0      1        +1.0000

Did not converge!

Here are some tips:

1) Make sure the geometry and spin-state is physically sound.
2) Use less aggressive density mixing.
3) Solve the eigenvalue problem more accurately at each scf-step.
4) Use a smoother distribution function for the occupation numbers.
5) Try adding more empty states.
6) Use enough k-points.
7) Don't let your structure optimization algorithm take too large steps.
8) Solve the Poisson equation more accurately.
9) Better initial guess for the wave functions.

See details here:

    https://wiki.fysik.dtu.dk/gpaw/documentation/convergence.html


Timing:                              incl.     excl.
-----------------------------------------------------------
Basic WFS set positions:             0.000     0.000   0.0% |
Basis functions set positions:       0.003     0.003   0.0% |
LCAO WFS Initialize:                 1.471     0.048   0.0% |
 Hamiltonian:                        1.423     0.001   0.0% |
  Atomic:                            0.000     0.000   0.0% |
   XC Correction:                    0.000     0.000   0.0% |
  Calculate atomic Hamiltonians:     0.000     0.000   0.0% |
  Communicate:                       0.077     0.077   0.0% |
  Hartree integrate/restrict:        0.036     0.036   0.0% |
  Initialize Hamiltonian:            0.001     0.001   0.0% |
  Poisson:                           0.275     0.004   0.0% |
   Communicate bwd 0:                0.055     0.055   0.0% |
   Communicate bwd 1:                0.050     0.050   0.0% |
   Communicate fwd 0:                0.049     0.049   0.0% |
   Communicate fwd 1:                0.055     0.055   0.0% |
   fft:                              0.015     0.015   0.0% |
   fft2:                             0.046     0.046   0.0% |
  XC 3D grid:                        1.030     1.030   0.2% |
  vbar:                              0.003     0.003   0.0% |
P tci:                               0.000     0.000   0.0% |
SCF-cycle:                         491.335     0.100   0.0% |
 Density:                           17.819     0.007   0.0% |
  Atomic density matrices:           0.637     0.637   0.1% |
  Mix:                              15.899    15.899   3.2% ||
  Multipole moments:                 0.038     0.038   0.0% |
  Normalize:                         0.091     0.091   0.0% |
  Pseudo density:                    1.147     0.279   0.1% |
   Calculate density matrix:         0.025     0.025   0.0% |
   Construct density:                0.840     0.840   0.2% |
   Symmetrize density:               0.004     0.004   0.0% |
 Hamiltonian:                      471.899     0.480   0.1% |
  Atomic:                            0.105     0.103   0.0% |
   XC Correction:                    0.002     0.002   0.0% |
  Calculate atomic Hamiltonians:     0.117     0.117   0.0% |
  Communicate:                      25.845    25.845   5.2% |-|
  Hartree integrate/restrict:       11.106    11.106   2.2% ||
  Poisson:                          93.321     1.441   0.3% |
   Communicate bwd 0:               18.681    18.681   3.8% |-|
   Communicate bwd 1:               17.202    17.202   3.5% ||
   Communicate fwd 0:               16.878    16.878   3.4% ||
   Communicate fwd 1:               18.755    18.755   3.8% |-|
   fft:                              4.865     4.865   1.0% |
   fft2:                            15.499    15.499   3.1% ||
  XC 3D grid:                      340.003   340.003  68.8% |---------------------------|
  vbar:                              0.922     0.922   0.2% |
 LCAO eigensolver:                   1.518     0.049   0.0% |
  Calculate projections:             0.006     0.006   0.0% |
  DenseAtomicCorrection:             0.016     0.016   0.0% |
  Distribute overlap matrix:         0.510     0.510   0.1% |
  Orbital Layouts:                   0.113     0.113   0.0% |
  Potential matrix:                  0.761     0.761   0.2% |
  Residual:                          0.063     0.063   0.0% |
ST tci:                              0.001     0.001   0.0% |
Set symmetry:                        0.001     0.001   0.0% |
TCI: Evaluate splines:               0.182     0.182   0.0% |
mktci:                               0.001     0.001   0.0% |
Other:                               1.521     1.521   0.3% |
-----------------------------------------------------------
Total:                                       494.515 100.0%

Memory usage: 417.51 MiB
Date: Sun Feb 17 01:20:01 2019
